(kicad_symbol_lib (version 20211014) (generator SamacSys_ECAD_Model)
  (symbol "ERJ-PM8F1504V" (in_bom yes) (on_board yes) (pin_names hide)
    (property "Reference" "R" (at 13.97 6.35 0)
      (effects (font (size 1.27 1.27)) (justify left top))
    )
    (property "Value" "ERJ-PM8F1504V" (at 13.97 3.81 0)
      (effects (font (size 1.27 1.27)) (justify left top))
    )
    (property "Footprint" "Pattern_00015" (at 13.97 -96.19 0)
      (effects (font (size 1.27 1.27)) (justify left top) hide)
    )
    (property "Datasheet" "http://industrial.panasonic.com/cdbs/www-data/pdf/RDO0000/AOA0000C331.pdf" (at 13.97 -196.19 0)
      (effects (font (size 1.27 1.27)) (justify left top) hide)
    )
    (property "ki_description" "Power Rating 0.66W,Resistance 1500000 Ohm,LxW(EIA) 3.2 x 1.6 (EIA:1206) mm" (at 13.97 -296.19 0)
      (effects (font (size 1.27 1.27)) (justify left top) hide)
    )
    (property "Height" "" (at 13.97 -396.19 0)
      (effects (font (size 1.27 1.27)) (justify left top) hide)
    )
    (property "Mouser Part Number" "667-ERJ-PM8F1504V" (at 13.97 -496.19 0)
      (effects (font (size 1.27 1.27)) (justify left top) hide)
    )
    (property "Mouser Price/Stock" "https://www.mouser.co.uk/ProductDetail/Panasonic/ERJ-PM8F1504V?qs=MyNHzdoqoQLDAaI6x0i0VA%3D%3D" (at 13.97 -596.19 0)
      (effects (font (size 1.27 1.27)) (justify left top) hide)
    )
    (property "Manufacturer_Name" "Panasonic" (at 13.97 -696.19 0)
      (effects (font (size 1.27 1.27)) (justify left top) hide)
    )
    (property "Manufacturer_Part_Number" "ERJ-PM8F1504V" (at 13.97 -796.19 0)
      (effects (font (size 1.27 1.27)) (justify left top) hide)
    )
    (rectangle
      (start 5.08 1.27)
      (end 12.7 -1.27)
      (stroke (width 0.254) (type default))
      (fill (type background))
    )
    (pin passive line (at 0 0 0) (length 5.08)
      (name "1" (effects (font (size 1.27 1.27))))
      (number "1" (effects (font (size 1.27 1.27))))
    )
    (pin passive line (at 17.78 0 180) (length 5.08)
      (name "2" (effects (font (size 1.27 1.27))))
      (number "2" (effects (font (size 1.27 1.27))))
    )
  )
)
