PCBNEW-LibModule-V1  2023-10-31 20:06:08
# encoding utf-8
Units mm
$INDEX
Pattern_00015
$EndINDEX
$MODULE Pattern_00015
Po 0 0 0 15 65415e30 00000000 ~~
Li Pattern_00015
Cd Pattern_00015
Kw Resistor
Sc 0
At SMD
AR 
Op 0 0 0
T0 0 0 1.27 1.27 0 0.254 N V 21 N "R**"
T1 0 0 1.27 1.27 0 0.254 N I 21 N "Pattern_00015"
DS -1.6 -0.8 1.6 -0.8 0.2 24
DS 1.6 -0.8 1.6 0.8 0.2 24
DS 1.6 0.8 -1.6 0.8 0.2 24
DS -1.6 0.8 -1.6 -0.8 0.2 24
DS -3.725 -1.8 3.15 -1.8 0.05 24
DS 3.15 -1.8 3.15 1.8 0.05 24
DS 3.15 1.8 -3.725 1.8 0.05 24
DS -3.725 1.8 -3.725 -1.8 0.05 24
DC -2.825 0 -2.875 0 0.254 21
$PAD
Po -1.725 0
Sh "1" R 1.25 1.55 0 0 0
At SMD N 00888000
Ne 0 ""
$EndPAD
$PAD
Po 1.725 0
Sh "2" R 1.25 1.55 0 0 0
At SMD N 00888000
Ne 0 ""
$EndPAD
$EndMODULE Pattern_00015
$EndLIBRARY
