(kicad_symbol_lib (version 20211014) (generator SamacSys_ECAD_Model)
  (symbol "LMK212AB7106KG-T" (in_bom yes) (on_board yes) (pin_names hide)
    (property "Reference" "C" (at 8.89 6.35 0)
      (effects (font (size 1.27 1.27)) (justify left top))
    )
    (property "Value" "LMK212AB7106KG-T" (at 8.89 3.81 0)
      (effects (font (size 1.27 1.27)) (justify left top))
    )
    (property "Footprint" "CAPC2012X135N" (at 8.89 -96.19 0)
      (effects (font (size 1.27 1.27)) (justify left top) hide)
    )
    (property "Datasheet" "https://www.yuden.co.jp/productdata/catalog/mlcc01_e.pdf" (at 8.89 -196.19 0)
      (effects (font (size 1.27 1.27)) (justify left top) hide)
    )
    (property "ki_description" "Taiyo Yuden 0805 (2012M) 10uF Multilayer Ceramic Capacitor MLCC 10V dc +/-10% SMD LMK212AB7106KG-T" (at 8.89 -296.19 0)
      (effects (font (size 1.27 1.27)) (justify left top) hide)
    )
    (property "Height" "1.35" (at 8.89 -396.19 0)
      (effects (font (size 1.27 1.27)) (justify left top) hide)
    )
    (property "Mouser Part Number" "963-LMK212AB7106KG-T" (at 8.89 -496.19 0)
      (effects (font (size 1.27 1.27)) (justify left top) hide)
    )
    (property "Mouser Price/Stock" "https://www.mouser.co.uk/ProductDetail/Taiyo-Yuden/LMK212AB7106KG-T?qs=vF%252B8ahGVilfAi6%2FZEaET2w%3D%3D" (at 8.89 -596.19 0)
      (effects (font (size 1.27 1.27)) (justify left top) hide)
    )
    (property "Manufacturer_Name" "TAIYO YUDEN" (at 8.89 -696.19 0)
      (effects (font (size 1.27 1.27)) (justify left top) hide)
    )
    (property "Manufacturer_Part_Number" "LMK212AB7106KG-T" (at 8.89 -796.19 0)
      (effects (font (size 1.27 1.27)) (justify left top) hide)
    )
    (polyline
      (pts
        (xy 5.588 2.54)
        (xy 5.588 -2.54)
      )
      (stroke (width 0.254) (type default))
      (fill (type none))
    )
    (polyline
      (pts
        (xy 7.112 2.54)
        (xy 7.112 -2.54)
      )
      (stroke (width 0.254) (type default))
      (fill (type none))
    )
    (polyline
      (pts
        (xy 5.08 0)
        (xy 5.588 0)
      )
      (stroke (width 0.254) (type default))
      (fill (type none))
    )
    (polyline
      (pts
        (xy 7.112 0)
        (xy 7.62 0)
      )
      (stroke (width 0.254) (type default))
      (fill (type none))
    )
    (pin passive line (at 0 0 0) (length 5.08)
      (name "1" (effects (font (size 1.27 1.27))))
      (number "1" (effects (font (size 1.27 1.27))))
    )
    (pin passive line (at 12.7 0 180) (length 5.08)
      (name "2" (effects (font (size 1.27 1.27))))
      (number "2" (effects (font (size 1.27 1.27))))
    )
  )
)
