PCBNEW-LibModule-V1  2023-10-02 15:18:40
# encoding utf-8
Units mm
$INDEX
ESP32C6WROOM1N4
$EndINDEX
$MODULE ESP32C6WROOM1N4
Po 0 0 0 15 651ad140 00000000 ~~
Li ESP32C6WROOM1N4
Cd ESP32-C6-WROOM-1-N4-1
Kw Integrated Circuit
Sc 0
At SMD
AR 
Op 0 0 0
T0 0.000 -0 1.27 1.27 0 0.254 N V 21 N "IC**"
T1 0.000 -0 1.27 1.27 0 0.254 N I 21 N "ESP32C6WROOM1N4"
DS -9 -12.75 9 -12.75 0.1 24
DS 9 -12.75 9 12.75 0.1 24
DS 9 12.75 -9 12.75 0.1 24
DS -9 12.75 -9 -12.75 0.1 24
DS -10.5 -13.75 10.5 -13.75 0.1 24
DS 10.5 -13.75 10.5 13.75 0.1 24
DS 10.5 13.75 -10.5 13.75 0.1 24
DS -10.5 13.75 -10.5 -13.75 0.1 24
DS -9 12 -9 12.75 0.2 21
DS -9 12.75 9 12.75 0.2 21
DS 9 12.75 9 12 0.2 21
DS -9 -6 -9 -12.75 0.2 21
DS -9 -12.75 9 -12.75 0.2 21
DS 9 -12.75 9 -6 0.2 21
DS -10 -5.26 -10 -5.26 0.1 21
DS -10.1 -5.26 -10.1 -5.26 0.1 21
DA -10.05 -5.26 -10.000 -5.26 -1800 0.1 21
DA -10.05 -5.26 -10.100 -5.26 -1800 0.1 21
$PAD
Po -8.750 -5.26
Sh "1" R 0.900 1.500 0 0 900
At SMD N 00888000
Ne 0 ""
$EndPAD
$PAD
Po -8.750 -3.99
Sh "2" R 0.900 1.500 0 0 900
At SMD N 00888000
Ne 0 ""
$EndPAD
$PAD
Po -8.750 -2.72
Sh "3" R 0.900 1.500 0 0 900
At SMD N 00888000
Ne 0 ""
$EndPAD
$PAD
Po -8.750 -1.45
Sh "4" R 0.900 1.500 0 0 900
At SMD N 00888000
Ne 0 ""
$EndPAD
$PAD
Po -8.750 -0.18
Sh "5" R 0.900 1.500 0 0 900
At SMD N 00888000
Ne 0 ""
$EndPAD
$PAD
Po -8.750 1.09
Sh "6" R 0.900 1.500 0 0 900
At SMD N 00888000
Ne 0 ""
$EndPAD
$PAD
Po -8.750 2.36
Sh "7" R 0.900 1.500 0 0 900
At SMD N 00888000
Ne 0 ""
$EndPAD
$PAD
Po -8.750 3.63
Sh "8" R 0.900 1.500 0 0 900
At SMD N 00888000
Ne 0 ""
$EndPAD
$PAD
Po -8.750 4.9
Sh "9" R 0.900 1.500 0 0 900
At SMD N 00888000
Ne 0 ""
$EndPAD
$PAD
Po -8.750 6.17
Sh "10" R 0.900 1.500 0 0 900
At SMD N 00888000
Ne 0 ""
$EndPAD
$PAD
Po -8.750 7.44
Sh "11" R 0.900 1.500 0 0 900
At SMD N 00888000
Ne 0 ""
$EndPAD
$PAD
Po -8.750 8.71
Sh "12" R 0.900 1.500 0 0 900
At SMD N 00888000
Ne 0 ""
$EndPAD
$PAD
Po -8.750 9.98
Sh "13" R 0.900 1.500 0 0 900
At SMD N 00888000
Ne 0 ""
$EndPAD
$PAD
Po -8.750 11.25
Sh "14" R 0.900 1.500 0 0 900
At SMD N 00888000
Ne 0 ""
$EndPAD
$PAD
Po 8.750 11.25
Sh "15" R 0.900 1.500 0 0 900
At SMD N 00888000
Ne 0 ""
$EndPAD
$PAD
Po 8.750 9.98
Sh "16" R 0.900 1.500 0 0 900
At SMD N 00888000
Ne 0 ""
$EndPAD
$PAD
Po 8.750 8.71
Sh "17" R 0.900 1.500 0 0 900
At SMD N 00888000
Ne 0 ""
$EndPAD
$PAD
Po 8.750 7.44
Sh "18" R 0.900 1.500 0 0 900
At SMD N 00888000
Ne 0 ""
$EndPAD
$PAD
Po 8.750 6.17
Sh "19" R 0.900 1.500 0 0 900
At SMD N 00888000
Ne 0 ""
$EndPAD
$PAD
Po 8.750 4.9
Sh "20" R 0.900 1.500 0 0 900
At SMD N 00888000
Ne 0 ""
$EndPAD
$PAD
Po 8.750 3.63
Sh "21" R 0.900 1.500 0 0 900
At SMD N 00888000
Ne 0 ""
$EndPAD
$PAD
Po 8.750 2.36
Sh "22" R 0.900 1.500 0 0 900
At SMD N 00888000
Ne 0 ""
$EndPAD
$PAD
Po 8.750 1.09
Sh "23" R 0.900 1.500 0 0 900
At SMD N 00888000
Ne 0 ""
$EndPAD
$PAD
Po 8.750 -0.18
Sh "24" R 0.900 1.500 0 0 900
At SMD N 00888000
Ne 0 ""
$EndPAD
$PAD
Po 8.750 -1.45
Sh "25" R 0.900 1.500 0 0 900
At SMD N 00888000
Ne 0 ""
$EndPAD
$PAD
Po 8.750 -2.72
Sh "26" R 0.900 1.500 0 0 900
At SMD N 00888000
Ne 0 ""
$EndPAD
$PAD
Po 8.750 -3.99
Sh "27" R 0.900 1.500 0 0 900
At SMD N 00888000
Ne 0 ""
$EndPAD
$PAD
Po 8.750 -5.26
Sh "28" R 0.900 1.500 0 0 900
At SMD N 00888000
Ne 0 ""
$EndPAD
$PAD
Po -1.505 0.46
Sh "29" R 0.800 0.800 0 0 900
At SMD N 00888000
Ne 0 ""
$EndPAD
$PAD
Po -1.505 -0.79
Sh "30" R 0.800 0.800 0 0 900
At SMD N 00888000
Ne 0 ""
$EndPAD
$PAD
Po -2.755 -0.79
Sh "31" R 0.800 0.800 0 0 900
At SMD N 00888000
Ne 0 ""
$EndPAD
$PAD
Po -2.755 0.46
Sh "32" R 0.800 0.800 0 0 900
At SMD N 00888000
Ne 0 ""
$EndPAD
$PAD
Po -2.755 1.71
Sh "33" R 0.800 0.800 0 0 900
At SMD N 00888000
Ne 0 ""
$EndPAD
$PAD
Po -1.505 1.71
Sh "34" R 0.800 0.800 0 0 900
At SMD N 00888000
Ne 0 ""
$EndPAD
$PAD
Po -0.255 1.71
Sh "35" R 0.800 0.800 0 0 900
At SMD N 00888000
Ne 0 ""
$EndPAD
$PAD
Po -0.255 0.46
Sh "36" R 0.800 0.800 0 0 900
At SMD N 00888000
Ne 0 ""
$EndPAD
$PAD
Po -0.255 -0.79
Sh "37" R 0.800 0.800 0 0 900
At SMD N 00888000
Ne 0 ""
$EndPAD
$EndMODULE ESP32C6WROOM1N4
$EndLIBRARY
