PCBNEW-LibModule-V1  2023-10-02 19:04:54
# encoding utf-8
Units mm
$INDEX
SOIC127P620X160-8N
$EndINDEX
$MODULE SOIC127P620X160-8N
Po 0 0 0 15 651b0646 00000000 ~~
Li SOIC127P620X160-8N
Cd BD6231F-E2
Kw Motor
Sc 0
At SMD
AR 
Op 0 0 0
T0 0 0 1.27 1.27 0 0.254 N V 21 N "M**"
T1 0 0 1.27 1.27 0 0.254 N I 21 N "SOIC127P620X160-8N"
DS -3.875 -2.85 3.875 -2.85 0.05 24
DS 3.875 -2.85 3.875 2.85 0.05 24
DS 3.875 2.85 -3.875 2.85 0.05 24
DS -3.875 2.85 -3.875 -2.85 0.05 24
DS -2.2 -2.5 2.2 -2.5 0.1 24
DS 2.2 -2.5 2.2 2.5 0.1 24
DS 2.2 2.5 -2.2 2.5 0.1 24
DS -2.2 2.5 -2.2 -2.5 0.1 24
DS -2.2 -1.23 -0.93 -2.5 0.1 24
DS -1.925 -2.5 1.925 -2.5 0.2 21
DS 1.925 -2.5 1.925 2.5 0.2 21
DS 1.925 2.5 -1.925 2.5 0.2 21
DS -1.925 2.5 -1.925 -2.5 0.2 21
DS -3.625 -2.605 -2.275 -2.605 0.2 21
$PAD
Po -2.95 -1.905
Sh "1" R 0.7 1.35 0 0 900
At SMD N 00888000
Ne 0 ""
$EndPAD
$PAD
Po -2.95 -0.635
Sh "2" R 0.7 1.35 0 0 900
At SMD N 00888000
Ne 0 ""
$EndPAD
$PAD
Po -2.95 0.635
Sh "3" R 0.7 1.35 0 0 900
At SMD N 00888000
Ne 0 ""
$EndPAD
$PAD
Po -2.95 1.905
Sh "4" R 0.7 1.35 0 0 900
At SMD N 00888000
Ne 0 ""
$EndPAD
$PAD
Po 2.95 1.905
Sh "5" R 0.7 1.35 0 0 900
At SMD N 00888000
Ne 0 ""
$EndPAD
$PAD
Po 2.95 0.635
Sh "6" R 0.7 1.35 0 0 900
At SMD N 00888000
Ne 0 ""
$EndPAD
$PAD
Po 2.95 -0.635
Sh "7" R 0.7 1.35 0 0 900
At SMD N 00888000
Ne 0 ""
$EndPAD
$PAD
Po 2.95 -1.905
Sh "8" R 0.7 1.35 0 0 900
At SMD N 00888000
Ne 0 ""
$EndPAD
$EndMODULE SOIC127P620X160-8N
$EndLIBRARY
