%TF.GenerationSoftware,KiCad,Pcbnew,(7.0.0-0)*%
%TF.CreationDate,2023-10-24T16:32:42-05:00*%
%TF.ProjectId,ece445-pcb,65636534-3435-42d7-9063-622e6b696361,rev?*%
%TF.SameCoordinates,Original*%
%TF.FileFunction,Legend,Top*%
%TF.FilePolarity,Positive*%
%FSLAX46Y46*%
G04 Gerber Fmt 4.6, Leading zero omitted, Abs format (unit mm)*
G04 Created by KiCad (PCBNEW (7.0.0-0)) date 2023-10-24 16:32:42*
%MOMM*%
%LPD*%
G01*
G04 APERTURE LIST*
%ADD10C,0.150000*%
%ADD11C,0.254000*%
%ADD12C,0.120000*%
%ADD13C,0.152400*%
%ADD14C,0.200000*%
%ADD15C,0.100000*%
G04 APERTURE END LIST*
D10*
%TO.C,C6*%
X81583333Y-67022142D02*
X81535714Y-67069761D01*
X81535714Y-67069761D02*
X81392857Y-67117380D01*
X81392857Y-67117380D02*
X81297619Y-67117380D01*
X81297619Y-67117380D02*
X81154762Y-67069761D01*
X81154762Y-67069761D02*
X81059524Y-66974523D01*
X81059524Y-66974523D02*
X81011905Y-66879285D01*
X81011905Y-66879285D02*
X80964286Y-66688809D01*
X80964286Y-66688809D02*
X80964286Y-66545952D01*
X80964286Y-66545952D02*
X81011905Y-66355476D01*
X81011905Y-66355476D02*
X81059524Y-66260238D01*
X81059524Y-66260238D02*
X81154762Y-66165000D01*
X81154762Y-66165000D02*
X81297619Y-66117380D01*
X81297619Y-66117380D02*
X81392857Y-66117380D01*
X81392857Y-66117380D02*
X81535714Y-66165000D01*
X81535714Y-66165000D02*
X81583333Y-66212619D01*
X82440476Y-66117380D02*
X82250000Y-66117380D01*
X82250000Y-66117380D02*
X82154762Y-66165000D01*
X82154762Y-66165000D02*
X82107143Y-66212619D01*
X82107143Y-66212619D02*
X82011905Y-66355476D01*
X82011905Y-66355476D02*
X81964286Y-66545952D01*
X81964286Y-66545952D02*
X81964286Y-66926904D01*
X81964286Y-66926904D02*
X82011905Y-67022142D01*
X82011905Y-67022142D02*
X82059524Y-67069761D01*
X82059524Y-67069761D02*
X82154762Y-67117380D01*
X82154762Y-67117380D02*
X82345238Y-67117380D01*
X82345238Y-67117380D02*
X82440476Y-67069761D01*
X82440476Y-67069761D02*
X82488095Y-67022142D01*
X82488095Y-67022142D02*
X82535714Y-66926904D01*
X82535714Y-66926904D02*
X82535714Y-66688809D01*
X82535714Y-66688809D02*
X82488095Y-66593571D01*
X82488095Y-66593571D02*
X82440476Y-66545952D01*
X82440476Y-66545952D02*
X82345238Y-66498333D01*
X82345238Y-66498333D02*
X82154762Y-66498333D01*
X82154762Y-66498333D02*
X82059524Y-66545952D01*
X82059524Y-66545952D02*
X82011905Y-66593571D01*
X82011905Y-66593571D02*
X81964286Y-66688809D01*
%TO.C,C5*%
X81583333Y-64272142D02*
X81535714Y-64319761D01*
X81535714Y-64319761D02*
X81392857Y-64367380D01*
X81392857Y-64367380D02*
X81297619Y-64367380D01*
X81297619Y-64367380D02*
X81154762Y-64319761D01*
X81154762Y-64319761D02*
X81059524Y-64224523D01*
X81059524Y-64224523D02*
X81011905Y-64129285D01*
X81011905Y-64129285D02*
X80964286Y-63938809D01*
X80964286Y-63938809D02*
X80964286Y-63795952D01*
X80964286Y-63795952D02*
X81011905Y-63605476D01*
X81011905Y-63605476D02*
X81059524Y-63510238D01*
X81059524Y-63510238D02*
X81154762Y-63415000D01*
X81154762Y-63415000D02*
X81297619Y-63367380D01*
X81297619Y-63367380D02*
X81392857Y-63367380D01*
X81392857Y-63367380D02*
X81535714Y-63415000D01*
X81535714Y-63415000D02*
X81583333Y-63462619D01*
X82488095Y-63367380D02*
X82011905Y-63367380D01*
X82011905Y-63367380D02*
X81964286Y-63843571D01*
X81964286Y-63843571D02*
X82011905Y-63795952D01*
X82011905Y-63795952D02*
X82107143Y-63748333D01*
X82107143Y-63748333D02*
X82345238Y-63748333D01*
X82345238Y-63748333D02*
X82440476Y-63795952D01*
X82440476Y-63795952D02*
X82488095Y-63843571D01*
X82488095Y-63843571D02*
X82535714Y-63938809D01*
X82535714Y-63938809D02*
X82535714Y-64176904D01*
X82535714Y-64176904D02*
X82488095Y-64272142D01*
X82488095Y-64272142D02*
X82440476Y-64319761D01*
X82440476Y-64319761D02*
X82345238Y-64367380D01*
X82345238Y-64367380D02*
X82107143Y-64367380D01*
X82107143Y-64367380D02*
X82011905Y-64319761D01*
X82011905Y-64319761D02*
X81964286Y-64272142D01*
%TO.C,C7*%
X64833333Y-53592142D02*
X64785714Y-53639761D01*
X64785714Y-53639761D02*
X64642857Y-53687380D01*
X64642857Y-53687380D02*
X64547619Y-53687380D01*
X64547619Y-53687380D02*
X64404762Y-53639761D01*
X64404762Y-53639761D02*
X64309524Y-53544523D01*
X64309524Y-53544523D02*
X64261905Y-53449285D01*
X64261905Y-53449285D02*
X64214286Y-53258809D01*
X64214286Y-53258809D02*
X64214286Y-53115952D01*
X64214286Y-53115952D02*
X64261905Y-52925476D01*
X64261905Y-52925476D02*
X64309524Y-52830238D01*
X64309524Y-52830238D02*
X64404762Y-52735000D01*
X64404762Y-52735000D02*
X64547619Y-52687380D01*
X64547619Y-52687380D02*
X64642857Y-52687380D01*
X64642857Y-52687380D02*
X64785714Y-52735000D01*
X64785714Y-52735000D02*
X64833333Y-52782619D01*
X65166667Y-52687380D02*
X65833333Y-52687380D01*
X65833333Y-52687380D02*
X65404762Y-53687380D01*
%TO.C,R5*%
X101617380Y-37166666D02*
X101141190Y-37499999D01*
X101617380Y-37738094D02*
X100617380Y-37738094D01*
X100617380Y-37738094D02*
X100617380Y-37357142D01*
X100617380Y-37357142D02*
X100665000Y-37261904D01*
X100665000Y-37261904D02*
X100712619Y-37214285D01*
X100712619Y-37214285D02*
X100807857Y-37166666D01*
X100807857Y-37166666D02*
X100950714Y-37166666D01*
X100950714Y-37166666D02*
X101045952Y-37214285D01*
X101045952Y-37214285D02*
X101093571Y-37261904D01*
X101093571Y-37261904D02*
X101141190Y-37357142D01*
X101141190Y-37357142D02*
X101141190Y-37738094D01*
X100617380Y-36261904D02*
X100617380Y-36738094D01*
X100617380Y-36738094D02*
X101093571Y-36785713D01*
X101093571Y-36785713D02*
X101045952Y-36738094D01*
X101045952Y-36738094D02*
X100998333Y-36642856D01*
X100998333Y-36642856D02*
X100998333Y-36404761D01*
X100998333Y-36404761D02*
X101045952Y-36309523D01*
X101045952Y-36309523D02*
X101093571Y-36261904D01*
X101093571Y-36261904D02*
X101188809Y-36214285D01*
X101188809Y-36214285D02*
X101426904Y-36214285D01*
X101426904Y-36214285D02*
X101522142Y-36261904D01*
X101522142Y-36261904D02*
X101569761Y-36309523D01*
X101569761Y-36309523D02*
X101617380Y-36404761D01*
X101617380Y-36404761D02*
X101617380Y-36642856D01*
X101617380Y-36642856D02*
X101569761Y-36738094D01*
X101569761Y-36738094D02*
X101522142Y-36785713D01*
%TO.C,R8*%
X93583333Y-42967380D02*
X93250000Y-42491190D01*
X93011905Y-42967380D02*
X93011905Y-41967380D01*
X93011905Y-41967380D02*
X93392857Y-41967380D01*
X93392857Y-41967380D02*
X93488095Y-42015000D01*
X93488095Y-42015000D02*
X93535714Y-42062619D01*
X93535714Y-42062619D02*
X93583333Y-42157857D01*
X93583333Y-42157857D02*
X93583333Y-42300714D01*
X93583333Y-42300714D02*
X93535714Y-42395952D01*
X93535714Y-42395952D02*
X93488095Y-42443571D01*
X93488095Y-42443571D02*
X93392857Y-42491190D01*
X93392857Y-42491190D02*
X93011905Y-42491190D01*
X94154762Y-42395952D02*
X94059524Y-42348333D01*
X94059524Y-42348333D02*
X94011905Y-42300714D01*
X94011905Y-42300714D02*
X93964286Y-42205476D01*
X93964286Y-42205476D02*
X93964286Y-42157857D01*
X93964286Y-42157857D02*
X94011905Y-42062619D01*
X94011905Y-42062619D02*
X94059524Y-42015000D01*
X94059524Y-42015000D02*
X94154762Y-41967380D01*
X94154762Y-41967380D02*
X94345238Y-41967380D01*
X94345238Y-41967380D02*
X94440476Y-42015000D01*
X94440476Y-42015000D02*
X94488095Y-42062619D01*
X94488095Y-42062619D02*
X94535714Y-42157857D01*
X94535714Y-42157857D02*
X94535714Y-42205476D01*
X94535714Y-42205476D02*
X94488095Y-42300714D01*
X94488095Y-42300714D02*
X94440476Y-42348333D01*
X94440476Y-42348333D02*
X94345238Y-42395952D01*
X94345238Y-42395952D02*
X94154762Y-42395952D01*
X94154762Y-42395952D02*
X94059524Y-42443571D01*
X94059524Y-42443571D02*
X94011905Y-42491190D01*
X94011905Y-42491190D02*
X93964286Y-42586428D01*
X93964286Y-42586428D02*
X93964286Y-42776904D01*
X93964286Y-42776904D02*
X94011905Y-42872142D01*
X94011905Y-42872142D02*
X94059524Y-42919761D01*
X94059524Y-42919761D02*
X94154762Y-42967380D01*
X94154762Y-42967380D02*
X94345238Y-42967380D01*
X94345238Y-42967380D02*
X94440476Y-42919761D01*
X94440476Y-42919761D02*
X94488095Y-42872142D01*
X94488095Y-42872142D02*
X94535714Y-42776904D01*
X94535714Y-42776904D02*
X94535714Y-42586428D01*
X94535714Y-42586428D02*
X94488095Y-42491190D01*
X94488095Y-42491190D02*
X94440476Y-42443571D01*
X94440476Y-42443571D02*
X94345238Y-42395952D01*
%TO.C,R7*%
X93583333Y-36617380D02*
X93250000Y-36141190D01*
X93011905Y-36617380D02*
X93011905Y-35617380D01*
X93011905Y-35617380D02*
X93392857Y-35617380D01*
X93392857Y-35617380D02*
X93488095Y-35665000D01*
X93488095Y-35665000D02*
X93535714Y-35712619D01*
X93535714Y-35712619D02*
X93583333Y-35807857D01*
X93583333Y-35807857D02*
X93583333Y-35950714D01*
X93583333Y-35950714D02*
X93535714Y-36045952D01*
X93535714Y-36045952D02*
X93488095Y-36093571D01*
X93488095Y-36093571D02*
X93392857Y-36141190D01*
X93392857Y-36141190D02*
X93011905Y-36141190D01*
X93916667Y-35617380D02*
X94583333Y-35617380D01*
X94583333Y-35617380D02*
X94154762Y-36617380D01*
%TO.C,R6*%
X101867380Y-41879166D02*
X101391190Y-42212499D01*
X101867380Y-42450594D02*
X100867380Y-42450594D01*
X100867380Y-42450594D02*
X100867380Y-42069642D01*
X100867380Y-42069642D02*
X100915000Y-41974404D01*
X100915000Y-41974404D02*
X100962619Y-41926785D01*
X100962619Y-41926785D02*
X101057857Y-41879166D01*
X101057857Y-41879166D02*
X101200714Y-41879166D01*
X101200714Y-41879166D02*
X101295952Y-41926785D01*
X101295952Y-41926785D02*
X101343571Y-41974404D01*
X101343571Y-41974404D02*
X101391190Y-42069642D01*
X101391190Y-42069642D02*
X101391190Y-42450594D01*
X100867380Y-41022023D02*
X100867380Y-41212499D01*
X100867380Y-41212499D02*
X100915000Y-41307737D01*
X100915000Y-41307737D02*
X100962619Y-41355356D01*
X100962619Y-41355356D02*
X101105476Y-41450594D01*
X101105476Y-41450594D02*
X101295952Y-41498213D01*
X101295952Y-41498213D02*
X101676904Y-41498213D01*
X101676904Y-41498213D02*
X101772142Y-41450594D01*
X101772142Y-41450594D02*
X101819761Y-41402975D01*
X101819761Y-41402975D02*
X101867380Y-41307737D01*
X101867380Y-41307737D02*
X101867380Y-41117261D01*
X101867380Y-41117261D02*
X101819761Y-41022023D01*
X101819761Y-41022023D02*
X101772142Y-40974404D01*
X101772142Y-40974404D02*
X101676904Y-40926785D01*
X101676904Y-40926785D02*
X101438809Y-40926785D01*
X101438809Y-40926785D02*
X101343571Y-40974404D01*
X101343571Y-40974404D02*
X101295952Y-41022023D01*
X101295952Y-41022023D02*
X101248333Y-41117261D01*
X101248333Y-41117261D02*
X101248333Y-41307737D01*
X101248333Y-41307737D02*
X101295952Y-41402975D01*
X101295952Y-41402975D02*
X101343571Y-41450594D01*
X101343571Y-41450594D02*
X101438809Y-41498213D01*
%TO.C,Q2*%
X87842261Y-44462619D02*
X87747023Y-44415000D01*
X87747023Y-44415000D02*
X87651785Y-44319761D01*
X87651785Y-44319761D02*
X87508928Y-44176904D01*
X87508928Y-44176904D02*
X87413690Y-44129285D01*
X87413690Y-44129285D02*
X87318452Y-44129285D01*
X87366071Y-44367380D02*
X87270833Y-44319761D01*
X87270833Y-44319761D02*
X87175595Y-44224523D01*
X87175595Y-44224523D02*
X87127976Y-44034047D01*
X87127976Y-44034047D02*
X87127976Y-43700714D01*
X87127976Y-43700714D02*
X87175595Y-43510238D01*
X87175595Y-43510238D02*
X87270833Y-43415000D01*
X87270833Y-43415000D02*
X87366071Y-43367380D01*
X87366071Y-43367380D02*
X87556547Y-43367380D01*
X87556547Y-43367380D02*
X87651785Y-43415000D01*
X87651785Y-43415000D02*
X87747023Y-43510238D01*
X87747023Y-43510238D02*
X87794642Y-43700714D01*
X87794642Y-43700714D02*
X87794642Y-44034047D01*
X87794642Y-44034047D02*
X87747023Y-44224523D01*
X87747023Y-44224523D02*
X87651785Y-44319761D01*
X87651785Y-44319761D02*
X87556547Y-44367380D01*
X87556547Y-44367380D02*
X87366071Y-44367380D01*
X88175595Y-43462619D02*
X88223214Y-43415000D01*
X88223214Y-43415000D02*
X88318452Y-43367380D01*
X88318452Y-43367380D02*
X88556547Y-43367380D01*
X88556547Y-43367380D02*
X88651785Y-43415000D01*
X88651785Y-43415000D02*
X88699404Y-43462619D01*
X88699404Y-43462619D02*
X88747023Y-43557857D01*
X88747023Y-43557857D02*
X88747023Y-43653095D01*
X88747023Y-43653095D02*
X88699404Y-43795952D01*
X88699404Y-43795952D02*
X88127976Y-44367380D01*
X88127976Y-44367380D02*
X88747023Y-44367380D01*
%TO.C,Q1*%
X87842261Y-35112619D02*
X87747023Y-35065000D01*
X87747023Y-35065000D02*
X87651785Y-34969761D01*
X87651785Y-34969761D02*
X87508928Y-34826904D01*
X87508928Y-34826904D02*
X87413690Y-34779285D01*
X87413690Y-34779285D02*
X87318452Y-34779285D01*
X87366071Y-35017380D02*
X87270833Y-34969761D01*
X87270833Y-34969761D02*
X87175595Y-34874523D01*
X87175595Y-34874523D02*
X87127976Y-34684047D01*
X87127976Y-34684047D02*
X87127976Y-34350714D01*
X87127976Y-34350714D02*
X87175595Y-34160238D01*
X87175595Y-34160238D02*
X87270833Y-34065000D01*
X87270833Y-34065000D02*
X87366071Y-34017380D01*
X87366071Y-34017380D02*
X87556547Y-34017380D01*
X87556547Y-34017380D02*
X87651785Y-34065000D01*
X87651785Y-34065000D02*
X87747023Y-34160238D01*
X87747023Y-34160238D02*
X87794642Y-34350714D01*
X87794642Y-34350714D02*
X87794642Y-34684047D01*
X87794642Y-34684047D02*
X87747023Y-34874523D01*
X87747023Y-34874523D02*
X87651785Y-34969761D01*
X87651785Y-34969761D02*
X87556547Y-35017380D01*
X87556547Y-35017380D02*
X87366071Y-35017380D01*
X88747023Y-35017380D02*
X88175595Y-35017380D01*
X88461309Y-35017380D02*
X88461309Y-34017380D01*
X88461309Y-34017380D02*
X88366071Y-34160238D01*
X88366071Y-34160238D02*
X88270833Y-34255476D01*
X88270833Y-34255476D02*
X88175595Y-34303095D01*
%TO.C,U4*%
X69738095Y-55367380D02*
X69738095Y-56176904D01*
X69738095Y-56176904D02*
X69785714Y-56272142D01*
X69785714Y-56272142D02*
X69833333Y-56319761D01*
X69833333Y-56319761D02*
X69928571Y-56367380D01*
X69928571Y-56367380D02*
X70119047Y-56367380D01*
X70119047Y-56367380D02*
X70214285Y-56319761D01*
X70214285Y-56319761D02*
X70261904Y-56272142D01*
X70261904Y-56272142D02*
X70309523Y-56176904D01*
X70309523Y-56176904D02*
X70309523Y-55367380D01*
X71214285Y-55700714D02*
X71214285Y-56367380D01*
X70976190Y-55319761D02*
X70738095Y-56034047D01*
X70738095Y-56034047D02*
X71357142Y-56034047D01*
X68855350Y-56092580D02*
X68855350Y-56330676D01*
X68617255Y-56235438D02*
X68855350Y-56330676D01*
X68855350Y-56330676D02*
X69093445Y-56235438D01*
X68712493Y-56521152D02*
X68855350Y-56330676D01*
X68855350Y-56330676D02*
X68998207Y-56521152D01*
%TO.C,U3*%
X61967380Y-73011904D02*
X62776904Y-73011904D01*
X62776904Y-73011904D02*
X62872142Y-72964285D01*
X62872142Y-72964285D02*
X62919761Y-72916666D01*
X62919761Y-72916666D02*
X62967380Y-72821428D01*
X62967380Y-72821428D02*
X62967380Y-72630952D01*
X62967380Y-72630952D02*
X62919761Y-72535714D01*
X62919761Y-72535714D02*
X62872142Y-72488095D01*
X62872142Y-72488095D02*
X62776904Y-72440476D01*
X62776904Y-72440476D02*
X61967380Y-72440476D01*
X61967380Y-72059523D02*
X61967380Y-71440476D01*
X61967380Y-71440476D02*
X62348333Y-71773809D01*
X62348333Y-71773809D02*
X62348333Y-71630952D01*
X62348333Y-71630952D02*
X62395952Y-71535714D01*
X62395952Y-71535714D02*
X62443571Y-71488095D01*
X62443571Y-71488095D02*
X62538809Y-71440476D01*
X62538809Y-71440476D02*
X62776904Y-71440476D01*
X62776904Y-71440476D02*
X62872142Y-71488095D01*
X62872142Y-71488095D02*
X62919761Y-71535714D01*
X62919761Y-71535714D02*
X62967380Y-71630952D01*
X62967380Y-71630952D02*
X62967380Y-71916666D01*
X62967380Y-71916666D02*
X62919761Y-72011904D01*
X62919761Y-72011904D02*
X62872142Y-72059523D01*
%TO.C,U1*%
X64163095Y-83242380D02*
X64163095Y-84051904D01*
X64163095Y-84051904D02*
X64210714Y-84147142D01*
X64210714Y-84147142D02*
X64258333Y-84194761D01*
X64258333Y-84194761D02*
X64353571Y-84242380D01*
X64353571Y-84242380D02*
X64544047Y-84242380D01*
X64544047Y-84242380D02*
X64639285Y-84194761D01*
X64639285Y-84194761D02*
X64686904Y-84147142D01*
X64686904Y-84147142D02*
X64734523Y-84051904D01*
X64734523Y-84051904D02*
X64734523Y-83242380D01*
X65734523Y-84242380D02*
X65163095Y-84242380D01*
X65448809Y-84242380D02*
X65448809Y-83242380D01*
X65448809Y-83242380D02*
X65353571Y-83385238D01*
X65353571Y-83385238D02*
X65258333Y-83480476D01*
X65258333Y-83480476D02*
X65163095Y-83528095D01*
%TO.C,EN*%
X51011905Y-42093571D02*
X51345238Y-42093571D01*
X51488095Y-42617380D02*
X51011905Y-42617380D01*
X51011905Y-42617380D02*
X51011905Y-41617380D01*
X51011905Y-41617380D02*
X51488095Y-41617380D01*
X51916667Y-42617380D02*
X51916667Y-41617380D01*
X51916667Y-41617380D02*
X52488095Y-42617380D01*
X52488095Y-42617380D02*
X52488095Y-41617380D01*
%TO.C,R4*%
X81583333Y-70117380D02*
X81250000Y-69641190D01*
X81011905Y-70117380D02*
X81011905Y-69117380D01*
X81011905Y-69117380D02*
X81392857Y-69117380D01*
X81392857Y-69117380D02*
X81488095Y-69165000D01*
X81488095Y-69165000D02*
X81535714Y-69212619D01*
X81535714Y-69212619D02*
X81583333Y-69307857D01*
X81583333Y-69307857D02*
X81583333Y-69450714D01*
X81583333Y-69450714D02*
X81535714Y-69545952D01*
X81535714Y-69545952D02*
X81488095Y-69593571D01*
X81488095Y-69593571D02*
X81392857Y-69641190D01*
X81392857Y-69641190D02*
X81011905Y-69641190D01*
X82440476Y-69450714D02*
X82440476Y-70117380D01*
X82202381Y-69069761D02*
X81964286Y-69784047D01*
X81964286Y-69784047D02*
X82583333Y-69784047D01*
%TO.C,R1*%
X84967380Y-100666666D02*
X84491190Y-100999999D01*
X84967380Y-101238094D02*
X83967380Y-101238094D01*
X83967380Y-101238094D02*
X83967380Y-100857142D01*
X83967380Y-100857142D02*
X84015000Y-100761904D01*
X84015000Y-100761904D02*
X84062619Y-100714285D01*
X84062619Y-100714285D02*
X84157857Y-100666666D01*
X84157857Y-100666666D02*
X84300714Y-100666666D01*
X84300714Y-100666666D02*
X84395952Y-100714285D01*
X84395952Y-100714285D02*
X84443571Y-100761904D01*
X84443571Y-100761904D02*
X84491190Y-100857142D01*
X84491190Y-100857142D02*
X84491190Y-101238094D01*
X84967380Y-99714285D02*
X84967380Y-100285713D01*
X84967380Y-99999999D02*
X83967380Y-99999999D01*
X83967380Y-99999999D02*
X84110238Y-100095237D01*
X84110238Y-100095237D02*
X84205476Y-100190475D01*
X84205476Y-100190475D02*
X84253095Y-100285713D01*
%TO.C,L1*%
X51983333Y-97567380D02*
X51507143Y-97567380D01*
X51507143Y-97567380D02*
X51507143Y-96567380D01*
X52840476Y-97567380D02*
X52269048Y-97567380D01*
X52554762Y-97567380D02*
X52554762Y-96567380D01*
X52554762Y-96567380D02*
X52459524Y-96710238D01*
X52459524Y-96710238D02*
X52364286Y-96805476D01*
X52364286Y-96805476D02*
X52269048Y-96853095D01*
%TO.C,UART*%
X80654762Y-47367380D02*
X80654762Y-48176904D01*
X80654762Y-48176904D02*
X80702381Y-48272142D01*
X80702381Y-48272142D02*
X80750000Y-48319761D01*
X80750000Y-48319761D02*
X80845238Y-48367380D01*
X80845238Y-48367380D02*
X81035714Y-48367380D01*
X81035714Y-48367380D02*
X81130952Y-48319761D01*
X81130952Y-48319761D02*
X81178571Y-48272142D01*
X81178571Y-48272142D02*
X81226190Y-48176904D01*
X81226190Y-48176904D02*
X81226190Y-47367380D01*
X81654762Y-48081666D02*
X82130952Y-48081666D01*
X81559524Y-48367380D02*
X81892857Y-47367380D01*
X81892857Y-47367380D02*
X82226190Y-48367380D01*
X83130952Y-48367380D02*
X82797619Y-47891190D01*
X82559524Y-48367380D02*
X82559524Y-47367380D01*
X82559524Y-47367380D02*
X82940476Y-47367380D01*
X82940476Y-47367380D02*
X83035714Y-47415000D01*
X83035714Y-47415000D02*
X83083333Y-47462619D01*
X83083333Y-47462619D02*
X83130952Y-47557857D01*
X83130952Y-47557857D02*
X83130952Y-47700714D01*
X83130952Y-47700714D02*
X83083333Y-47795952D01*
X83083333Y-47795952D02*
X83035714Y-47843571D01*
X83035714Y-47843571D02*
X82940476Y-47891190D01*
X82940476Y-47891190D02*
X82559524Y-47891190D01*
X83416667Y-47367380D02*
X83988095Y-47367380D01*
X83702381Y-48367380D02*
X83702381Y-47367380D01*
%TO.C,Battery*%
X70178570Y-81843571D02*
X70321427Y-81891190D01*
X70321427Y-81891190D02*
X70369046Y-81938809D01*
X70369046Y-81938809D02*
X70416665Y-82034047D01*
X70416665Y-82034047D02*
X70416665Y-82176904D01*
X70416665Y-82176904D02*
X70369046Y-82272142D01*
X70369046Y-82272142D02*
X70321427Y-82319761D01*
X70321427Y-82319761D02*
X70226189Y-82367380D01*
X70226189Y-82367380D02*
X69845237Y-82367380D01*
X69845237Y-82367380D02*
X69845237Y-81367380D01*
X69845237Y-81367380D02*
X70178570Y-81367380D01*
X70178570Y-81367380D02*
X70273808Y-81415000D01*
X70273808Y-81415000D02*
X70321427Y-81462619D01*
X70321427Y-81462619D02*
X70369046Y-81557857D01*
X70369046Y-81557857D02*
X70369046Y-81653095D01*
X70369046Y-81653095D02*
X70321427Y-81748333D01*
X70321427Y-81748333D02*
X70273808Y-81795952D01*
X70273808Y-81795952D02*
X70178570Y-81843571D01*
X70178570Y-81843571D02*
X69845237Y-81843571D01*
X71273808Y-82367380D02*
X71273808Y-81843571D01*
X71273808Y-81843571D02*
X71226189Y-81748333D01*
X71226189Y-81748333D02*
X71130951Y-81700714D01*
X71130951Y-81700714D02*
X70940475Y-81700714D01*
X70940475Y-81700714D02*
X70845237Y-81748333D01*
X71273808Y-82319761D02*
X71178570Y-82367380D01*
X71178570Y-82367380D02*
X70940475Y-82367380D01*
X70940475Y-82367380D02*
X70845237Y-82319761D01*
X70845237Y-82319761D02*
X70797618Y-82224523D01*
X70797618Y-82224523D02*
X70797618Y-82129285D01*
X70797618Y-82129285D02*
X70845237Y-82034047D01*
X70845237Y-82034047D02*
X70940475Y-81986428D01*
X70940475Y-81986428D02*
X71178570Y-81986428D01*
X71178570Y-81986428D02*
X71273808Y-81938809D01*
X71607142Y-81700714D02*
X71988094Y-81700714D01*
X71749999Y-81367380D02*
X71749999Y-82224523D01*
X71749999Y-82224523D02*
X71797618Y-82319761D01*
X71797618Y-82319761D02*
X71892856Y-82367380D01*
X71892856Y-82367380D02*
X71988094Y-82367380D01*
X72178571Y-81700714D02*
X72559523Y-81700714D01*
X72321428Y-81367380D02*
X72321428Y-82224523D01*
X72321428Y-82224523D02*
X72369047Y-82319761D01*
X72369047Y-82319761D02*
X72464285Y-82367380D01*
X72464285Y-82367380D02*
X72559523Y-82367380D01*
X73273809Y-82319761D02*
X73178571Y-82367380D01*
X73178571Y-82367380D02*
X72988095Y-82367380D01*
X72988095Y-82367380D02*
X72892857Y-82319761D01*
X72892857Y-82319761D02*
X72845238Y-82224523D01*
X72845238Y-82224523D02*
X72845238Y-81843571D01*
X72845238Y-81843571D02*
X72892857Y-81748333D01*
X72892857Y-81748333D02*
X72988095Y-81700714D01*
X72988095Y-81700714D02*
X73178571Y-81700714D01*
X73178571Y-81700714D02*
X73273809Y-81748333D01*
X73273809Y-81748333D02*
X73321428Y-81843571D01*
X73321428Y-81843571D02*
X73321428Y-81938809D01*
X73321428Y-81938809D02*
X72845238Y-82034047D01*
X73750000Y-82367380D02*
X73750000Y-81700714D01*
X73750000Y-81891190D02*
X73797619Y-81795952D01*
X73797619Y-81795952D02*
X73845238Y-81748333D01*
X73845238Y-81748333D02*
X73940476Y-81700714D01*
X73940476Y-81700714D02*
X74035714Y-81700714D01*
X74273810Y-81700714D02*
X74511905Y-82367380D01*
X74750000Y-81700714D02*
X74511905Y-82367380D01*
X74511905Y-82367380D02*
X74416667Y-82605476D01*
X74416667Y-82605476D02*
X74369048Y-82653095D01*
X74369048Y-82653095D02*
X74273810Y-82700714D01*
X70619048Y-83486428D02*
X71380953Y-83486428D01*
X73369048Y-83486428D02*
X74130953Y-83486428D01*
X73750000Y-83867380D02*
X73750000Y-83105476D01*
%TO.C,3.3V*%
X80523810Y-57617380D02*
X81142857Y-57617380D01*
X81142857Y-57617380D02*
X80809524Y-57998333D01*
X80809524Y-57998333D02*
X80952381Y-57998333D01*
X80952381Y-57998333D02*
X81047619Y-58045952D01*
X81047619Y-58045952D02*
X81095238Y-58093571D01*
X81095238Y-58093571D02*
X81142857Y-58188809D01*
X81142857Y-58188809D02*
X81142857Y-58426904D01*
X81142857Y-58426904D02*
X81095238Y-58522142D01*
X81095238Y-58522142D02*
X81047619Y-58569761D01*
X81047619Y-58569761D02*
X80952381Y-58617380D01*
X80952381Y-58617380D02*
X80666667Y-58617380D01*
X80666667Y-58617380D02*
X80571429Y-58569761D01*
X80571429Y-58569761D02*
X80523810Y-58522142D01*
X81571429Y-58522142D02*
X81619048Y-58569761D01*
X81619048Y-58569761D02*
X81571429Y-58617380D01*
X81571429Y-58617380D02*
X81523810Y-58569761D01*
X81523810Y-58569761D02*
X81571429Y-58522142D01*
X81571429Y-58522142D02*
X81571429Y-58617380D01*
X81952381Y-57617380D02*
X82571428Y-57617380D01*
X82571428Y-57617380D02*
X82238095Y-57998333D01*
X82238095Y-57998333D02*
X82380952Y-57998333D01*
X82380952Y-57998333D02*
X82476190Y-58045952D01*
X82476190Y-58045952D02*
X82523809Y-58093571D01*
X82523809Y-58093571D02*
X82571428Y-58188809D01*
X82571428Y-58188809D02*
X82571428Y-58426904D01*
X82571428Y-58426904D02*
X82523809Y-58522142D01*
X82523809Y-58522142D02*
X82476190Y-58569761D01*
X82476190Y-58569761D02*
X82380952Y-58617380D01*
X82380952Y-58617380D02*
X82095238Y-58617380D01*
X82095238Y-58617380D02*
X82000000Y-58569761D01*
X82000000Y-58569761D02*
X81952381Y-58522142D01*
X82857143Y-57617380D02*
X83190476Y-58617380D01*
X83190476Y-58617380D02*
X83523809Y-57617380D01*
%TO.C,POT*%
X56583333Y-69017380D02*
X56583333Y-68017380D01*
X56583333Y-68017380D02*
X56964285Y-68017380D01*
X56964285Y-68017380D02*
X57059523Y-68065000D01*
X57059523Y-68065000D02*
X57107142Y-68112619D01*
X57107142Y-68112619D02*
X57154761Y-68207857D01*
X57154761Y-68207857D02*
X57154761Y-68350714D01*
X57154761Y-68350714D02*
X57107142Y-68445952D01*
X57107142Y-68445952D02*
X57059523Y-68493571D01*
X57059523Y-68493571D02*
X56964285Y-68541190D01*
X56964285Y-68541190D02*
X56583333Y-68541190D01*
X57773809Y-68017380D02*
X57964285Y-68017380D01*
X57964285Y-68017380D02*
X58059523Y-68065000D01*
X58059523Y-68065000D02*
X58154761Y-68160238D01*
X58154761Y-68160238D02*
X58202380Y-68350714D01*
X58202380Y-68350714D02*
X58202380Y-68684047D01*
X58202380Y-68684047D02*
X58154761Y-68874523D01*
X58154761Y-68874523D02*
X58059523Y-68969761D01*
X58059523Y-68969761D02*
X57964285Y-69017380D01*
X57964285Y-69017380D02*
X57773809Y-69017380D01*
X57773809Y-69017380D02*
X57678571Y-68969761D01*
X57678571Y-68969761D02*
X57583333Y-68874523D01*
X57583333Y-68874523D02*
X57535714Y-68684047D01*
X57535714Y-68684047D02*
X57535714Y-68350714D01*
X57535714Y-68350714D02*
X57583333Y-68160238D01*
X57583333Y-68160238D02*
X57678571Y-68065000D01*
X57678571Y-68065000D02*
X57773809Y-68017380D01*
X58488095Y-68017380D02*
X59059523Y-68017380D01*
X58773809Y-69017380D02*
X58773809Y-68017380D01*
%TO.C,BUCK*%
X56297619Y-76493571D02*
X56440476Y-76541190D01*
X56440476Y-76541190D02*
X56488095Y-76588809D01*
X56488095Y-76588809D02*
X56535714Y-76684047D01*
X56535714Y-76684047D02*
X56535714Y-76826904D01*
X56535714Y-76826904D02*
X56488095Y-76922142D01*
X56488095Y-76922142D02*
X56440476Y-76969761D01*
X56440476Y-76969761D02*
X56345238Y-77017380D01*
X56345238Y-77017380D02*
X55964286Y-77017380D01*
X55964286Y-77017380D02*
X55964286Y-76017380D01*
X55964286Y-76017380D02*
X56297619Y-76017380D01*
X56297619Y-76017380D02*
X56392857Y-76065000D01*
X56392857Y-76065000D02*
X56440476Y-76112619D01*
X56440476Y-76112619D02*
X56488095Y-76207857D01*
X56488095Y-76207857D02*
X56488095Y-76303095D01*
X56488095Y-76303095D02*
X56440476Y-76398333D01*
X56440476Y-76398333D02*
X56392857Y-76445952D01*
X56392857Y-76445952D02*
X56297619Y-76493571D01*
X56297619Y-76493571D02*
X55964286Y-76493571D01*
X56964286Y-76017380D02*
X56964286Y-76826904D01*
X56964286Y-76826904D02*
X57011905Y-76922142D01*
X57011905Y-76922142D02*
X57059524Y-76969761D01*
X57059524Y-76969761D02*
X57154762Y-77017380D01*
X57154762Y-77017380D02*
X57345238Y-77017380D01*
X57345238Y-77017380D02*
X57440476Y-76969761D01*
X57440476Y-76969761D02*
X57488095Y-76922142D01*
X57488095Y-76922142D02*
X57535714Y-76826904D01*
X57535714Y-76826904D02*
X57535714Y-76017380D01*
X58583333Y-76922142D02*
X58535714Y-76969761D01*
X58535714Y-76969761D02*
X58392857Y-77017380D01*
X58392857Y-77017380D02*
X58297619Y-77017380D01*
X58297619Y-77017380D02*
X58154762Y-76969761D01*
X58154762Y-76969761D02*
X58059524Y-76874523D01*
X58059524Y-76874523D02*
X58011905Y-76779285D01*
X58011905Y-76779285D02*
X57964286Y-76588809D01*
X57964286Y-76588809D02*
X57964286Y-76445952D01*
X57964286Y-76445952D02*
X58011905Y-76255476D01*
X58011905Y-76255476D02*
X58059524Y-76160238D01*
X58059524Y-76160238D02*
X58154762Y-76065000D01*
X58154762Y-76065000D02*
X58297619Y-76017380D01*
X58297619Y-76017380D02*
X58392857Y-76017380D01*
X58392857Y-76017380D02*
X58535714Y-76065000D01*
X58535714Y-76065000D02*
X58583333Y-76112619D01*
X59011905Y-77017380D02*
X59011905Y-76017380D01*
X59583333Y-77017380D02*
X59154762Y-76445952D01*
X59583333Y-76017380D02*
X59011905Y-76588809D01*
%TO.C,USB*%
X76988095Y-96117380D02*
X76988095Y-96926904D01*
X76988095Y-96926904D02*
X77035714Y-97022142D01*
X77035714Y-97022142D02*
X77083333Y-97069761D01*
X77083333Y-97069761D02*
X77178571Y-97117380D01*
X77178571Y-97117380D02*
X77369047Y-97117380D01*
X77369047Y-97117380D02*
X77464285Y-97069761D01*
X77464285Y-97069761D02*
X77511904Y-97022142D01*
X77511904Y-97022142D02*
X77559523Y-96926904D01*
X77559523Y-96926904D02*
X77559523Y-96117380D01*
X77988095Y-97069761D02*
X78130952Y-97117380D01*
X78130952Y-97117380D02*
X78369047Y-97117380D01*
X78369047Y-97117380D02*
X78464285Y-97069761D01*
X78464285Y-97069761D02*
X78511904Y-97022142D01*
X78511904Y-97022142D02*
X78559523Y-96926904D01*
X78559523Y-96926904D02*
X78559523Y-96831666D01*
X78559523Y-96831666D02*
X78511904Y-96736428D01*
X78511904Y-96736428D02*
X78464285Y-96688809D01*
X78464285Y-96688809D02*
X78369047Y-96641190D01*
X78369047Y-96641190D02*
X78178571Y-96593571D01*
X78178571Y-96593571D02*
X78083333Y-96545952D01*
X78083333Y-96545952D02*
X78035714Y-96498333D01*
X78035714Y-96498333D02*
X77988095Y-96403095D01*
X77988095Y-96403095D02*
X77988095Y-96307857D01*
X77988095Y-96307857D02*
X78035714Y-96212619D01*
X78035714Y-96212619D02*
X78083333Y-96165000D01*
X78083333Y-96165000D02*
X78178571Y-96117380D01*
X78178571Y-96117380D02*
X78416666Y-96117380D01*
X78416666Y-96117380D02*
X78559523Y-96165000D01*
X79321428Y-96593571D02*
X79464285Y-96641190D01*
X79464285Y-96641190D02*
X79511904Y-96688809D01*
X79511904Y-96688809D02*
X79559523Y-96784047D01*
X79559523Y-96784047D02*
X79559523Y-96926904D01*
X79559523Y-96926904D02*
X79511904Y-97022142D01*
X79511904Y-97022142D02*
X79464285Y-97069761D01*
X79464285Y-97069761D02*
X79369047Y-97117380D01*
X79369047Y-97117380D02*
X78988095Y-97117380D01*
X78988095Y-97117380D02*
X78988095Y-96117380D01*
X78988095Y-96117380D02*
X79321428Y-96117380D01*
X79321428Y-96117380D02*
X79416666Y-96165000D01*
X79416666Y-96165000D02*
X79464285Y-96212619D01*
X79464285Y-96212619D02*
X79511904Y-96307857D01*
X79511904Y-96307857D02*
X79511904Y-96403095D01*
X79511904Y-96403095D02*
X79464285Y-96498333D01*
X79464285Y-96498333D02*
X79416666Y-96545952D01*
X79416666Y-96545952D02*
X79321428Y-96593571D01*
X79321428Y-96593571D02*
X78988095Y-96593571D01*
%TO.C,J2*%
X78166666Y-101017380D02*
X78166666Y-101731666D01*
X78166666Y-101731666D02*
X78119047Y-101874523D01*
X78119047Y-101874523D02*
X78023809Y-101969761D01*
X78023809Y-101969761D02*
X77880952Y-102017380D01*
X77880952Y-102017380D02*
X77785714Y-102017380D01*
X78595238Y-101112619D02*
X78642857Y-101065000D01*
X78642857Y-101065000D02*
X78738095Y-101017380D01*
X78738095Y-101017380D02*
X78976190Y-101017380D01*
X78976190Y-101017380D02*
X79071428Y-101065000D01*
X79071428Y-101065000D02*
X79119047Y-101112619D01*
X79119047Y-101112619D02*
X79166666Y-101207857D01*
X79166666Y-101207857D02*
X79166666Y-101303095D01*
X79166666Y-101303095D02*
X79119047Y-101445952D01*
X79119047Y-101445952D02*
X78547619Y-102017380D01*
X78547619Y-102017380D02*
X79166666Y-102017380D01*
%TO.C,TURBINE*%
X38017380Y-88273808D02*
X38017380Y-87702380D01*
X39017380Y-87988094D02*
X38017380Y-87988094D01*
X38017380Y-87369046D02*
X38826904Y-87369046D01*
X38826904Y-87369046D02*
X38922142Y-87321427D01*
X38922142Y-87321427D02*
X38969761Y-87273808D01*
X38969761Y-87273808D02*
X39017380Y-87178570D01*
X39017380Y-87178570D02*
X39017380Y-86988094D01*
X39017380Y-86988094D02*
X38969761Y-86892856D01*
X38969761Y-86892856D02*
X38922142Y-86845237D01*
X38922142Y-86845237D02*
X38826904Y-86797618D01*
X38826904Y-86797618D02*
X38017380Y-86797618D01*
X39017380Y-85749999D02*
X38541190Y-86083332D01*
X39017380Y-86321427D02*
X38017380Y-86321427D01*
X38017380Y-86321427D02*
X38017380Y-85940475D01*
X38017380Y-85940475D02*
X38065000Y-85845237D01*
X38065000Y-85845237D02*
X38112619Y-85797618D01*
X38112619Y-85797618D02*
X38207857Y-85749999D01*
X38207857Y-85749999D02*
X38350714Y-85749999D01*
X38350714Y-85749999D02*
X38445952Y-85797618D01*
X38445952Y-85797618D02*
X38493571Y-85845237D01*
X38493571Y-85845237D02*
X38541190Y-85940475D01*
X38541190Y-85940475D02*
X38541190Y-86321427D01*
X38493571Y-84988094D02*
X38541190Y-84845237D01*
X38541190Y-84845237D02*
X38588809Y-84797618D01*
X38588809Y-84797618D02*
X38684047Y-84749999D01*
X38684047Y-84749999D02*
X38826904Y-84749999D01*
X38826904Y-84749999D02*
X38922142Y-84797618D01*
X38922142Y-84797618D02*
X38969761Y-84845237D01*
X38969761Y-84845237D02*
X39017380Y-84940475D01*
X39017380Y-84940475D02*
X39017380Y-85321427D01*
X39017380Y-85321427D02*
X38017380Y-85321427D01*
X38017380Y-85321427D02*
X38017380Y-84988094D01*
X38017380Y-84988094D02*
X38065000Y-84892856D01*
X38065000Y-84892856D02*
X38112619Y-84845237D01*
X38112619Y-84845237D02*
X38207857Y-84797618D01*
X38207857Y-84797618D02*
X38303095Y-84797618D01*
X38303095Y-84797618D02*
X38398333Y-84845237D01*
X38398333Y-84845237D02*
X38445952Y-84892856D01*
X38445952Y-84892856D02*
X38493571Y-84988094D01*
X38493571Y-84988094D02*
X38493571Y-85321427D01*
X39017380Y-84321427D02*
X38017380Y-84321427D01*
X39017380Y-83845237D02*
X38017380Y-83845237D01*
X38017380Y-83845237D02*
X39017380Y-83273809D01*
X39017380Y-83273809D02*
X38017380Y-83273809D01*
X38493571Y-82797618D02*
X38493571Y-82464285D01*
X39017380Y-82321428D02*
X39017380Y-82797618D01*
X39017380Y-82797618D02*
X38017380Y-82797618D01*
X38017380Y-82797618D02*
X38017380Y-82321428D01*
X42736428Y-82130951D02*
X42736428Y-81369047D01*
X43117380Y-81749999D02*
X42355476Y-81749999D01*
X43130951Y-88513571D02*
X42369047Y-88513571D01*
D11*
%TO.C,IC1*%
X66160237Y-35916573D02*
X66160237Y-34646573D01*
X67490714Y-35795621D02*
X67430238Y-35856097D01*
X67430238Y-35856097D02*
X67248809Y-35916573D01*
X67248809Y-35916573D02*
X67127857Y-35916573D01*
X67127857Y-35916573D02*
X66946428Y-35856097D01*
X66946428Y-35856097D02*
X66825476Y-35735145D01*
X66825476Y-35735145D02*
X66764999Y-35614192D01*
X66764999Y-35614192D02*
X66704523Y-35372288D01*
X66704523Y-35372288D02*
X66704523Y-35190859D01*
X66704523Y-35190859D02*
X66764999Y-34948954D01*
X66764999Y-34948954D02*
X66825476Y-34828002D01*
X66825476Y-34828002D02*
X66946428Y-34707050D01*
X66946428Y-34707050D02*
X67127857Y-34646573D01*
X67127857Y-34646573D02*
X67248809Y-34646573D01*
X67248809Y-34646573D02*
X67430238Y-34707050D01*
X67430238Y-34707050D02*
X67490714Y-34767526D01*
X68700238Y-35916573D02*
X67974523Y-35916573D01*
X68337380Y-35916573D02*
X68337380Y-34646573D01*
X68337380Y-34646573D02*
X68216428Y-34828002D01*
X68216428Y-34828002D02*
X68095476Y-34948954D01*
X68095476Y-34948954D02*
X67974523Y-35009430D01*
D10*
%TO.C,H4*%
X105988095Y-100417380D02*
X105988095Y-99417380D01*
X105988095Y-99893571D02*
X106559523Y-99893571D01*
X106559523Y-100417380D02*
X106559523Y-99417380D01*
X107464285Y-99750714D02*
X107464285Y-100417380D01*
X107226190Y-99369761D02*
X106988095Y-100084047D01*
X106988095Y-100084047D02*
X107607142Y-100084047D01*
%TO.C,H3*%
X39988095Y-100917380D02*
X39988095Y-99917380D01*
X39988095Y-100393571D02*
X40559523Y-100393571D01*
X40559523Y-100917380D02*
X40559523Y-99917380D01*
X40940476Y-99917380D02*
X41559523Y-99917380D01*
X41559523Y-99917380D02*
X41226190Y-100298333D01*
X41226190Y-100298333D02*
X41369047Y-100298333D01*
X41369047Y-100298333D02*
X41464285Y-100345952D01*
X41464285Y-100345952D02*
X41511904Y-100393571D01*
X41511904Y-100393571D02*
X41559523Y-100488809D01*
X41559523Y-100488809D02*
X41559523Y-100726904D01*
X41559523Y-100726904D02*
X41511904Y-100822142D01*
X41511904Y-100822142D02*
X41464285Y-100869761D01*
X41464285Y-100869761D02*
X41369047Y-100917380D01*
X41369047Y-100917380D02*
X41083333Y-100917380D01*
X41083333Y-100917380D02*
X40988095Y-100869761D01*
X40988095Y-100869761D02*
X40940476Y-100822142D01*
%TO.C,D1*%
X45261905Y-93837380D02*
X45261905Y-92837380D01*
X45261905Y-92837380D02*
X45500000Y-92837380D01*
X45500000Y-92837380D02*
X45642857Y-92885000D01*
X45642857Y-92885000D02*
X45738095Y-92980238D01*
X45738095Y-92980238D02*
X45785714Y-93075476D01*
X45785714Y-93075476D02*
X45833333Y-93265952D01*
X45833333Y-93265952D02*
X45833333Y-93408809D01*
X45833333Y-93408809D02*
X45785714Y-93599285D01*
X45785714Y-93599285D02*
X45738095Y-93694523D01*
X45738095Y-93694523D02*
X45642857Y-93789761D01*
X45642857Y-93789761D02*
X45500000Y-93837380D01*
X45500000Y-93837380D02*
X45261905Y-93837380D01*
X46785714Y-93837380D02*
X46214286Y-93837380D01*
X46500000Y-93837380D02*
X46500000Y-92837380D01*
X46500000Y-92837380D02*
X46404762Y-92980238D01*
X46404762Y-92980238D02*
X46309524Y-93075476D01*
X46309524Y-93075476D02*
X46214286Y-93123095D01*
X50818095Y-93467380D02*
X50818095Y-92467380D01*
X51389523Y-93467380D02*
X50960952Y-92895952D01*
X51389523Y-92467380D02*
X50818095Y-93038809D01*
%TO.C,C4*%
X73333333Y-69022142D02*
X73285714Y-69069761D01*
X73285714Y-69069761D02*
X73142857Y-69117380D01*
X73142857Y-69117380D02*
X73047619Y-69117380D01*
X73047619Y-69117380D02*
X72904762Y-69069761D01*
X72904762Y-69069761D02*
X72809524Y-68974523D01*
X72809524Y-68974523D02*
X72761905Y-68879285D01*
X72761905Y-68879285D02*
X72714286Y-68688809D01*
X72714286Y-68688809D02*
X72714286Y-68545952D01*
X72714286Y-68545952D02*
X72761905Y-68355476D01*
X72761905Y-68355476D02*
X72809524Y-68260238D01*
X72809524Y-68260238D02*
X72904762Y-68165000D01*
X72904762Y-68165000D02*
X73047619Y-68117380D01*
X73047619Y-68117380D02*
X73142857Y-68117380D01*
X73142857Y-68117380D02*
X73285714Y-68165000D01*
X73285714Y-68165000D02*
X73333333Y-68212619D01*
X74190476Y-68450714D02*
X74190476Y-69117380D01*
X73952381Y-68069761D02*
X73714286Y-68784047D01*
X73714286Y-68784047D02*
X74333333Y-68784047D01*
%TO.C,C3*%
X70833333Y-62592142D02*
X70785714Y-62639761D01*
X70785714Y-62639761D02*
X70642857Y-62687380D01*
X70642857Y-62687380D02*
X70547619Y-62687380D01*
X70547619Y-62687380D02*
X70404762Y-62639761D01*
X70404762Y-62639761D02*
X70309524Y-62544523D01*
X70309524Y-62544523D02*
X70261905Y-62449285D01*
X70261905Y-62449285D02*
X70214286Y-62258809D01*
X70214286Y-62258809D02*
X70214286Y-62115952D01*
X70214286Y-62115952D02*
X70261905Y-61925476D01*
X70261905Y-61925476D02*
X70309524Y-61830238D01*
X70309524Y-61830238D02*
X70404762Y-61735000D01*
X70404762Y-61735000D02*
X70547619Y-61687380D01*
X70547619Y-61687380D02*
X70642857Y-61687380D01*
X70642857Y-61687380D02*
X70785714Y-61735000D01*
X70785714Y-61735000D02*
X70833333Y-61782619D01*
X71166667Y-61687380D02*
X71785714Y-61687380D01*
X71785714Y-61687380D02*
X71452381Y-62068333D01*
X71452381Y-62068333D02*
X71595238Y-62068333D01*
X71595238Y-62068333D02*
X71690476Y-62115952D01*
X71690476Y-62115952D02*
X71738095Y-62163571D01*
X71738095Y-62163571D02*
X71785714Y-62258809D01*
X71785714Y-62258809D02*
X71785714Y-62496904D01*
X71785714Y-62496904D02*
X71738095Y-62592142D01*
X71738095Y-62592142D02*
X71690476Y-62639761D01*
X71690476Y-62639761D02*
X71595238Y-62687380D01*
X71595238Y-62687380D02*
X71309524Y-62687380D01*
X71309524Y-62687380D02*
X71214286Y-62639761D01*
X71214286Y-62639761D02*
X71166667Y-62592142D01*
%TO.C,C2*%
X64810833Y-78732142D02*
X64763214Y-78779761D01*
X64763214Y-78779761D02*
X64620357Y-78827380D01*
X64620357Y-78827380D02*
X64525119Y-78827380D01*
X64525119Y-78827380D02*
X64382262Y-78779761D01*
X64382262Y-78779761D02*
X64287024Y-78684523D01*
X64287024Y-78684523D02*
X64239405Y-78589285D01*
X64239405Y-78589285D02*
X64191786Y-78398809D01*
X64191786Y-78398809D02*
X64191786Y-78255952D01*
X64191786Y-78255952D02*
X64239405Y-78065476D01*
X64239405Y-78065476D02*
X64287024Y-77970238D01*
X64287024Y-77970238D02*
X64382262Y-77875000D01*
X64382262Y-77875000D02*
X64525119Y-77827380D01*
X64525119Y-77827380D02*
X64620357Y-77827380D01*
X64620357Y-77827380D02*
X64763214Y-77875000D01*
X64763214Y-77875000D02*
X64810833Y-77922619D01*
X65191786Y-77922619D02*
X65239405Y-77875000D01*
X65239405Y-77875000D02*
X65334643Y-77827380D01*
X65334643Y-77827380D02*
X65572738Y-77827380D01*
X65572738Y-77827380D02*
X65667976Y-77875000D01*
X65667976Y-77875000D02*
X65715595Y-77922619D01*
X65715595Y-77922619D02*
X65763214Y-78017857D01*
X65763214Y-78017857D02*
X65763214Y-78113095D01*
X65763214Y-78113095D02*
X65715595Y-78255952D01*
X65715595Y-78255952D02*
X65144167Y-78827380D01*
X65144167Y-78827380D02*
X65763214Y-78827380D01*
%TO.C,C1*%
X64833333Y-75342142D02*
X64785714Y-75389761D01*
X64785714Y-75389761D02*
X64642857Y-75437380D01*
X64642857Y-75437380D02*
X64547619Y-75437380D01*
X64547619Y-75437380D02*
X64404762Y-75389761D01*
X64404762Y-75389761D02*
X64309524Y-75294523D01*
X64309524Y-75294523D02*
X64261905Y-75199285D01*
X64261905Y-75199285D02*
X64214286Y-75008809D01*
X64214286Y-75008809D02*
X64214286Y-74865952D01*
X64214286Y-74865952D02*
X64261905Y-74675476D01*
X64261905Y-74675476D02*
X64309524Y-74580238D01*
X64309524Y-74580238D02*
X64404762Y-74485000D01*
X64404762Y-74485000D02*
X64547619Y-74437380D01*
X64547619Y-74437380D02*
X64642857Y-74437380D01*
X64642857Y-74437380D02*
X64785714Y-74485000D01*
X64785714Y-74485000D02*
X64833333Y-74532619D01*
X65785714Y-75437380D02*
X65214286Y-75437380D01*
X65500000Y-75437380D02*
X65500000Y-74437380D01*
X65500000Y-74437380D02*
X65404762Y-74580238D01*
X65404762Y-74580238D02*
X65309524Y-74675476D01*
X65309524Y-74675476D02*
X65214286Y-74723095D01*
%TO.C,BIO1*%
X39583333Y-77763571D02*
X39726190Y-77811190D01*
X39726190Y-77811190D02*
X39773809Y-77858809D01*
X39773809Y-77858809D02*
X39821428Y-77954047D01*
X39821428Y-77954047D02*
X39821428Y-78096904D01*
X39821428Y-78096904D02*
X39773809Y-78192142D01*
X39773809Y-78192142D02*
X39726190Y-78239761D01*
X39726190Y-78239761D02*
X39630952Y-78287380D01*
X39630952Y-78287380D02*
X39250000Y-78287380D01*
X39250000Y-78287380D02*
X39250000Y-77287380D01*
X39250000Y-77287380D02*
X39583333Y-77287380D01*
X39583333Y-77287380D02*
X39678571Y-77335000D01*
X39678571Y-77335000D02*
X39726190Y-77382619D01*
X39726190Y-77382619D02*
X39773809Y-77477857D01*
X39773809Y-77477857D02*
X39773809Y-77573095D01*
X39773809Y-77573095D02*
X39726190Y-77668333D01*
X39726190Y-77668333D02*
X39678571Y-77715952D01*
X39678571Y-77715952D02*
X39583333Y-77763571D01*
X39583333Y-77763571D02*
X39250000Y-77763571D01*
X40250000Y-78287380D02*
X40250000Y-77287380D01*
X40916666Y-77287380D02*
X41107142Y-77287380D01*
X41107142Y-77287380D02*
X41202380Y-77335000D01*
X41202380Y-77335000D02*
X41297618Y-77430238D01*
X41297618Y-77430238D02*
X41345237Y-77620714D01*
X41345237Y-77620714D02*
X41345237Y-77954047D01*
X41345237Y-77954047D02*
X41297618Y-78144523D01*
X41297618Y-78144523D02*
X41202380Y-78239761D01*
X41202380Y-78239761D02*
X41107142Y-78287380D01*
X41107142Y-78287380D02*
X40916666Y-78287380D01*
X40916666Y-78287380D02*
X40821428Y-78239761D01*
X40821428Y-78239761D02*
X40726190Y-78144523D01*
X40726190Y-78144523D02*
X40678571Y-77954047D01*
X40678571Y-77954047D02*
X40678571Y-77620714D01*
X40678571Y-77620714D02*
X40726190Y-77430238D01*
X40726190Y-77430238D02*
X40821428Y-77335000D01*
X40821428Y-77335000D02*
X40916666Y-77287380D01*
X42297618Y-78287380D02*
X41726190Y-78287380D01*
X42011904Y-78287380D02*
X42011904Y-77287380D01*
X42011904Y-77287380D02*
X41916666Y-77430238D01*
X41916666Y-77430238D02*
X41821428Y-77525476D01*
X41821428Y-77525476D02*
X41726190Y-77573095D01*
D12*
%TO.C,C6*%
X76738748Y-66015000D02*
X77261252Y-66015000D01*
X76738748Y-67485000D02*
X77261252Y-67485000D01*
%TO.C,C5*%
X76738748Y-63015000D02*
X77261252Y-63015000D01*
X76738748Y-64485000D02*
X77261252Y-64485000D01*
%TO.C,C7*%
X64738748Y-55735000D02*
X65261252Y-55735000D01*
X64738748Y-54265000D02*
X65261252Y-54265000D01*
%TO.C,R5*%
X98452500Y-37277064D02*
X98452500Y-36822936D01*
X99922500Y-37277064D02*
X99922500Y-36822936D01*
%TO.C,R8*%
X93522936Y-43515000D02*
X93977064Y-43515000D01*
X93522936Y-44985000D02*
X93977064Y-44985000D01*
%TO.C,R7*%
X93435436Y-33765000D02*
X93889564Y-33765000D01*
X93435436Y-35235000D02*
X93889564Y-35235000D01*
%TO.C,R6*%
X99922500Y-41485436D02*
X99922500Y-41939564D01*
X98452500Y-41485436D02*
X98452500Y-41939564D01*
%TO.C,Q2*%
X87937500Y-39940000D02*
X86262500Y-39940000D01*
X87937500Y-39940000D02*
X88587500Y-39940000D01*
X87937500Y-43060000D02*
X87287500Y-43060000D01*
X87937500Y-43060000D02*
X88587500Y-43060000D01*
%TO.C,Q1*%
X87937500Y-35490000D02*
X86262500Y-35490000D01*
X87937500Y-35490000D02*
X88587500Y-35490000D01*
X87937500Y-38610000D02*
X87287500Y-38610000D01*
X87937500Y-38610000D02*
X88587500Y-38610000D01*
D13*
%TO.C,U4*%
X69547500Y-60824800D02*
X71452500Y-60824800D01*
X71452500Y-59651361D02*
X71452500Y-58848639D01*
X71452500Y-57675200D02*
X69547500Y-57675200D01*
D12*
%TO.C,U3*%
X66560000Y-72250000D02*
X66560000Y-73050000D01*
X63440000Y-72250000D02*
X63440000Y-74050000D01*
X63440000Y-72250000D02*
X63440000Y-71450000D01*
X66560000Y-72250000D02*
X66560000Y-71450000D01*
%TO.C,U1*%
X61600000Y-85325000D02*
X60100000Y-85325000D01*
X60100000Y-85325000D02*
X60100000Y-86275000D01*
X60100000Y-86275000D02*
X54975000Y-86275000D01*
X61600000Y-95725000D02*
X60100000Y-95725000D01*
X60100000Y-95725000D02*
X60100000Y-94775000D01*
X60100000Y-94775000D02*
X59000000Y-94775000D01*
%TO.C,EN*%
X55150000Y-40700000D02*
X55150000Y-40950000D01*
X48850000Y-38800000D02*
X48850000Y-36200000D01*
X48850000Y-40950000D02*
X48850000Y-40700000D01*
X48850000Y-34300000D02*
X48850000Y-34050000D01*
X55150000Y-40950000D02*
X48850000Y-40950000D01*
X55150000Y-34050000D02*
X55150000Y-34300000D01*
X48850000Y-34050000D02*
X55150000Y-34050000D01*
X55150000Y-36200000D02*
X55150000Y-38800000D01*
%TO.C,R4*%
X76772936Y-69015000D02*
X77227064Y-69015000D01*
X76772936Y-70485000D02*
X77227064Y-70485000D01*
%TO.C,R1*%
X85515000Y-100727064D02*
X85515000Y-100272936D01*
X86985000Y-100727064D02*
X86985000Y-100272936D01*
%TO.C,L1*%
X51739758Y-98190000D02*
X52560242Y-98190000D01*
X51739758Y-99310000D02*
X52560242Y-99310000D01*
%TO.C,UART*%
X83580000Y-35770000D02*
X83580000Y-45990000D01*
X80920000Y-33170000D02*
X82250000Y-33170000D01*
X80920000Y-35770000D02*
X80920000Y-45990000D01*
X80920000Y-45990000D02*
X83580000Y-45990000D01*
X80920000Y-35770000D02*
X83580000Y-35770000D01*
X80920000Y-34500000D02*
X80920000Y-33170000D01*
%TO.C,Battery*%
X71230000Y-79480000D02*
X73270000Y-79480000D01*
X74320000Y-75590000D02*
X74320000Y-74990000D01*
X74900000Y-81010000D02*
X74900000Y-74990000D01*
X70180000Y-74990000D02*
X70180000Y-75590000D01*
X74900000Y-74990000D02*
X69600000Y-74990000D01*
X70980000Y-80010000D02*
X71230000Y-79480000D01*
X71230000Y-81010000D02*
X71230000Y-80010000D01*
X70980000Y-81010000D02*
X70980000Y-80010000D01*
X70980000Y-80010000D02*
X73520000Y-80010000D01*
X73270000Y-79480000D02*
X73520000Y-80010000D01*
X72720000Y-75590000D02*
X74320000Y-75590000D01*
X70180000Y-75590000D02*
X71780000Y-75590000D01*
X73270000Y-81010000D02*
X73270000Y-80010000D01*
X73520000Y-80010000D02*
X73520000Y-81010000D01*
X72720000Y-74990000D02*
X72720000Y-75590000D01*
X69600000Y-74990000D02*
X69600000Y-81010000D01*
X69310000Y-76020000D02*
X69310000Y-80020000D01*
X71780000Y-75590000D02*
X71780000Y-74990000D01*
X69600000Y-81010000D02*
X74900000Y-81010000D01*
%TO.C,3.3V*%
X74580000Y-61240000D02*
X79880000Y-61240000D01*
X76760000Y-55820000D02*
X76760000Y-55220000D01*
X74290000Y-56250000D02*
X74290000Y-60250000D01*
X74580000Y-55220000D02*
X74580000Y-61240000D01*
X77700000Y-55220000D02*
X77700000Y-55820000D01*
X78500000Y-60240000D02*
X78500000Y-61240000D01*
X78250000Y-61240000D02*
X78250000Y-60240000D01*
X75160000Y-55820000D02*
X76760000Y-55820000D01*
X77700000Y-55820000D02*
X79300000Y-55820000D01*
X78250000Y-59710000D02*
X78500000Y-60240000D01*
X75960000Y-60240000D02*
X78500000Y-60240000D01*
X75960000Y-61240000D02*
X75960000Y-60240000D01*
X76210000Y-61240000D02*
X76210000Y-60240000D01*
X75960000Y-60240000D02*
X76210000Y-59710000D01*
X79880000Y-55220000D02*
X74580000Y-55220000D01*
X75160000Y-55220000D02*
X75160000Y-55820000D01*
X79880000Y-61240000D02*
X79880000Y-55220000D01*
X79300000Y-55820000D02*
X79300000Y-55220000D01*
X76210000Y-59710000D02*
X78250000Y-59710000D01*
%TO.C,POT*%
X55100000Y-75760000D02*
X60400000Y-75760000D01*
X57280000Y-70340000D02*
X57280000Y-69740000D01*
X54810000Y-70770000D02*
X54810000Y-74770000D01*
X55100000Y-69740000D02*
X55100000Y-75760000D01*
X58220000Y-69740000D02*
X58220000Y-70340000D01*
X59020000Y-74760000D02*
X59020000Y-75760000D01*
X58770000Y-75760000D02*
X58770000Y-74760000D01*
X55680000Y-70340000D02*
X57280000Y-70340000D01*
X58220000Y-70340000D02*
X59820000Y-70340000D01*
X58770000Y-74230000D02*
X59020000Y-74760000D01*
X56480000Y-74760000D02*
X59020000Y-74760000D01*
X56480000Y-75760000D02*
X56480000Y-74760000D01*
X56730000Y-75760000D02*
X56730000Y-74760000D01*
X56480000Y-74760000D02*
X56730000Y-74230000D01*
X60400000Y-69740000D02*
X55100000Y-69740000D01*
X55680000Y-69740000D02*
X55680000Y-70340000D01*
X60400000Y-75760000D02*
X60400000Y-69740000D01*
X59820000Y-70340000D02*
X59820000Y-69740000D01*
X56730000Y-74230000D02*
X58770000Y-74230000D01*
%TO.C,BUCK*%
X55100000Y-83760000D02*
X60400000Y-83760000D01*
X57280000Y-78340000D02*
X57280000Y-77740000D01*
X54810000Y-78770000D02*
X54810000Y-82770000D01*
X55100000Y-77740000D02*
X55100000Y-83760000D01*
X58220000Y-77740000D02*
X58220000Y-78340000D01*
X59020000Y-82760000D02*
X59020000Y-83760000D01*
X58770000Y-83760000D02*
X58770000Y-82760000D01*
X55680000Y-78340000D02*
X57280000Y-78340000D01*
X58220000Y-78340000D02*
X59820000Y-78340000D01*
X58770000Y-82230000D02*
X59020000Y-82760000D01*
X56480000Y-82760000D02*
X59020000Y-82760000D01*
X56480000Y-83760000D02*
X56480000Y-82760000D01*
X56730000Y-83760000D02*
X56730000Y-82760000D01*
X56480000Y-82760000D02*
X56730000Y-82230000D01*
X60400000Y-77740000D02*
X55100000Y-77740000D01*
X55680000Y-77740000D02*
X55680000Y-78340000D01*
X60400000Y-83760000D02*
X60400000Y-77740000D01*
X59820000Y-78340000D02*
X59820000Y-77740000D01*
X56730000Y-82230000D02*
X58770000Y-82230000D01*
%TO.C,USB*%
X72840000Y-99000000D02*
X72840000Y-97670000D01*
X72840000Y-97670000D02*
X74170000Y-97670000D01*
X75440000Y-100330000D02*
X83120000Y-100330000D01*
X75440000Y-100330000D02*
X75440000Y-97670000D01*
X75440000Y-97670000D02*
X83120000Y-97670000D01*
X83120000Y-100330000D02*
X83120000Y-97670000D01*
%TO.C,J2*%
X77190000Y-102810000D02*
X76740000Y-102810000D01*
X82260000Y-103490000D02*
X81840000Y-103490000D01*
X76740000Y-103260000D02*
X76740000Y-102810000D01*
X74740000Y-107840000D02*
X74740000Y-107440000D01*
X82260000Y-107440000D02*
X82260000Y-107840000D01*
X82260000Y-105470000D02*
X82260000Y-103490000D01*
X74740000Y-105470000D02*
X74740000Y-103490000D01*
X74740000Y-103490000D02*
X75160000Y-103490000D01*
%TO.C,TURBINE*%
X45760000Y-87900000D02*
X45760000Y-82600000D01*
X40340000Y-85720000D02*
X39740000Y-85720000D01*
X40770000Y-88190000D02*
X44770000Y-88190000D01*
X39740000Y-87900000D02*
X45760000Y-87900000D01*
X39740000Y-84780000D02*
X40340000Y-84780000D01*
X44760000Y-83980000D02*
X45760000Y-83980000D01*
X45760000Y-84230000D02*
X44760000Y-84230000D01*
X40340000Y-87320000D02*
X40340000Y-85720000D01*
X40340000Y-84780000D02*
X40340000Y-83180000D01*
X44230000Y-84230000D02*
X44760000Y-83980000D01*
X44760000Y-86520000D02*
X44760000Y-83980000D01*
X45760000Y-86520000D02*
X44760000Y-86520000D01*
X45760000Y-86270000D02*
X44760000Y-86270000D01*
X44760000Y-86520000D02*
X44230000Y-86270000D01*
X39740000Y-82600000D02*
X39740000Y-87900000D01*
X39740000Y-87320000D02*
X40340000Y-87320000D01*
X45760000Y-82600000D02*
X39740000Y-82600000D01*
X40340000Y-83180000D02*
X39740000Y-83180000D01*
X44230000Y-86270000D02*
X44230000Y-84230000D01*
D14*
%TO.C,IC1*%
X60800000Y-27150000D02*
X74000000Y-27150000D01*
X74000000Y-27150000D02*
X74000000Y-43750000D01*
X74000000Y-43750000D02*
X60800000Y-43750000D01*
X60800000Y-43750000D02*
X60800000Y-27150000D01*
D15*
X60300000Y-34150000D02*
X60300000Y-34150000D01*
X60200000Y-34150000D02*
X60200000Y-34150000D01*
X60300000Y-34150000D02*
G75*
G03*
X60200000Y-34150000I-50000J0D01*
G01*
X60200000Y-34150000D02*
G75*
G03*
X60300000Y-34150000I50000J0D01*
G01*
D12*
%TO.C,D1*%
X47820000Y-92470000D02*
X47820000Y-89530000D01*
X47700000Y-92470000D02*
X47700000Y-89530000D01*
X48720000Y-89530000D02*
X43280000Y-89530000D01*
X42260000Y-91000000D02*
X43280000Y-91000000D01*
X48720000Y-92470000D02*
X48720000Y-89530000D01*
X47940000Y-92470000D02*
X47940000Y-89530000D01*
X43280000Y-89530000D02*
X43280000Y-92470000D01*
X49740000Y-91000000D02*
X48720000Y-91000000D01*
X43280000Y-92470000D02*
X48720000Y-92470000D01*
%TO.C,C4*%
X70738748Y-66275000D02*
X71261252Y-66275000D01*
X70738748Y-67745000D02*
X71261252Y-67745000D01*
%TO.C,C3*%
X70738748Y-63265000D02*
X71261252Y-63265000D01*
X70738748Y-64735000D02*
X71261252Y-64735000D01*
%TO.C,C2*%
X64716248Y-79405000D02*
X65238752Y-79405000D01*
X64716248Y-80875000D02*
X65238752Y-80875000D01*
%TO.C,C1*%
X64738748Y-76015000D02*
X65261252Y-76015000D01*
X64738748Y-77485000D02*
X65261252Y-77485000D01*
%TO.C,BIO1*%
X40750000Y-76480000D02*
X39420000Y-76480000D01*
X42080000Y-73880000D02*
X42080000Y-45880000D01*
X42080000Y-45880000D02*
X39420000Y-45880000D01*
X42080000Y-73880000D02*
X39420000Y-73880000D01*
X39420000Y-73880000D02*
X39420000Y-45880000D01*
X39420000Y-76480000D02*
X39420000Y-75150000D01*
%TD*%
M02*
