PCBNEW-LibModule-V1  2023-10-05 05:44:40
# encoding utf-8
Units mm
$INDEX
ESP32C6MINI1H4
$EndINDEX
$MODULE ESP32C6MINI1H4
Po 0 0 0 15 651e3f38 00000000 ~~
Li ESP32C6MINI1H4
Cd ESP32-C6-MINI-1-H4-1
Kw Integrated Circuit
Sc 0
At SMD
AR 
Op 0 0 0
T0 0.000 -0 1.27 1.27 0 0.254 N V 21 N "IC**"
T1 0.000 -0 1.27 1.27 0 0.254 N I 21 N "ESP32C6MINI1H4"
DS -6.6 -8.3 6.6 -8.3 0.1 24
DS 6.6 -8.3 6.6 8.3 0.1 24
DS 6.6 8.3 -6.6 8.3 0.1 24
DS -6.6 8.3 -6.6 -8.3 0.1 24
DS -7.6 -9.3 7.6 -9.3 0.1 24
DS 7.6 -9.3 7.6 9.3 0.1 24
DS 7.6 9.3 -7.6 9.3 0.1 24
DS -7.6 9.3 -7.6 -9.3 0.1 24
DS -6.6 -8.3 6.6 -8.3 0.2 21
DS 6.6 -8.3 6.6 8.3 0.2 21
DS 6.6 8.3 -6.6 8.3 0.2 21
DS -6.6 8.3 -6.6 -8.3 0.2 21
DS -7.1 -1.3 -7.1 -1.3 0.1 21
DS -7.2 -1.3 -7.2 -1.3 0.1 21
DA -7.15 -1.3 -7.100 -1.3 -1800 0.1 21
DA -7.15 -1.3 -7.200 -1.3 -1800 0.1 21
$PAD
Po -5.900 -1.3
Sh "1" R 0.400 0.800 0 0 900
At SMD N 00888000
Ne 0 ""
$EndPAD
$PAD
Po -5.900 -0.5
Sh "2" R 0.400 0.800 0 0 900
At SMD N 00888000
Ne 0 ""
$EndPAD
$PAD
Po -5.900 0.3
Sh "3" R 0.400 0.800 0 0 900
At SMD N 00888000
Ne 0 ""
$EndPAD
$PAD
Po -5.900 1.1
Sh "4" R 0.400 0.800 0 0 900
At SMD N 00888000
Ne 0 ""
$EndPAD
$PAD
Po -5.900 1.9
Sh "5" R 0.400 0.800 0 0 900
At SMD N 00888000
Ne 0 ""
$EndPAD
$PAD
Po -5.900 2.7
Sh "6" R 0.400 0.800 0 0 900
At SMD N 00888000
Ne 0 ""
$EndPAD
$PAD
Po -5.900 3.5
Sh "7" R 0.400 0.800 0 0 900
At SMD N 00888000
Ne 0 ""
$EndPAD
$PAD
Po -5.900 4.3
Sh "8" R 0.400 0.800 0 0 900
At SMD N 00888000
Ne 0 ""
$EndPAD
$PAD
Po -5.900 5.1
Sh "9" R 0.400 0.800 0 0 900
At SMD N 00888000
Ne 0 ""
$EndPAD
$PAD
Po -5.900 5.9
Sh "10" R 0.400 0.800 0 0 900
At SMD N 00888000
Ne 0 ""
$EndPAD
$PAD
Po -5.900 6.7
Sh "11" R 0.400 0.800 0 0 900
At SMD N 00888000
Ne 0 ""
$EndPAD
$PAD
Po -4.800 7.6
Sh "12" R 0.400 0.800 0 0 0
At SMD N 00888000
Ne 0 ""
$EndPAD
$PAD
Po -4.000 7.6
Sh "13" R 0.400 0.800 0 0 0
At SMD N 00888000
Ne 0 ""
$EndPAD
$PAD
Po -3.200 7.6
Sh "14" R 0.400 0.800 0 0 0
At SMD N 00888000
Ne 0 ""
$EndPAD
$PAD
Po -2.400 7.6
Sh "15" R 0.400 0.800 0 0 0
At SMD N 00888000
Ne 0 ""
$EndPAD
$PAD
Po -1.600 7.6
Sh "16" R 0.400 0.800 0 0 0
At SMD N 00888000
Ne 0 ""
$EndPAD
$PAD
Po -0.800 7.6
Sh "17" R 0.400 0.800 0 0 0
At SMD N 00888000
Ne 0 ""
$EndPAD
$PAD
Po 0.000 7.6
Sh "18" R 0.400 0.800 0 0 0
At SMD N 00888000
Ne 0 ""
$EndPAD
$PAD
Po 0.800 7.6
Sh "19" R 0.400 0.800 0 0 0
At SMD N 00888000
Ne 0 ""
$EndPAD
$PAD
Po 1.600 7.6
Sh "20" R 0.400 0.800 0 0 0
At SMD N 00888000
Ne 0 ""
$EndPAD
$PAD
Po 2.400 7.6
Sh "21" R 0.400 0.800 0 0 0
At SMD N 00888000
Ne 0 ""
$EndPAD
$PAD
Po 3.200 7.6
Sh "22" R 0.400 0.800 0 0 0
At SMD N 00888000
Ne 0 ""
$EndPAD
$PAD
Po 4.000 7.6
Sh "23" R 0.400 0.800 0 0 0
At SMD N 00888000
Ne 0 ""
$EndPAD
$PAD
Po 4.800 7.6
Sh "24" R 0.400 0.800 0 0 0
At SMD N 00888000
Ne 0 ""
$EndPAD
$PAD
Po 5.900 6.7
Sh "25" R 0.400 0.800 0 0 900
At SMD N 00888000
Ne 0 ""
$EndPAD
$PAD
Po 5.900 5.9
Sh "26" R 0.400 0.800 0 0 900
At SMD N 00888000
Ne 0 ""
$EndPAD
$PAD
Po 5.900 5.1
Sh "27" R 0.400 0.800 0 0 900
At SMD N 00888000
Ne 0 ""
$EndPAD
$PAD
Po 5.900 4.3
Sh "28" R 0.400 0.800 0 0 900
At SMD N 00888000
Ne 0 ""
$EndPAD
$PAD
Po 5.900 3.5
Sh "29" R 0.400 0.800 0 0 900
At SMD N 00888000
Ne 0 ""
$EndPAD
$PAD
Po 5.900 2.7
Sh "30" R 0.400 0.800 0 0 900
At SMD N 00888000
Ne 0 ""
$EndPAD
$PAD
Po 5.900 1.9
Sh "31" R 0.400 0.800 0 0 900
At SMD N 00888000
Ne 0 ""
$EndPAD
$PAD
Po 5.900 1.1
Sh "32" R 0.400 0.800 0 0 900
At SMD N 00888000
Ne 0 ""
$EndPAD
$PAD
Po 5.900 0.3
Sh "33" R 0.400 0.800 0 0 900
At SMD N 00888000
Ne 0 ""
$EndPAD
$PAD
Po 5.900 -0.5
Sh "34" R 0.400 0.800 0 0 900
At SMD N 00888000
Ne 0 ""
$EndPAD
$PAD
Po 5.900 -1.3
Sh "35" R 0.400 0.800 0 0 900
At SMD N 00888000
Ne 0 ""
$EndPAD
$PAD
Po 4.800 -2.2
Sh "36" R 0.400 0.800 0 0 0
At SMD N 00888000
Ne 0 ""
$EndPAD
$PAD
Po 4.000 -2.2
Sh "37" R 0.400 0.800 0 0 0
At SMD N 00888000
Ne 0 ""
$EndPAD
$PAD
Po 3.200 -2.2
Sh "38" R 0.400 0.800 0 0 0
At SMD N 00888000
Ne 0 ""
$EndPAD
$PAD
Po 2.400 -2.2
Sh "39" R 0.400 0.800 0 0 0
At SMD N 00888000
Ne 0 ""
$EndPAD
$PAD
Po 1.600 -2.2
Sh "40" R 0.400 0.800 0 0 0
At SMD N 00888000
Ne 0 ""
$EndPAD
$PAD
Po 0.800 -2.2
Sh "41" R 0.400 0.800 0 0 0
At SMD N 00888000
Ne 0 ""
$EndPAD
$PAD
Po 0.000 -2.2
Sh "42" R 0.400 0.800 0 0 0
At SMD N 00888000
Ne 0 ""
$EndPAD
$PAD
Po -0.800 -2.2
Sh "43" R 0.400 0.800 0 0 0
At SMD N 00888000
Ne 0 ""
$EndPAD
$PAD
Po -1.600 -2.2
Sh "44" R 0.400 0.800 0 0 0
At SMD N 00888000
Ne 0 ""
$EndPAD
$PAD
Po -2.400 -2.2
Sh "45" R 0.400 0.800 0 0 0
At SMD N 00888000
Ne 0 ""
$EndPAD
$PAD
Po -3.200 -2.2
Sh "46" R 0.400 0.800 0 0 0
At SMD N 00888000
Ne 0 ""
$EndPAD
$PAD
Po -4.000 -2.2
Sh "47" R 0.400 0.800 0 0 0
At SMD N 00888000
Ne 0 ""
$EndPAD
$PAD
Po -4.800 -2.2
Sh "48" R 0.400 0.800 0 0 0
At SMD N 00888000
Ne 0 ""
$EndPAD
$PAD
Po 0.000 2.7
Sh "49" R 1.450 1.450 0 0 900
At SMD N 00888000
Ne 0 ""
$EndPAD
$PAD
Po 5.950 -2.25
Sh "50" R 0.700 0.700 0 0 900
At SMD N 00888000
Ne 0 ""
$EndPAD
$PAD
Po 5.950 7.65
Sh "51" R 0.700 0.700 0 0 900
At SMD N 00888000
Ne 0 ""
$EndPAD
$PAD
Po -5.950 7.65
Sh "52" R 0.700 0.700 0 0 900
At SMD N 00888000
Ne 0 ""
$EndPAD
$PAD
Po -5.950 -2.25
Sh "53" R 0.700 0.700 0 0 900
At SMD N 00888000
Ne 0 ""
$EndPAD
$PAD
Po -1.975 2.7
Sh "54" R 1.450 1.450 0 0 900
At SMD N 00888000
Ne 0 ""
$EndPAD
$PAD
Po -1.975 4.675
Sh "55" R 1.450 1.450 0 0 900
At SMD N 00888000
Ne 0 ""
$EndPAD
$PAD
Po 0.000 4.675
Sh "56" R 1.450 1.450 0 0 900
At SMD N 00888000
Ne 0 ""
$EndPAD
$PAD
Po 1.975 4.675
Sh "57" R 1.450 1.450 0 0 900
At SMD N 00888000
Ne 0 ""
$EndPAD
$PAD
Po 1.975 2.7
Sh "58" R 1.450 1.450 0 0 900
At SMD N 00888000
Ne 0 ""
$EndPAD
$PAD
Po 1.975 0.725
Sh "59" R 1.450 1.450 0 0 900
At SMD N 00888000
Ne 0 ""
$EndPAD
$PAD
Po 0.000 0.725
Sh "60" R 1.450 1.450 0 0 900
At SMD N 00888000
Ne 0 ""
$EndPAD
$PAD
Po -1.975 0.725
Sh "61" R 1.450 1.450 0 0 900
At SMD N 00888000
Ne 0 ""
$EndPAD
$EndMODULE ESP32C6MINI1H4
$EndLIBRARY
