PCBNEW-LibModule-V1  2023-10-31 20:40:53
# encoding utf-8
Units mm
$INDEX
SRR1260A681K
$EndINDEX
$MODULE SRR1260A681K
Po 0 0 0 15 65416655 00000000 ~~
Li SRR1260A681K
Cd SMD 1260
Kw Inductor
Sc 0
At SMD
AR 
Op 0 0 0
T0 -0.000 -0 1.27 1.27 0 0.254 N V 21 N "L**"
T1 -0.000 -0 1.27 1.27 0 0.254 N I 21 N "SRR1260A681K"
DS -6.25 -6.25 6.25 -6.25 0.2 24
DS 6.25 -6.25 6.25 6.25 0.2 24
DS 6.25 6.25 -6.25 6.25 0.2 24
DS -6.25 6.25 -6.25 -6.25 0.2 24
DS -7.25 -7.3 7.25 -7.3 0.1 24
DS 7.25 -7.3 7.25 7.3 0.1 24
DS 7.25 7.3 -7.25 7.3 0.1 24
DS -7.25 7.3 -7.25 -7.3 0.1 24
DS -3 -6.25 -6.25 -6.25 0.1 21
DS -6.25 -6.25 -6.25 6.25 0.1 21
DS -6.25 6.25 -3 6.25 0.1 21
DS 3 -6.25 6.25 -6.25 0.1 21
DS 6.25 -6.25 6.25 6.25 0.1 21
DS 6.25 6.25 3 6.25 0.1 21
$PAD
Po 0.000 -4.85
Sh "1" R 2.900 5.400 0 0 900
At SMD N 00888000
Ne 0 ""
$EndPAD
$PAD
Po 0.000 4.85
Sh "2" R 2.900 5.400 0 0 900
At SMD N 00888000
Ne 0 ""
$EndPAD
$EndMODULE SRR1260A681K
$EndLIBRARY
