(footprint "SDO_B120AF_DIO" (version 20211014) (generator pcbnew)
  (layer "F.Cu")
  (tags "B120AF-13 ")
  (attr smd)
  (fp_text reference "REF**" (at 0 0 unlocked) (layer F.SilkS)
    (effects (font (size 1 1) (thickness 0.15)))
  )
  (fp_text value SDO_B120AF_DIO (at 0 0 unlocked) (layer F.Fab)
    (effects (font (size 1 1) (thickness 0.15)))
  )
  (fp_text user "${REFERENCE}" (at 0 0 unlocked) (layer F.Fab)
    (effects (font (size 1 1) (thickness 0.15)))
  )
  (fp_text user "*" (at -3.4798 0) (layer F.SilkS)
    (effects (font (size 1 1) (thickness 0.15)))
  )
  (fp_text user "*" (at -2.0447 0) (layer F.Fab)
    (effects (font (size 1 1) (thickness 0.15)))
  )
  (fp_line (start -2.2987 0.8255) (end -2.2987 -0.8255) (layer "F.Fab") (width 0.0254))
  (fp_line (start -2.2987 -0.8255) (end -2.794 -0.8255) (layer "F.Fab") (width 0.0254))
  (fp_line (start -2.794 -0.8255) (end -2.794 0.8255) (layer "F.Fab") (width 0.0254))
  (fp_line (start -2.794 0.8255) (end -2.2987 0.8255) (layer "F.Fab") (width 0.0254))
  (fp_line (start 2.2987 -0.8255) (end 2.2987 0.8255) (layer "F.Fab") (width 0.0254))
  (fp_line (start 2.2987 0.8255) (end 2.794 0.8255) (layer "F.Fab") (width 0.0254))
  (fp_line (start 2.794 0.8255) (end 2.794 -0.8255) (layer "F.Fab") (width 0.0254))
  (fp_line (start 2.794 -0.8255) (end 2.2987 -0.8255) (layer "F.Fab") (width 0.0254))
  (zone (net 0) (net_name "") (layer "F.Cu") (hatch full 0.508)
    (connect_pads (clearance 0))
    (min_thickness 0.254)
    (keepout (tracks not_allowed) (vias not_allowed) (pads allowed ) (copperpour not_allowed) (footprints allowed))
    (fill (thermal_gap 0.508) (thermal_bridge_width 0.508))
    (polygon
      (pts
        (xy -1.2446 -1.4224)
        (xy 1.2446 -1.4224)
        (xy 1.2446 1.4224)
        (xy -1.2446 1.4224)
      )
    )
  )
  (fp_line (start -3.6068 1.3589) (end -3.6068 -1.3589) (layer "F.CrtYd") (width 0.1524))
  (fp_line (start -3.6068 -1.3589) (end -2.8067 -1.3589) (layer "F.CrtYd") (width 0.1524))
  (fp_line (start 2.8067 -1.3589) (end 3.6068 -1.3589) (layer "F.CrtYd") (width 0.1524))
  (fp_line (start 3.6068 -1.3589) (end 3.6068 1.3589) (layer "F.CrtYd") (width 0.1524))
  (fp_line (start 3.6068 1.3589) (end 2.8067 1.3589) (layer "F.CrtYd") (width 0.1524))
  (fp_line (start -2.8067 1.3589) (end -3.6068 1.3589) (layer "F.CrtYd") (width 0.1524))
  (fp_line (start -2.8067 1.9812) (end -2.8067 1.3589) (layer "F.CrtYd") (width 0.1524))
  (fp_line (start -2.8067 -1.3589) (end -2.8067 -1.9812) (layer "F.CrtYd") (width 0.1524))
  (fp_line (start -2.8067 -1.9812) (end 2.8067 -1.9812) (layer "F.CrtYd") (width 0.1524))
  (fp_line (start 2.8067 -1.9812) (end 2.8067 -1.3589) (layer "F.CrtYd") (width 0.1524))
  (fp_line (start 2.8067 1.3589) (end 2.8067 1.9812) (layer "F.CrtYd") (width 0.1524))
  (fp_line (start 2.8067 1.9812) (end -2.8067 1.9812) (layer "F.CrtYd") (width 0.1524))
  (fp_text user "*" (at -2.0447 0 unlocked) (layer "F.Fab")
    (effects (font (size 1 1) (thickness 0.15)))
  )
  (fp_text user "*" (at -3.4798 0 unlocked) (layer "F.SilkS")
    (effects (font (size 1 1) (thickness 0.15)))
  )
  (fp_line (start -2.2987 -0.7366) (end -1.5621 -1.4732) (layer "F.Fab") (width 0.0254))
  (fp_line (start -2.2987 0.7366) (end -1.5621 1.4732) (layer "F.Fab") (width 0.0254))
  (fp_line (start -2.4257 1.6002) (end 2.4257 1.6002) (layer "F.SilkS") (width 0.1524))
  (fp_line (start 2.4257 1.6002) (end 2.4257 1.18364) (layer "F.SilkS") (width 0.1524))
  (fp_line (start 2.4257 -1.6002) (end -2.4257 -1.6002) (layer "F.SilkS") (width 0.1524))
  (fp_line (start -2.4257 -1.6002) (end -2.4257 -1.18364) (layer "F.SilkS") (width 0.1524))
  (fp_line (start -2.2987 1.4732) (end 2.2987 1.4732) (layer "F.Fab") (width 0.0254))
  (fp_line (start 2.2987 1.4732) (end 2.2987 -1.4732) (layer "F.Fab") (width 0.0254))
  (fp_line (start 2.2987 -1.4732) (end -2.2987 -1.4732) (layer "F.Fab") (width 0.0254))
  (fp_line (start -2.2987 -1.4732) (end -2.2987 1.4732) (layer "F.Fab") (width 0.0254))
  (fp_line (start -2.4257 1.18364) (end -2.4257 1.6002) (layer "F.SilkS") (width 0.1524))
  (fp_line (start 2.4257 -1.18364) (end 2.4257 -1.6002) (layer "F.SilkS") (width 0.1524))
  (pad "1" smd rect (at -2.1971 0) (size 1.8034 1.7018) (layers "F.Cu" "F.Paste" "F.Mask"))
  (pad "2" smd rect (at 2.1971 0) (size 1.8034 1.7018) (layers "F.Cu" "F.Paste" "F.Mask"))
)
