%TF.GenerationSoftware,KiCad,Pcbnew,7.0.7*%
%TF.CreationDate,2023-10-18T22:14:57-05:00*%
%TF.ProjectId,power_pcb,706f7765-725f-4706-9362-2e6b69636164,rev?*%
%TF.SameCoordinates,Original*%
%TF.FileFunction,Soldermask,Top*%
%TF.FilePolarity,Negative*%
%FSLAX46Y46*%
G04 Gerber Fmt 4.6, Leading zero omitted, Abs format (unit mm)*
G04 Created by KiCad (PCBNEW 7.0.7) date 2023-10-18 22:14:57*
%MOMM*%
%LPD*%
G01*
G04 APERTURE LIST*
G04 Aperture macros list*
%AMRoundRect*
0 Rectangle with rounded corners*
0 $1 Rounding radius*
0 $2 $3 $4 $5 $6 $7 $8 $9 X,Y pos of 4 corners*
0 Add a 4 corners polygon primitive as box body*
4,1,4,$2,$3,$4,$5,$6,$7,$8,$9,$2,$3,0*
0 Add four circle primitives for the rounded corners*
1,1,$1+$1,$2,$3*
1,1,$1+$1,$4,$5*
1,1,$1+$1,$6,$7*
1,1,$1+$1,$8,$9*
0 Add four rect primitives between the rounded corners*
20,1,$1+$1,$2,$3,$4,$5,0*
20,1,$1+$1,$4,$5,$6,$7,0*
20,1,$1+$1,$6,$7,$8,$9,0*
20,1,$1+$1,$8,$9,$2,$3,0*%
G04 Aperture macros list end*
%ADD10RoundRect,0.250000X-0.350000X-0.450000X0.350000X-0.450000X0.350000X0.450000X-0.350000X0.450000X0*%
%ADD11RoundRect,0.250000X0.450000X-0.350000X0.450000X0.350000X-0.450000X0.350000X-0.450000X-0.350000X0*%
%ADD12RoundRect,0.250000X-0.450000X0.350000X-0.450000X-0.350000X0.450000X-0.350000X0.450000X0.350000X0*%
%ADD13RoundRect,0.250000X0.350000X0.450000X-0.350000X0.450000X-0.350000X-0.450000X0.350000X-0.450000X0*%
%ADD14RoundRect,0.250000X-0.337500X-0.475000X0.337500X-0.475000X0.337500X0.475000X-0.337500X0.475000X0*%
%ADD15RoundRect,0.250000X0.337500X0.475000X-0.337500X0.475000X-0.337500X-0.475000X0.337500X-0.475000X0*%
%ADD16O,2.190000X1.740000*%
%ADD17RoundRect,0.250000X-0.845000X0.620000X-0.845000X-0.620000X0.845000X-0.620000X0.845000X0.620000X0*%
%ADD18RoundRect,0.250000X0.845000X-0.620000X0.845000X0.620000X-0.845000X0.620000X-0.845000X-0.620000X0*%
%ADD19O,1.550000X0.890000*%
%ADD20R,1.550000X1.500000*%
%ADD21O,0.950000X1.250000*%
%ADD22R,1.550000X1.200000*%
%ADD23R,1.350000X0.400000*%
%ADD24R,1.450000X1.450000*%
%ADD25R,0.700000X0.700000*%
%ADD26R,0.800000X0.400000*%
%ADD27R,0.400000X0.800000*%
%ADD28R,1.700000X1.700000*%
%ADD29O,1.700000X1.700000*%
%ADD30O,1.740000X2.190000*%
%ADD31RoundRect,0.250000X-0.620000X-0.845000X0.620000X-0.845000X0.620000X0.845000X-0.620000X0.845000X0*%
%ADD32C,1.400000*%
%ADD33R,0.700000X0.300000*%
%ADD34C,0.650000*%
%ADD35C,0.950000*%
%ADD36R,1.350000X0.700000*%
%ADD37RoundRect,0.250000X-0.475000X0.337500X-0.475000X-0.337500X0.475000X-0.337500X0.475000X0.337500X0*%
%ADD38R,2.200000X2.200000*%
%ADD39O,2.200000X2.200000*%
%ADD40RoundRect,0.250000X0.475000X-0.337500X0.475000X0.337500X-0.475000X0.337500X-0.475000X-0.337500X0*%
%ADD41C,2.032000*%
%ADD42R,0.850000X0.280000*%
%ADD43C,0.508000*%
%ADD44RoundRect,0.250000X-0.300000X2.050000X-0.300000X-2.050000X0.300000X-2.050000X0.300000X2.050000X0*%
%ADD45RoundRect,0.250002X-5.149998X4.449998X-5.149998X-4.449998X5.149998X-4.449998X5.149998X4.449998X0*%
%ADD46R,1.130300X0.431800*%
%ADD47RoundRect,0.250000X-0.350000X0.275000X-0.350000X-0.275000X0.350000X-0.275000X0.350000X0.275000X0*%
%ADD48RoundRect,0.150000X0.512500X0.150000X-0.512500X0.150000X-0.512500X-0.150000X0.512500X-0.150000X0*%
G04 APERTURE END LIST*
%TO.C,U6*%
G36*
X109677346Y-108434998D02*
G01*
X108687346Y-108434998D01*
X108687346Y-108014999D01*
X109677346Y-108014999D01*
X109677346Y-108434998D01*
G37*
G36*
X109677346Y-108935000D02*
G01*
X108687346Y-108935000D01*
X108687346Y-108514998D01*
X109677346Y-108514998D01*
X109677346Y-108935000D01*
G37*
G36*
X109677346Y-109434999D02*
G01*
X108687346Y-109434999D01*
X108687346Y-109014999D01*
X109677346Y-109014999D01*
X109677346Y-109434999D01*
G37*
G36*
X109677346Y-109935000D02*
G01*
X108687346Y-109935000D01*
X108687346Y-109514998D01*
X109677346Y-109514998D01*
X109677346Y-109935000D01*
G37*
G36*
X109677346Y-110434999D02*
G01*
X108687346Y-110434999D01*
X108687346Y-110015000D01*
X109677346Y-110015000D01*
X109677346Y-110434999D01*
G37*
G36*
X110176273Y-110363499D02*
G01*
X109725173Y-110363499D01*
X109725173Y-108086499D01*
X110176273Y-108086499D01*
X110176273Y-110363499D01*
G37*
G36*
X112602173Y-108631299D02*
G01*
X109725173Y-108631299D01*
X109725173Y-108086499D01*
X112602173Y-108086499D01*
X112602173Y-108631299D01*
G37*
G36*
X112602173Y-109418699D02*
G01*
X109725173Y-109418699D01*
X109725173Y-109031299D01*
X112602173Y-109031299D01*
X112602173Y-109418699D01*
G37*
G36*
X112602173Y-110363499D02*
G01*
X109725173Y-110363499D01*
X109725173Y-109818699D01*
X112602173Y-109818699D01*
X112602173Y-110363499D01*
G37*
G36*
X110088673Y-108149999D02*
G01*
X109838673Y-108149999D01*
X109838673Y-107274999D01*
X110088673Y-107274999D01*
X110088673Y-108149999D01*
G37*
G36*
X110088673Y-111174999D02*
G01*
X109838673Y-111174999D01*
X109838673Y-110299999D01*
X110088673Y-110299999D01*
X110088673Y-111174999D01*
G37*
G36*
X110853673Y-108149999D02*
G01*
X110603673Y-108149999D01*
X110603673Y-107274999D01*
X110853673Y-107274999D01*
X110853673Y-108149999D01*
G37*
G36*
X110853673Y-111174999D02*
G01*
X110603673Y-111174999D01*
X110603673Y-110299999D01*
X110853673Y-110299999D01*
X110853673Y-111174999D01*
G37*
G36*
X110963673Y-110363499D02*
G01*
X110576273Y-110363499D01*
X110576273Y-108086499D01*
X110963673Y-108086499D01*
X110963673Y-110363499D01*
G37*
G36*
X111723673Y-108149999D02*
G01*
X111473673Y-108149999D01*
X111473673Y-107274999D01*
X111723673Y-107274999D01*
X111723673Y-108149999D01*
G37*
G36*
X111723673Y-111174999D02*
G01*
X111473673Y-111174999D01*
X111473673Y-110299999D01*
X111723673Y-110299999D01*
X111723673Y-111174999D01*
G37*
G36*
X111751073Y-110363499D02*
G01*
X111363673Y-110363499D01*
X111363673Y-108086499D01*
X111751073Y-108086499D01*
X111751073Y-110363499D01*
G37*
G36*
X112602173Y-110363499D02*
G01*
X112151073Y-110363499D01*
X112151073Y-108086499D01*
X112602173Y-108086499D01*
X112602173Y-110363499D01*
G37*
G36*
X112488673Y-108149999D02*
G01*
X112238673Y-108149999D01*
X112238673Y-107274999D01*
X112488673Y-107274999D01*
X112488673Y-108149999D01*
G37*
G36*
X112488673Y-111174999D02*
G01*
X112238673Y-111174999D01*
X112238673Y-110299999D01*
X112488673Y-110299999D01*
X112488673Y-111174999D01*
G37*
G36*
X113640000Y-108434998D02*
G01*
X112650000Y-108434998D01*
X112650000Y-108014999D01*
X113640000Y-108014999D01*
X113640000Y-108434998D01*
G37*
G36*
X113640000Y-108935000D02*
G01*
X112650000Y-108935000D01*
X112650000Y-108514998D01*
X113640000Y-108514998D01*
X113640000Y-108935000D01*
G37*
G36*
X113640000Y-109434999D02*
G01*
X112650000Y-109434999D01*
X112650000Y-109014999D01*
X113640000Y-109014999D01*
X113640000Y-109434999D01*
G37*
G36*
X113640000Y-109935000D02*
G01*
X112650000Y-109935000D01*
X112650000Y-109514998D01*
X113640000Y-109514998D01*
X113640000Y-109935000D01*
G37*
G36*
X113640000Y-110434999D02*
G01*
X112650000Y-110434999D01*
X112650000Y-110015000D01*
X113640000Y-110015000D01*
X113640000Y-110434999D01*
G37*
%TD*%
D10*
%TO.C,R10*%
X145830000Y-59860000D03*
X143830000Y-59860000D03*
%TD*%
D11*
%TO.C,R9*%
X170080000Y-52860000D03*
X170080000Y-54860000D03*
%TD*%
D12*
%TO.C,R8*%
X170070000Y-59600000D03*
X170070000Y-57600000D03*
%TD*%
D10*
%TO.C,R7*%
X156580000Y-56860000D03*
X154580000Y-56860000D03*
%TD*%
D13*
%TO.C,R6*%
X180330000Y-64610000D03*
X178330000Y-64610000D03*
%TD*%
D14*
%TO.C,C14*%
X154367500Y-47110000D03*
X152292500Y-47110000D03*
%TD*%
D15*
%TO.C,C13*%
X150030000Y-49610000D03*
X152105000Y-49610000D03*
%TD*%
%TO.C,C12*%
X154550000Y-49620000D03*
X156625000Y-49620000D03*
%TD*%
D14*
%TO.C,C11*%
X156617500Y-53110000D03*
X154542500Y-53110000D03*
%TD*%
D16*
%TO.C,JTAG*%
X159040000Y-76170000D03*
X159040000Y-73630000D03*
X159040000Y-71090000D03*
D17*
X159040000Y-68550000D03*
%TD*%
D16*
%TO.C,BOOTSEL*%
X159100000Y-62280000D03*
D18*
X159100000Y-64820000D03*
%TD*%
D19*
%TO.C,USBMicro*%
X182445000Y-74110000D03*
D20*
X182445000Y-71610000D03*
D21*
X179745000Y-73110000D03*
D22*
X182445000Y-67710000D03*
D19*
X182445000Y-67110000D03*
D20*
X182445000Y-69610000D03*
D21*
X179745000Y-68110000D03*
D22*
X182445000Y-73510000D03*
D23*
X179745000Y-69310000D03*
X179745000Y-69960000D03*
X179745000Y-70610000D03*
X179745000Y-71260000D03*
X179745000Y-71910000D03*
%TD*%
D24*
%TO.C,IC1*%
X146005000Y-72295000D03*
X146005000Y-70320000D03*
X146005000Y-68345000D03*
X147980000Y-68345000D03*
X149955000Y-68345000D03*
X149955000Y-70320000D03*
X149955000Y-72295000D03*
X147980000Y-72295000D03*
D25*
X143030000Y-76270000D03*
X152930000Y-76270000D03*
X152930000Y-64370000D03*
X143030000Y-64370000D03*
D24*
X147980000Y-70320000D03*
D26*
X143080000Y-75120000D03*
X143080000Y-74320000D03*
X143080000Y-73520000D03*
X143080000Y-72720000D03*
X143080000Y-71920000D03*
X143080000Y-71120000D03*
X143080000Y-70320000D03*
X143080000Y-69520000D03*
X143080000Y-68720000D03*
X143080000Y-67920000D03*
X143080000Y-67120000D03*
X143080000Y-66320000D03*
X143080000Y-65520000D03*
D27*
X143980000Y-64420000D03*
X144780000Y-64420000D03*
X145580000Y-64420000D03*
X146380000Y-64420000D03*
X147180000Y-64420000D03*
X147980000Y-64420000D03*
X148780000Y-64420000D03*
X149580000Y-64420000D03*
X150380000Y-64420000D03*
X151180000Y-64420000D03*
X151980000Y-64420000D03*
D26*
X152880000Y-65520000D03*
X152880000Y-66320000D03*
X152880000Y-67120000D03*
X152880000Y-67920000D03*
X152880000Y-68720000D03*
X152880000Y-69520000D03*
X152880000Y-70320000D03*
X152880000Y-71120000D03*
X152880000Y-71920000D03*
X152880000Y-72720000D03*
X152880000Y-73520000D03*
X152880000Y-74320000D03*
X152880000Y-75120000D03*
D27*
X151980000Y-76220000D03*
X151180000Y-76220000D03*
X150380000Y-76220000D03*
X149580000Y-76220000D03*
X148780000Y-76220000D03*
X147980000Y-76220000D03*
X147180000Y-76220000D03*
X146380000Y-76220000D03*
X145580000Y-76220000D03*
X144780000Y-76220000D03*
X143980000Y-76220000D03*
%TD*%
D28*
%TO.C,USB*%
X170570000Y-74640000D03*
D29*
X170570000Y-72100000D03*
X170570000Y-69560000D03*
X170570000Y-67020000D03*
%TD*%
D30*
%TO.C,UART*%
X151910000Y-55360000D03*
X149370000Y-55360000D03*
X146830000Y-55360000D03*
D31*
X144290000Y-55360000D03*
%TD*%
D32*
%TO.C,USBC Receptacle*%
X176220000Y-52730000D03*
X176220000Y-60990000D03*
X182170000Y-52370000D03*
X182170000Y-61350000D03*
D33*
X176010000Y-59860000D03*
X176010000Y-59360000D03*
X176010000Y-58860000D03*
X176010000Y-58360000D03*
X176010000Y-57860000D03*
X176010000Y-57360000D03*
X176010000Y-56860000D03*
X176010000Y-56360000D03*
X176010000Y-55860000D03*
X176010000Y-55360000D03*
X176010000Y-54860000D03*
X176010000Y-54360000D03*
X174310000Y-54110000D03*
X174310000Y-54610000D03*
X174310000Y-55110000D03*
X174310000Y-55610000D03*
X174310000Y-56110000D03*
X174310000Y-56610000D03*
X174310000Y-57110000D03*
X174310000Y-57610000D03*
X174310000Y-58110000D03*
X174310000Y-58610000D03*
X174310000Y-59110000D03*
X174310000Y-59610000D03*
D34*
X174970000Y-60460000D03*
D35*
X174970000Y-53260000D03*
%TD*%
D16*
%TO.C,SW1*%
X161300000Y-53350000D03*
D18*
X161300000Y-55890000D03*
%TD*%
D29*
%TO.C,J4*%
X178100000Y-81140000D03*
X175560000Y-81140000D03*
X173020000Y-81140000D03*
X170480000Y-81140000D03*
X167940000Y-81140000D03*
X165400000Y-81140000D03*
X162860000Y-81140000D03*
X160320000Y-81140000D03*
X157780000Y-81140000D03*
X155240000Y-81140000D03*
X152700000Y-81140000D03*
X150160000Y-81140000D03*
X147620000Y-81140000D03*
X145080000Y-81140000D03*
X142540000Y-81140000D03*
D28*
X140000000Y-81140000D03*
%TD*%
D36*
%TO.C,M2*%
X141130000Y-111025000D03*
X141130000Y-112295000D03*
X141130000Y-113565000D03*
X141130000Y-114835000D03*
X135230000Y-114835000D03*
X135230000Y-113565000D03*
X135230000Y-112295000D03*
X135230000Y-111025000D03*
%TD*%
%TO.C,M1*%
X141130000Y-94865000D03*
X141130000Y-96135000D03*
X141130000Y-97405000D03*
X141130000Y-98675000D03*
X135230000Y-98675000D03*
X135230000Y-97405000D03*
X135230000Y-96135000D03*
X135230000Y-94865000D03*
%TD*%
D28*
%TO.C,FL2*%
X135295000Y-119725000D03*
%TD*%
%TO.C,12V*%
X128295000Y-112275000D03*
%TD*%
D37*
%TO.C,C8*%
X123645000Y-113500000D03*
X123645000Y-115575000D03*
%TD*%
D14*
%TO.C,C9*%
X117395000Y-122425000D03*
X115320000Y-122425000D03*
%TD*%
D18*
%TO.C,BuckOut1*%
X128325000Y-79681100D03*
D16*
X128325000Y-77141100D03*
%TD*%
D38*
%TO.C,D1*%
X101420000Y-63375000D03*
D39*
X91260000Y-63375000D03*
%TD*%
D37*
%TO.C,C2*%
X101420000Y-81100000D03*
X101420000Y-83175000D03*
%TD*%
%TO.C,C3*%
X111195000Y-88987500D03*
X111195000Y-91062500D03*
%TD*%
D15*
%TO.C,C1*%
X106582500Y-66775000D03*
X104507500Y-66775000D03*
%TD*%
D17*
%TO.C,SCL/SDA1*%
X105895000Y-114485000D03*
D16*
X105895000Y-117025000D03*
%TD*%
D28*
%TO.C,RT2*%
X149045000Y-112375000D03*
%TD*%
D14*
%TO.C,C10*%
X115320000Y-118025000D03*
X117395000Y-118025000D03*
%TD*%
D40*
%TO.C,C7*%
X110995000Y-105712500D03*
X110995000Y-103637500D03*
%TD*%
D28*
%TO.C,RL1*%
X141095000Y-103175000D03*
%TD*%
D41*
%TO.C,J1*%
X146445000Y-88775000D03*
X151525000Y-88775000D03*
%TD*%
D28*
%TO.C,U3*%
X128295000Y-101125000D03*
D29*
X128295000Y-103665000D03*
X128295000Y-106205000D03*
%TD*%
D42*
%TO.C,U6*%
X109182346Y-108224998D03*
X109182346Y-108725000D03*
X109182346Y-109224999D03*
X109182346Y-109724998D03*
X109182346Y-110225000D03*
X113145000Y-110225000D03*
X113145000Y-109724998D03*
X113145000Y-109224999D03*
X113145000Y-108725000D03*
X113145000Y-108224998D03*
D43*
X110376273Y-108831299D03*
X110376273Y-109618699D03*
X111163673Y-108831299D03*
X111163673Y-109618699D03*
X111951073Y-108831299D03*
X111951073Y-109618699D03*
%TD*%
D28*
%TO.C,RT1*%
X148195000Y-96225000D03*
%TD*%
%TO.C,FT1*%
X135145000Y-90625000D03*
%TD*%
%TO.C,FL1*%
X135245000Y-103175000D03*
%TD*%
D44*
%TO.C,LM2596S-5*%
X116865000Y-64912500D03*
X115165000Y-64912500D03*
X113465000Y-64912500D03*
D45*
X113465000Y-74062500D03*
D44*
X111765000Y-64912500D03*
X110065000Y-64912500D03*
%TD*%
D28*
%TO.C,GPIO1*%
X119845000Y-112225000D03*
%TD*%
D46*
%TO.C,U5*%
X114392100Y-86061800D03*
X114392100Y-87011801D03*
X114392100Y-87961802D03*
X117173400Y-87961802D03*
X117173400Y-86061800D03*
%TD*%
D18*
%TO.C,3.3Bus1*%
X128245000Y-89801100D03*
D16*
X128245000Y-87261100D03*
%TD*%
D18*
%TO.C,Turbine*%
X128345000Y-71195000D03*
D16*
X128345000Y-68655000D03*
%TD*%
D15*
%TO.C,C4*%
X111095000Y-85825000D03*
X109020000Y-85825000D03*
%TD*%
D47*
%TO.C,L1*%
X101420000Y-74672500D03*
X101420000Y-76972500D03*
%TD*%
D48*
%TO.C,U2*%
X109232500Y-83125000D03*
X109232500Y-82175000D03*
X109232500Y-81225000D03*
X106957500Y-81225000D03*
X106957500Y-83125000D03*
%TD*%
D28*
%TO.C,PROG1*%
X119845000Y-108225000D03*
%TD*%
D11*
%TO.C,R1*%
X107995000Y-102075000D03*
X107995000Y-100075000D03*
%TD*%
D28*
%TO.C,FT2*%
X135245000Y-107525000D03*
%TD*%
D31*
%TO.C,POT*%
X104965000Y-91161100D03*
D30*
X107505000Y-91161100D03*
%TD*%
D28*
%TO.C,RL2*%
X141295000Y-119725000D03*
%TD*%
D11*
%TO.C,R2*%
X123645000Y-111325000D03*
X123645000Y-109325000D03*
%TD*%
D31*
%TO.C,BAT*%
X114255000Y-95721100D03*
D30*
X116795000Y-95721100D03*
%TD*%
D10*
%TO.C,R3*%
X115357500Y-115775000D03*
X117357500Y-115775000D03*
%TD*%
D41*
%TO.C,J2*%
X146445000Y-105375000D03*
X151525000Y-105375000D03*
%TD*%
D10*
%TO.C,R4*%
X117357500Y-120175000D03*
X115357500Y-120175000D03*
%TD*%
D11*
%TO.C,R5*%
X121495000Y-120175000D03*
X121495000Y-118175000D03*
%TD*%
D37*
%TO.C,C5*%
X121895000Y-89825000D03*
X121895000Y-91900000D03*
%TD*%
%TO.C,C6*%
X104545000Y-108575000D03*
X104545000Y-110650000D03*
%TD*%
M02*
