%TF.GenerationSoftware,KiCad,Pcbnew,7.0.7*%
%TF.CreationDate,2023-10-18T22:14:57-05:00*%
%TF.ProjectId,power_pcb,706f7765-725f-4706-9362-2e6b69636164,rev?*%
%TF.SameCoordinates,Original*%
%TF.FileFunction,Legend,Bot*%
%TF.FilePolarity,Positive*%
%FSLAX46Y46*%
G04 Gerber Fmt 4.6, Leading zero omitted, Abs format (unit mm)*
G04 Created by KiCad (PCBNEW 7.0.7) date 2023-10-18 22:14:57*
%MOMM*%
%LPD*%
G01*
G04 APERTURE LIST*
%ADD10C,0.508000*%
G04 APERTURE END LIST*
D10*
%TO.C,J1*%
X143524000Y-88775000D02*
G75*
G03*
X143524000Y-88775000I-381000J0D01*
G01*
%TO.C,J2*%
X143524000Y-105375000D02*
G75*
G03*
X143524000Y-105375000I-381000J0D01*
G01*
%TD*%
M02*
