(footprint "SOT-25_TOR" (version 20211014) (generator pcbnew)
  (layer "F.Cu")
  (tags "XC6210B332MR-G ")
  (attr smd)
  (fp_text reference "REF**" (at 0 0 unlocked) (layer F.SilkS)
    (effects (font (size 1 1) (thickness 0.15)))
  )
  (fp_text value SOT-25_TOR (at 0 0 unlocked) (layer F.Fab)
    (effects (font (size 1 1) (thickness 0.15)))
  )
  (fp_text user "${REFERENCE}" (at 0 0 unlocked) (layer F.Fab)
    (effects (font (size 1 1) (thickness 0.15)))
  )
  (fp_text user "*" (at -1.64465 -2.5248) (layer F.SilkS)
    (effects (font (size 1 1) (thickness 0.15)))
  )
  (fp_text user "*" (at -0.5715 -1.4326) (layer F.Fab)
    (effects (font (size 1 1) (thickness 0.15)))
  )
  (fp_line (start -0.8255 -0.7341) (end -0.8255 -1.1659) (layer "F.Fab") (width 0.0254))
  (fp_line (start -0.8255 -1.1659) (end -1.397 -1.1659) (layer "F.Fab") (width 0.0254))
  (fp_line (start -1.397 -1.1659) (end -1.397 -0.7341) (layer "F.Fab") (width 0.0254))
  (fp_line (start -1.397 -0.7341) (end -0.8255 -0.7341) (layer "F.Fab") (width 0.0254))
  (fp_line (start -0.8255 0.2159) (end -0.8255 -0.2159) (layer "F.Fab") (width 0.0254))
  (fp_line (start -0.8255 -0.2159) (end -1.397 -0.2159) (layer "F.Fab") (width 0.0254))
  (fp_line (start -1.397 -0.2159) (end -1.397 0.2159) (layer "F.Fab") (width 0.0254))
  (fp_line (start -1.397 0.2159) (end -0.8255 0.2159) (layer "F.Fab") (width 0.0254))
  (fp_line (start -0.8255 1.1659) (end -0.8255 0.7341) (layer "F.Fab") (width 0.0254))
  (fp_line (start -0.8255 0.7341) (end -1.397 0.7341) (layer "F.Fab") (width 0.0254))
  (fp_line (start -1.397 0.7341) (end -1.397 1.1659) (layer "F.Fab") (width 0.0254))
  (fp_line (start -1.397 1.1659) (end -0.8255 1.1659) (layer "F.Fab") (width 0.0254))
  (fp_line (start 0.8255 0.7341) (end 0.8255 1.1659) (layer "F.Fab") (width 0.0254))
  (fp_line (start 0.8255 1.1659) (end 1.397 1.1659) (layer "F.Fab") (width 0.0254))
  (fp_line (start 1.397 1.1659) (end 1.397 0.7341) (layer "F.Fab") (width 0.0254))
  (fp_line (start 1.397 0.7341) (end 0.8255 0.7341) (layer "F.Fab") (width 0.0254))
  (fp_line (start 0.8255 -1.1659) (end 0.8255 -0.7341) (layer "F.Fab") (width 0.0254))
  (fp_line (start 0.8255 -0.7341) (end 1.397 -0.7341) (layer "F.Fab") (width 0.0254))
  (fp_line (start 1.397 -0.7341) (end 1.397 -1.1659) (layer "F.Fab") (width 0.0254))
  (fp_line (start 1.397 -1.1659) (end 0.8255 -1.1659) (layer "F.Fab") (width 0.0254))
  (fp_line (start -1.4605 2.0828) (end -1.4605 1.3818) (layer "F.CrtYd") (width 0.1524))
  (fp_line (start -1.4605 1.3818) (end -2.2479 1.3818) (layer "F.CrtYd") (width 0.1524))
  (fp_line (start -2.2479 1.3818) (end -2.2479 -1.3818) (layer "F.CrtYd") (width 0.1524))
  (fp_line (start -2.2479 -1.3818) (end -1.4605 -1.3818) (layer "F.CrtYd") (width 0.1524))
  (fp_line (start -1.4605 -1.3818) (end -1.4605 -2.0828) (layer "F.CrtYd") (width 0.1524))
  (fp_line (start -1.4605 -2.0828) (end 1.4605 -2.0828) (layer "F.CrtYd") (width 0.1524))
  (fp_line (start 1.4605 -2.0828) (end 1.4605 -1.3818) (layer "F.CrtYd") (width 0.1524))
  (fp_line (start 1.4605 -1.3818) (end 2.2479 -1.3818) (layer "F.CrtYd") (width 0.1524))
  (fp_line (start 2.2479 -1.3818) (end 2.2479 1.3818) (layer "F.CrtYd") (width 0.1524))
  (fp_line (start 2.2479 1.3818) (end 1.4605 1.3818) (layer "F.CrtYd") (width 0.1524))
  (fp_line (start 1.4605 1.3818) (end 1.4605 2.0828) (layer "F.CrtYd") (width 0.1524))
  (fp_line (start 1.4605 2.0828) (end -1.4605 2.0828) (layer "F.CrtYd") (width 0.1524))
  (fp_text user "*" (at -0.5715 -1.4326 unlocked) (layer "F.Fab")
    (effects (font (size 1 1) (thickness 0.15)))
  )
  (fp_text user "*" (at -1.64465 -2.5248 unlocked) (layer "F.SilkS")
    (effects (font (size 1 1) (thickness 0.15)))
  )
  (fp_line (start -0.9525 1.5748) (end 0.9525 1.5748) (layer "F.SilkS") (width 0.1524))
  (fp_line (start 0.9525 0.401361) (end 0.9525 -0.401361) (layer "F.SilkS") (width 0.1524))
  (fp_line (start 0.9525 -1.5748) (end -0.9525 -1.5748) (layer "F.SilkS") (width 0.1524))
  (fp_line (start -0.8255 1.4478) (end 0.8255 1.4478) (layer "F.Fab") (width 0.0254))
  (fp_line (start 0.8255 1.4478) (end 0.8255 -1.4478) (layer "F.Fab") (width 0.0254))
  (fp_line (start 0.8255 -1.4478) (end -0.8255 -1.4478) (layer "F.Fab") (width 0.0254))
  (fp_line (start -0.8255 -1.4478) (end -0.8255 1.4478) (layer "F.Fab") (width 0.0254))
  (fp_arc (start 0.3048 -1.4478) (mid 0 -1.143) (end -0.3048 -1.4478) (layer "F.Fab") (width 0.0254))
  (pad "1" smd rect (at -1.39065 -0.950001) (size 1.1303 0.4318) (layers "F.Cu" "F.Paste" "F.Mask"))
  (pad "2" smd rect (at -1.39065 0) (size 1.1303 0.4318) (layers "F.Cu" "F.Paste" "F.Mask"))
  (pad "3" smd rect (at -1.39065 0.950001) (size 1.1303 0.4318) (layers "F.Cu" "F.Paste" "F.Mask"))
  (pad "4" smd rect (at 1.39065 0.950001) (size 1.1303 0.4318) (layers "F.Cu" "F.Paste" "F.Mask"))
  (pad "5" smd rect (at 1.39065 -0.950001) (size 1.1303 0.4318) (layers "F.Cu" "F.Paste" "F.Mask"))
)
