(kicad_sch (version 20230121) (generator eeschema)

  (uuid 39bbb39f-e401-4db3-9deb-2e381b11ccaf)

  (paper "A4")

  (lib_symbols
    (symbol "Battery Manager:BQ27210DRKR" (pin_names (offset 0.254)) (in_bom yes) (on_board yes)
      (property "Reference" "U" (at 27.94 10.16 0)
        (effects (font (size 1.524 1.524)))
      )
      (property "Value" "BQ27210DRKR" (at 27.94 7.62 0)
        (effects (font (size 1.524 1.524)))
      )
      (property "Footprint" "DRK10_2P05X2P65" (at 0 0 0)
        (effects (font (size 1.27 1.27) italic) hide)
      )
      (property "Datasheet" "BQ27210DRKR" (at 0 0 0)
        (effects (font (size 1.27 1.27) italic) hide)
      )
      (property "ki_locked" "" (at 0 0 0)
        (effects (font (size 1.27 1.27)))
      )
      (property "ki_keywords" "BQ27210DRKR" (at 0 0 0)
        (effects (font (size 1.27 1.27)) hide)
      )
      (property "ki_fp_filters" "DRK10_2P05X2P65" (at 0 0 0)
        (effects (font (size 1.27 1.27)) hide)
      )
      (symbol "BQ27210DRKR_0_1"
        (polyline
          (pts
            (xy 7.62 -17.78)
            (xy 48.26 -17.78)
          )
          (stroke (width 0.127) (type default))
          (fill (type none))
        )
        (polyline
          (pts
            (xy 7.62 5.08)
            (xy 7.62 -17.78)
          )
          (stroke (width 0.127) (type default))
          (fill (type none))
        )
        (polyline
          (pts
            (xy 48.26 -17.78)
            (xy 48.26 5.08)
          )
          (stroke (width 0.127) (type default))
          (fill (type none))
        )
        (polyline
          (pts
            (xy 48.26 5.08)
            (xy 7.62 5.08)
          )
          (stroke (width 0.127) (type default))
          (fill (type none))
        )
        (pin input line (at 0 0 0) (length 7.62)
          (name "RBI" (effects (font (size 1.27 1.27))))
          (number "1" (effects (font (size 1.27 1.27))))
        )
        (pin input line (at 55.88 -2.54 180) (length 7.62)
          (name "PGM" (effects (font (size 1.27 1.27))))
          (number "10" (effects (font (size 1.27 1.27))))
        )
        (pin power_in line (at 55.88 0 180) (length 7.62)
          (name "EPAD" (effects (font (size 1.27 1.27))))
          (number "11" (effects (font (size 1.27 1.27))))
        )
        (pin power_in line (at 0 -2.54 0) (length 7.62)
          (name "VCC" (effects (font (size 1.27 1.27))))
          (number "2" (effects (font (size 1.27 1.27))))
        )
        (pin power_in line (at 0 -5.08 0) (length 7.62)
          (name "VSS" (effects (font (size 1.27 1.27))))
          (number "3" (effects (font (size 1.27 1.27))))
        )
        (pin input line (at 0 -7.62 0) (length 7.62)
          (name "SCL" (effects (font (size 1.27 1.27))))
          (number "4" (effects (font (size 1.27 1.27))))
        )
        (pin bidirectional line (at 0 -10.16 0) (length 7.62)
          (name "SDA" (effects (font (size 1.27 1.27))))
          (number "5" (effects (font (size 1.27 1.27))))
        )
        (pin input line (at 55.88 -12.7 180) (length 7.62)
          (name "BAT" (effects (font (size 1.27 1.27))))
          (number "6" (effects (font (size 1.27 1.27))))
        )
        (pin input line (at 55.88 -10.16 180) (length 7.62)
          (name "SRN" (effects (font (size 1.27 1.27))))
          (number "7" (effects (font (size 1.27 1.27))))
        )
        (pin input line (at 55.88 -7.62 180) (length 7.62)
          (name "SRP" (effects (font (size 1.27 1.27))))
          (number "8" (effects (font (size 1.27 1.27))))
        )
        (pin bidirectional line (at 55.88 -5.08 180) (length 7.62)
          (name "GPIO" (effects (font (size 1.27 1.27))))
          (number "9" (effects (font (size 1.27 1.27))))
        )
      )
    )
    (symbol "Connector_Generic:Conn_01x01" (pin_names (offset 1.016) hide) (in_bom yes) (on_board yes)
      (property "Reference" "J" (at 0 2.54 0)
        (effects (font (size 1.27 1.27)))
      )
      (property "Value" "Conn_01x01" (at 0 -2.54 0)
        (effects (font (size 1.27 1.27)))
      )
      (property "Footprint" "" (at 0 0 0)
        (effects (font (size 1.27 1.27)) hide)
      )
      (property "Datasheet" "~" (at 0 0 0)
        (effects (font (size 1.27 1.27)) hide)
      )
      (property "ki_keywords" "connector" (at 0 0 0)
        (effects (font (size 1.27 1.27)) hide)
      )
      (property "ki_description" "Generic connector, single row, 01x01, script generated (kicad-library-utils/schlib/autogen/connector/)" (at 0 0 0)
        (effects (font (size 1.27 1.27)) hide)
      )
      (property "ki_fp_filters" "Connector*:*_1x??_*" (at 0 0 0)
        (effects (font (size 1.27 1.27)) hide)
      )
      (symbol "Conn_01x01_1_1"
        (rectangle (start -1.27 0.127) (end 0 -0.127)
          (stroke (width 0.1524) (type default))
          (fill (type none))
        )
        (rectangle (start -1.27 1.27) (end 1.27 -1.27)
          (stroke (width 0.254) (type default))
          (fill (type background))
        )
        (pin passive line (at -5.08 0 0) (length 3.81)
          (name "Pin_1" (effects (font (size 1.27 1.27))))
          (number "1" (effects (font (size 1.27 1.27))))
        )
      )
    )
    (symbol "Connector_Generic:Conn_01x02" (pin_names (offset 1.016) hide) (in_bom yes) (on_board yes)
      (property "Reference" "J" (at 0 2.54 0)
        (effects (font (size 1.27 1.27)))
      )
      (property "Value" "Conn_01x02" (at 0 -5.08 0)
        (effects (font (size 1.27 1.27)))
      )
      (property "Footprint" "" (at 0 0 0)
        (effects (font (size 1.27 1.27)) hide)
      )
      (property "Datasheet" "~" (at 0 0 0)
        (effects (font (size 1.27 1.27)) hide)
      )
      (property "ki_keywords" "connector" (at 0 0 0)
        (effects (font (size 1.27 1.27)) hide)
      )
      (property "ki_description" "Generic connector, single row, 01x02, script generated (kicad-library-utils/schlib/autogen/connector/)" (at 0 0 0)
        (effects (font (size 1.27 1.27)) hide)
      )
      (property "ki_fp_filters" "Connector*:*_1x??_*" (at 0 0 0)
        (effects (font (size 1.27 1.27)) hide)
      )
      (symbol "Conn_01x02_1_1"
        (rectangle (start -1.27 -2.413) (end 0 -2.667)
          (stroke (width 0.1524) (type default))
          (fill (type none))
        )
        (rectangle (start -1.27 0.127) (end 0 -0.127)
          (stroke (width 0.1524) (type default))
          (fill (type none))
        )
        (rectangle (start -1.27 1.27) (end 1.27 -3.81)
          (stroke (width 0.254) (type default))
          (fill (type background))
        )
        (pin passive line (at -5.08 0 0) (length 3.81)
          (name "Pin_1" (effects (font (size 1.27 1.27))))
          (number "1" (effects (font (size 1.27 1.27))))
        )
        (pin passive line (at -5.08 -2.54 0) (length 3.81)
          (name "Pin_2" (effects (font (size 1.27 1.27))))
          (number "2" (effects (font (size 1.27 1.27))))
        )
      )
    )
    (symbol "Device:C_Polarized_Small_US" (pin_numbers hide) (pin_names (offset 0.254) hide) (in_bom yes) (on_board yes)
      (property "Reference" "C" (at 0.254 1.778 0)
        (effects (font (size 1.27 1.27)) (justify left))
      )
      (property "Value" "C_Polarized_Small_US" (at 0.254 -2.032 0)
        (effects (font (size 1.27 1.27)) (justify left))
      )
      (property "Footprint" "" (at 0 0 0)
        (effects (font (size 1.27 1.27)) hide)
      )
      (property "Datasheet" "~" (at 0 0 0)
        (effects (font (size 1.27 1.27)) hide)
      )
      (property "ki_keywords" "cap capacitor" (at 0 0 0)
        (effects (font (size 1.27 1.27)) hide)
      )
      (property "ki_description" "Polarized capacitor, small US symbol" (at 0 0 0)
        (effects (font (size 1.27 1.27)) hide)
      )
      (property "ki_fp_filters" "CP_*" (at 0 0 0)
        (effects (font (size 1.27 1.27)) hide)
      )
      (symbol "C_Polarized_Small_US_0_1"
        (polyline
          (pts
            (xy -1.524 0.508)
            (xy 1.524 0.508)
          )
          (stroke (width 0.3048) (type default))
          (fill (type none))
        )
        (polyline
          (pts
            (xy -1.27 1.524)
            (xy -0.762 1.524)
          )
          (stroke (width 0) (type default))
          (fill (type none))
        )
        (polyline
          (pts
            (xy -1.016 1.27)
            (xy -1.016 1.778)
          )
          (stroke (width 0) (type default))
          (fill (type none))
        )
        (arc (start 1.524 -0.762) (mid 0 -0.3734) (end -1.524 -0.762)
          (stroke (width 0.3048) (type default))
          (fill (type none))
        )
      )
      (symbol "C_Polarized_Small_US_1_1"
        (pin passive line (at 0 2.54 270) (length 2.032)
          (name "~" (effects (font (size 1.27 1.27))))
          (number "1" (effects (font (size 1.27 1.27))))
        )
        (pin passive line (at 0 -2.54 90) (length 2.032)
          (name "~" (effects (font (size 1.27 1.27))))
          (number "2" (effects (font (size 1.27 1.27))))
        )
      )
    )
    (symbol "Device:R" (pin_numbers hide) (pin_names (offset 0)) (in_bom yes) (on_board yes)
      (property "Reference" "R" (at 2.032 0 90)
        (effects (font (size 1.27 1.27)))
      )
      (property "Value" "R" (at 0 0 90)
        (effects (font (size 1.27 1.27)))
      )
      (property "Footprint" "" (at -1.778 0 90)
        (effects (font (size 1.27 1.27)) hide)
      )
      (property "Datasheet" "~" (at 0 0 0)
        (effects (font (size 1.27 1.27)) hide)
      )
      (property "ki_keywords" "R res resistor" (at 0 0 0)
        (effects (font (size 1.27 1.27)) hide)
      )
      (property "ki_description" "Resistor" (at 0 0 0)
        (effects (font (size 1.27 1.27)) hide)
      )
      (property "ki_fp_filters" "R_*" (at 0 0 0)
        (effects (font (size 1.27 1.27)) hide)
      )
      (symbol "R_0_1"
        (rectangle (start -1.016 -2.54) (end 1.016 2.54)
          (stroke (width 0.254) (type default))
          (fill (type none))
        )
      )
      (symbol "R_1_1"
        (pin passive line (at 0 3.81 270) (length 1.27)
          (name "~" (effects (font (size 1.27 1.27))))
          (number "1" (effects (font (size 1.27 1.27))))
        )
        (pin passive line (at 0 -3.81 90) (length 1.27)
          (name "~" (effects (font (size 1.27 1.27))))
          (number "2" (effects (font (size 1.27 1.27))))
        )
      )
    )
    (symbol "power:GND" (power) (pin_names (offset 0)) (in_bom yes) (on_board yes)
      (property "Reference" "#PWR" (at 0 -6.35 0)
        (effects (font (size 1.27 1.27)) hide)
      )
      (property "Value" "GND" (at 0 -3.81 0)
        (effects (font (size 1.27 1.27)))
      )
      (property "Footprint" "" (at 0 0 0)
        (effects (font (size 1.27 1.27)) hide)
      )
      (property "Datasheet" "" (at 0 0 0)
        (effects (font (size 1.27 1.27)) hide)
      )
      (property "ki_keywords" "global power" (at 0 0 0)
        (effects (font (size 1.27 1.27)) hide)
      )
      (property "ki_description" "Power symbol creates a global label with name \"GND\" , ground" (at 0 0 0)
        (effects (font (size 1.27 1.27)) hide)
      )
      (symbol "GND_0_1"
        (polyline
          (pts
            (xy 0 0)
            (xy 0 -1.27)
            (xy 1.27 -1.27)
            (xy 0 -2.54)
            (xy -1.27 -1.27)
            (xy 0 -1.27)
          )
          (stroke (width 0) (type default))
          (fill (type none))
        )
      )
      (symbol "GND_1_1"
        (pin power_in line (at 0 0 270) (length 0) hide
          (name "GND" (effects (font (size 1.27 1.27))))
          (number "1" (effects (font (size 1.27 1.27))))
        )
      )
    )
  )

  (junction (at 198.12 97.79) (diameter 0) (color 0 0 0 0)
    (uuid 569b7976-7c60-4725-a27f-3d14c2f33098)
  )
  (junction (at 90.17 92.71) (diameter 0) (color 0 0 0 0)
    (uuid 63223085-3e2f-4582-96f2-9c3ad83d8d2c)
  )
  (junction (at 176.53 97.79) (diameter 0) (color 0 0 0 0)
    (uuid 68861dfc-92b6-4ac5-aac8-67a74710e228)
  )
  (junction (at 151.13 102.87) (diameter 0) (color 0 0 0 0)
    (uuid 6bb85fd4-cf6c-42d6-8fb6-bac7d5f4e34c)
  )
  (junction (at 153.67 76.2) (diameter 0) (color 0 0 0 0)
    (uuid 7a9f6e5b-de26-45da-9bd1-c36aef3fcfb6)
  )
  (junction (at 198.12 107.95) (diameter 0) (color 0 0 0 0)
    (uuid c782f793-1919-4bd2-8d69-3b0c325262d8)
  )
  (junction (at 161.29 111.76) (diameter 0) (color 0 0 0 0)
    (uuid f4d7da6e-2048-4822-a181-582a2307ea57)
  )

  (no_connect (at 151.13 90.17) (uuid 3f9ec1bd-d0b0-412a-bcba-22407bd69dd8))

  (wire (pts (xy 198.12 76.2) (xy 198.12 97.79))
    (stroke (width 0) (type default))
    (uuid 01663396-1d62-4137-bc0f-ac193d2492b9)
  )
  (wire (pts (xy 95.25 102.87) (xy 99.06 102.87))
    (stroke (width 0) (type default))
    (uuid 09bd4514-192f-463b-858d-bdc76d8795f6)
  )
  (wire (pts (xy 198.12 111.76) (xy 193.04 111.76))
    (stroke (width 0) (type default))
    (uuid 0fd824e0-4ede-474a-8b81-c4d997c2ce7e)
  )
  (wire (pts (xy 91.44 110.49) (xy 91.44 107.95))
    (stroke (width 0) (type default))
    (uuid 14080826-a248-4ab6-a55d-a259a1d43d8d)
  )
  (wire (pts (xy 99.06 102.87) (xy 99.06 110.49))
    (stroke (width 0) (type default))
    (uuid 1935966d-1a04-4f2e-910d-d8ae4870830c)
  )
  (wire (pts (xy 193.04 97.79) (xy 198.12 97.79))
    (stroke (width 0) (type default))
    (uuid 3dbadfce-ec20-4fc6-afc7-fbfbbcc12dc2)
  )
  (wire (pts (xy 95.25 97.79) (xy 91.44 97.79))
    (stroke (width 0) (type default))
    (uuid 41f8aff4-787f-42a4-8a17-ae4742b6da90)
  )
  (wire (pts (xy 161.29 100.33) (xy 151.13 100.33))
    (stroke (width 0) (type default))
    (uuid 4daf0e60-b11d-4ed1-8bb5-1ba3871f2728)
  )
  (wire (pts (xy 198.12 107.95) (xy 198.12 111.76))
    (stroke (width 0) (type default))
    (uuid 539e0035-a0a5-41e1-93e3-523bbd101af4)
  )
  (wire (pts (xy 176.53 97.79) (xy 185.42 97.79))
    (stroke (width 0) (type default))
    (uuid 59ca25d5-4377-486c-97ff-46a0e0da68d5)
  )
  (wire (pts (xy 151.13 102.87) (xy 151.13 111.76))
    (stroke (width 0) (type default))
    (uuid 6d0c3c6f-f2dd-496a-9173-6e0962a8c9b0)
  )
  (wire (pts (xy 153.67 76.2) (xy 153.67 77.47))
    (stroke (width 0) (type default))
    (uuid 76448a10-65cf-4d2b-9210-87b3b8dd9d8d)
  )
  (wire (pts (xy 113.03 76.2) (xy 153.67 76.2))
    (stroke (width 0) (type default))
    (uuid 7d3ad64f-16d1-4cba-b0f7-947ae80f1347)
  )
  (wire (pts (xy 153.67 76.2) (xy 198.12 76.2))
    (stroke (width 0) (type default))
    (uuid 7e9d0de2-6aa1-4196-86d8-0c4ea2c305d7)
  )
  (wire (pts (xy 151.13 102.87) (xy 153.67 102.87))
    (stroke (width 0) (type default))
    (uuid 84eb4a87-a129-4894-b246-d91edbf7f0c6)
  )
  (wire (pts (xy 151.13 91.44) (xy 151.13 92.71))
    (stroke (width 0) (type default))
    (uuid 928aeafb-1714-4eaf-b562-1f2a314187b0)
  )
  (wire (pts (xy 153.67 102.87) (xy 153.67 85.09))
    (stroke (width 0) (type default))
    (uuid 9802ecb2-c9c3-4681-8c2c-8a2382d20d48)
  )
  (wire (pts (xy 90.17 76.2) (xy 105.41 76.2))
    (stroke (width 0) (type default))
    (uuid 9ec69bb4-e3b5-460a-84ab-ec795f2cb7d4)
  )
  (wire (pts (xy 95.25 92.71) (xy 90.17 92.71))
    (stroke (width 0) (type default))
    (uuid a52bf24a-b8e0-4206-b840-981efd6c265a)
  )
  (wire (pts (xy 185.42 111.76) (xy 161.29 111.76))
    (stroke (width 0) (type default))
    (uuid a550fcc7-305a-4cd2-bbc6-d27ffddeadad)
  )
  (wire (pts (xy 95.25 100.33) (xy 95.25 102.87))
    (stroke (width 0) (type default))
    (uuid a8883587-2330-4138-a346-5ee9ff10dc3b)
  )
  (wire (pts (xy 151.13 97.79) (xy 176.53 97.79))
    (stroke (width 0) (type default))
    (uuid ab2cb33a-f063-47a0-92fd-c911097c379f)
  )
  (wire (pts (xy 152.4 95.25) (xy 151.13 95.25))
    (stroke (width 0) (type default))
    (uuid acbd65e4-bf0a-4cf0-a142-2746199eb08d)
  )
  (wire (pts (xy 99.06 110.49) (xy 91.44 110.49))
    (stroke (width 0) (type default))
    (uuid b05af031-f349-4169-91f5-a26d32b2b129)
  )
  (wire (pts (xy 90.17 76.2) (xy 90.17 92.71))
    (stroke (width 0) (type default))
    (uuid b19a9e29-f3cb-4877-b042-1ab50ae07f5e)
  )
  (wire (pts (xy 152.4 91.44) (xy 151.13 91.44))
    (stroke (width 0) (type default))
    (uuid b7196613-1457-4984-a8a4-c21ed5513d0f)
  )
  (wire (pts (xy 161.29 111.76) (xy 161.29 100.33))
    (stroke (width 0) (type default))
    (uuid c00dddad-890e-41e0-801a-e991485b3ab8)
  )
  (wire (pts (xy 91.44 97.79) (xy 91.44 105.41))
    (stroke (width 0) (type default))
    (uuid c1fa4242-c835-4918-aeaf-a003fbab6208)
  )
  (wire (pts (xy 198.12 106.68) (xy 198.12 107.95))
    (stroke (width 0) (type default))
    (uuid ed2e6ab9-2178-4dfb-9bab-42425e63d78e)
  )
  (wire (pts (xy 90.17 97.79) (xy 88.9 97.79))
    (stroke (width 0) (type default))
    (uuid f5174705-5f92-489e-8ec7-21f9311bd8d7)
  )
  (wire (pts (xy 198.12 97.79) (xy 198.12 100.33))
    (stroke (width 0) (type default))
    (uuid f9a88859-5ee9-4324-8c65-b4d9a9b6690a)
  )

  (hierarchical_label "SDA" (shape input) (at 91.44 107.95 180) (fields_autoplaced)
    (effects (font (size 1.27 1.27)) (justify right))
    (uuid 27c318d7-bccc-481e-8c9f-29abb2945482)
  )
  (hierarchical_label "PACK+" (shape input) (at 198.12 76.2 0) (fields_autoplaced)
    (effects (font (size 1.27 1.27)) (justify left))
    (uuid 2b7f192f-fdfa-4926-bf7a-87bda9116c3a)
  )
  (hierarchical_label "SCL" (shape input) (at 91.44 105.41 180) (fields_autoplaced)
    (effects (font (size 1.27 1.27)) (justify right))
    (uuid 357f2c98-8c9d-4f33-83d4-f7adcfa7f4c7)
  )
  (hierarchical_label "PACK-" (shape input) (at 198.12 90.17 0) (fields_autoplaced)
    (effects (font (size 1.27 1.27)) (justify left))
    (uuid e30583c5-d97d-4e20-8a4f-e5ddca2f5766)
  )

  (symbol (lib_id "Device:R") (at 189.23 111.76 90) (unit 1)
    (in_bom yes) (on_board yes) (dnp no)
    (uuid 0ecd876a-2f5b-49f5-a978-e6da7d5771bd)
    (property "Reference" "R4" (at 189.23 107.95 90)
      (effects (font (size 1.27 1.27)))
    )
    (property "Value" "1k" (at 189.23 109.22 90)
      (effects (font (size 1.27 1.27)))
    )
    (property "Footprint" "Resistor_SMD:R_0805_2012Metric_Pad1.20x1.40mm_HandSolder" (at 189.23 113.538 90)
      (effects (font (size 1.27 1.27)) hide)
    )
    (property "Datasheet" "~" (at 189.23 111.76 0)
      (effects (font (size 1.27 1.27)) hide)
    )
    (pin "1" (uuid 79aa78d4-c54f-4b36-86e5-e9b8b37bb701))
    (pin "2" (uuid fe507c75-f186-411f-b356-03256e10e51b))
    (instances
      (project "power_pcb"
        (path "/6c7a9a4c-8b33-4232-ae64-31a131fa04bd"
          (reference "R4") (unit 1)
        )
        (path "/6c7a9a4c-8b33-4232-ae64-31a131fa04bd/2faeaba3-adc6-4aa3-9b14-cc439410774f"
          (reference "R9") (unit 1)
        )
      )
      (project "ece445-pcb"
        (path "/a1dcf03e-1354-4f68-9535-41ec60b25918"
          (reference "R7") (unit 1)
        )
        (path "/a1dcf03e-1354-4f68-9535-41ec60b25918/235a24a3-219c-4c03-9ab4-2064abe9e3a8"
          (reference "R7") (unit 1)
        )
      )
    )
  )

  (symbol (lib_id "power:GND") (at 176.53 102.87 0) (unit 1)
    (in_bom yes) (on_board yes) (dnp no) (fields_autoplaced)
    (uuid 1374e89f-234f-4a76-8b20-78adb6ffcc60)
    (property "Reference" "#PWR016" (at 176.53 109.22 0)
      (effects (font (size 1.27 1.27)) hide)
    )
    (property "Value" "GND" (at 176.53 107.95 0)
      (effects (font (size 1.27 1.27)))
    )
    (property "Footprint" "" (at 176.53 102.87 0)
      (effects (font (size 1.27 1.27)) hide)
    )
    (property "Datasheet" "" (at 176.53 102.87 0)
      (effects (font (size 1.27 1.27)) hide)
    )
    (pin "1" (uuid ae5fca3a-9938-44e6-98cd-c37c9b3f6468))
    (instances
      (project "power_pcb"
        (path "/6c7a9a4c-8b33-4232-ae64-31a131fa04bd/2faeaba3-adc6-4aa3-9b14-cc439410774f"
          (reference "#PWR016") (unit 1)
        )
      )
    )
  )

  (symbol (lib_id "Device:C_Polarized_Small_US") (at 151.13 114.3 0) (unit 1)
    (in_bom yes) (on_board yes) (dnp no) (fields_autoplaced)
    (uuid 1792820f-1209-441a-b15b-9c64eb95e861)
    (property "Reference" "C10" (at 153.67 112.5982 0)
      (effects (font (size 1.27 1.27)) (justify left))
    )
    (property "Value" "0.1uF" (at 153.67 115.1382 0)
      (effects (font (size 1.27 1.27)) (justify left))
    )
    (property "Footprint" "Capacitor_SMD:C_0805_2012Metric_Pad1.18x1.45mm_HandSolder" (at 151.13 114.3 0)
      (effects (font (size 1.27 1.27)) hide)
    )
    (property "Datasheet" "~" (at 151.13 114.3 0)
      (effects (font (size 1.27 1.27)) hide)
    )
    (pin "1" (uuid c3175ffe-6fc5-4dcb-a2c3-48d3c27d8947))
    (pin "2" (uuid aff54b02-9241-4dcf-93be-60b3c303d4e4))
    (instances
      (project "power_pcb"
        (path "/6c7a9a4c-8b33-4232-ae64-31a131fa04bd"
          (reference "C10") (unit 1)
        )
        (path "/6c7a9a4c-8b33-4232-ae64-31a131fa04bd/2faeaba3-adc6-4aa3-9b14-cc439410774f"
          (reference "C13") (unit 1)
        )
      )
      (project "ece445-pcb"
        (path "/a1dcf03e-1354-4f68-9535-41ec60b25918"
          (reference "C11") (unit 1)
        )
        (path "/a1dcf03e-1354-4f68-9535-41ec60b25918/235a24a3-219c-4c03-9ab4-2064abe9e3a8"
          (reference "C11") (unit 1)
        )
      )
    )
  )

  (symbol (lib_id "Device:C_Polarized_Small_US") (at 95.25 87.63 180) (unit 1)
    (in_bom yes) (on_board yes) (dnp no) (fields_autoplaced)
    (uuid 18597a63-98df-4bf0-a962-e59203ed472a)
    (property "Reference" "C7" (at 97.79 86.7918 0)
      (effects (font (size 1.27 1.27)) (justify right))
    )
    (property "Value" "0.1uF" (at 97.79 89.3318 0)
      (effects (font (size 1.27 1.27)) (justify right))
    )
    (property "Footprint" "Capacitor_SMD:C_0805_2012Metric_Pad1.18x1.45mm_HandSolder" (at 95.25 87.63 0)
      (effects (font (size 1.27 1.27)) hide)
    )
    (property "Datasheet" "~" (at 95.25 87.63 0)
      (effects (font (size 1.27 1.27)) hide)
    )
    (pin "1" (uuid 9379557b-d433-428f-9d23-b014ca4b7d73))
    (pin "2" (uuid 649f354d-e07c-41b2-813f-80c65c6c9ecd))
    (instances
      (project "power_pcb"
        (path "/6c7a9a4c-8b33-4232-ae64-31a131fa04bd"
          (reference "C7") (unit 1)
        )
        (path "/6c7a9a4c-8b33-4232-ae64-31a131fa04bd/2faeaba3-adc6-4aa3-9b14-cc439410774f"
          (reference "C12") (unit 1)
        )
      )
      (project "ece445-pcb"
        (path "/a1dcf03e-1354-4f68-9535-41ec60b25918"
          (reference "C8") (unit 1)
        )
        (path "/a1dcf03e-1354-4f68-9535-41ec60b25918/235a24a3-219c-4c03-9ab4-2064abe9e3a8"
          (reference "C8") (unit 1)
        )
      )
    )
  )

  (symbol (lib_id "power:GND") (at 161.29 116.84 0) (unit 1)
    (in_bom yes) (on_board yes) (dnp no) (fields_autoplaced)
    (uuid 245bee07-a6df-473c-b9ba-b4957f020f3d)
    (property "Reference" "#PWR020" (at 161.29 123.19 0)
      (effects (font (size 1.27 1.27)) hide)
    )
    (property "Value" "GND" (at 161.29 121.92 0)
      (effects (font (size 1.27 1.27)))
    )
    (property "Footprint" "" (at 161.29 116.84 0)
      (effects (font (size 1.27 1.27)) hide)
    )
    (property "Datasheet" "" (at 161.29 116.84 0)
      (effects (font (size 1.27 1.27)) hide)
    )
    (pin "1" (uuid 7cb6febc-2f37-48b9-8203-5a183ab98cee))
    (instances
      (project "power_pcb"
        (path "/6c7a9a4c-8b33-4232-ae64-31a131fa04bd/2faeaba3-adc6-4aa3-9b14-cc439410774f"
          (reference "#PWR020") (unit 1)
        )
      )
    )
  )

  (symbol (lib_id "Device:R") (at 153.67 81.28 180) (unit 1)
    (in_bom yes) (on_board yes) (dnp no)
    (uuid 42571db7-94f9-4151-b629-957222b0cbf7)
    (property "Reference" "R5" (at 148.59 81.28 90)
      (effects (font (size 1.27 1.27)))
    )
    (property "Value" "10k" (at 151.13 81.28 90)
      (effects (font (size 1.27 1.27)))
    )
    (property "Footprint" "Resistor_SMD:R_0805_2012Metric_Pad1.20x1.40mm_HandSolder" (at 155.448 81.28 90)
      (effects (font (size 1.27 1.27)) hide)
    )
    (property "Datasheet" "~" (at 153.67 81.28 0)
      (effects (font (size 1.27 1.27)) hide)
    )
    (pin "1" (uuid 4a2941d9-e164-460b-b789-b979f4381142))
    (pin "2" (uuid 1268c6e7-d1e6-471a-87e2-f39f58d386eb))
    (instances
      (project "power_pcb"
        (path "/6c7a9a4c-8b33-4232-ae64-31a131fa04bd"
          (reference "R5") (unit 1)
        )
        (path "/6c7a9a4c-8b33-4232-ae64-31a131fa04bd/2faeaba3-adc6-4aa3-9b14-cc439410774f"
          (reference "R7") (unit 1)
        )
      )
      (project "ece445-pcb"
        (path "/a1dcf03e-1354-4f68-9535-41ec60b25918"
          (reference "R5") (unit 1)
        )
        (path "/a1dcf03e-1354-4f68-9535-41ec60b25918/235a24a3-219c-4c03-9ab4-2064abe9e3a8"
          (reference "R5") (unit 1)
        )
      )
    )
  )

  (symbol (lib_id "Device:C_Polarized_Small_US") (at 161.29 114.3 0) (unit 1)
    (in_bom yes) (on_board yes) (dnp no) (fields_autoplaced)
    (uuid 457108dc-66f4-4ef5-b69e-e823f6a9f640)
    (property "Reference" "C9" (at 163.83 112.5982 0)
      (effects (font (size 1.27 1.27)) (justify left))
    )
    (property "Value" "0.1uF" (at 163.83 115.1382 0)
      (effects (font (size 1.27 1.27)) (justify left))
    )
    (property "Footprint" "Capacitor_SMD:C_0805_2012Metric_Pad1.18x1.45mm_HandSolder" (at 161.29 114.3 0)
      (effects (font (size 1.27 1.27)) hide)
    )
    (property "Datasheet" "~" (at 161.29 114.3 0)
      (effects (font (size 1.27 1.27)) hide)
    )
    (pin "1" (uuid 58c078e2-255d-49d3-bf38-d0001553d05a))
    (pin "2" (uuid e4cfee84-1494-4347-b22b-35d91bc92a79))
    (instances
      (project "power_pcb"
        (path "/6c7a9a4c-8b33-4232-ae64-31a131fa04bd"
          (reference "C9") (unit 1)
        )
        (path "/6c7a9a4c-8b33-4232-ae64-31a131fa04bd/2faeaba3-adc6-4aa3-9b14-cc439410774f"
          (reference "C14") (unit 1)
        )
      )
      (project "ece445-pcb"
        (path "/a1dcf03e-1354-4f68-9535-41ec60b25918"
          (reference "C12") (unit 1)
        )
        (path "/a1dcf03e-1354-4f68-9535-41ec60b25918/235a24a3-219c-4c03-9ab4-2064abe9e3a8"
          (reference "C12") (unit 1)
        )
      )
    )
  )

  (symbol (lib_id "Device:R") (at 198.12 104.14 180) (unit 1)
    (in_bom yes) (on_board yes) (dnp no)
    (uuid 4c49cf56-0da9-4e18-9ea1-0e32e50d44e2)
    (property "Reference" "R3" (at 194.31 104.14 90)
      (effects (font (size 1.27 1.27)))
    )
    (property "Value" "0.02" (at 195.58 104.14 90)
      (effects (font (size 1.27 1.27)))
    )
    (property "Footprint" "Resistor_SMD:R_0805_2012Metric_Pad1.20x1.40mm_HandSolder" (at 199.898 104.14 90)
      (effects (font (size 1.27 1.27)) hide)
    )
    (property "Datasheet" "~" (at 198.12 104.14 0)
      (effects (font (size 1.27 1.27)) hide)
    )
    (pin "1" (uuid 442e6234-2e8c-490e-bcb5-4ead8bb8d29f))
    (pin "2" (uuid ef171069-acc4-407f-bc53-6ca19639076c))
    (instances
      (project "power_pcb"
        (path "/6c7a9a4c-8b33-4232-ae64-31a131fa04bd"
          (reference "R3") (unit 1)
        )
        (path "/6c7a9a4c-8b33-4232-ae64-31a131fa04bd/2faeaba3-adc6-4aa3-9b14-cc439410774f"
          (reference "R10") (unit 1)
        )
      )
      (project "ece445-pcb"
        (path "/a1dcf03e-1354-4f68-9535-41ec60b25918"
          (reference "R8") (unit 1)
        )
        (path "/a1dcf03e-1354-4f68-9535-41ec60b25918/235a24a3-219c-4c03-9ab4-2064abe9e3a8"
          (reference "R8") (unit 1)
        )
      )
    )
  )

  (symbol (lib_id "Device:R") (at 189.23 97.79 90) (unit 1)
    (in_bom yes) (on_board yes) (dnp no)
    (uuid 5884d75f-1799-438f-ac92-719cd08bdc9b)
    (property "Reference" "R2" (at 189.23 93.98 90)
      (effects (font (size 1.27 1.27)))
    )
    (property "Value" "1k" (at 189.23 95.25 90)
      (effects (font (size 1.27 1.27)))
    )
    (property "Footprint" "Resistor_SMD:R_0805_2012Metric_Pad1.20x1.40mm_HandSolder" (at 189.23 99.568 90)
      (effects (font (size 1.27 1.27)) hide)
    )
    (property "Datasheet" "~" (at 189.23 97.79 0)
      (effects (font (size 1.27 1.27)) hide)
    )
    (pin "1" (uuid f16be335-dad1-4d2b-9504-ba8dc54e7bfb))
    (pin "2" (uuid 8e7eb716-c336-4c89-9a3e-a3fa0bf4d5d9))
    (instances
      (project "power_pcb"
        (path "/6c7a9a4c-8b33-4232-ae64-31a131fa04bd"
          (reference "R2") (unit 1)
        )
        (path "/6c7a9a4c-8b33-4232-ae64-31a131fa04bd/2faeaba3-adc6-4aa3-9b14-cc439410774f"
          (reference "R8") (unit 1)
        )
      )
      (project "ece445-pcb"
        (path "/a1dcf03e-1354-4f68-9535-41ec60b25918"
          (reference "R6") (unit 1)
        )
        (path "/a1dcf03e-1354-4f68-9535-41ec60b25918/235a24a3-219c-4c03-9ab4-2064abe9e3a8"
          (reference "R6") (unit 1)
        )
      )
    )
  )

  (symbol (lib_id "Connector_Generic:Conn_01x01") (at 157.48 91.44 0) (unit 1)
    (in_bom yes) (on_board yes) (dnp no)
    (uuid 68df8032-cff8-4491-910d-7ccfbb3f15a9)
    (property "Reference" "PROG1" (at 160.02 90.17 0)
      (effects (font (size 1.27 1.27)) (justify left))
    )
    (property "Value" "Conn_01x01" (at 160.02 92.71 0)
      (effects (font (size 1.27 1.27)) (justify left))
    )
    (property "Footprint" "Connector_PinHeader_2.54mm:PinHeader_1x01_P2.54mm_Vertical" (at 157.48 91.44 0)
      (effects (font (size 1.27 1.27)) hide)
    )
    (property "Datasheet" "~" (at 157.48 91.44 0)
      (effects (font (size 1.27 1.27)) hide)
    )
    (pin "1" (uuid a338aca2-fbef-4bf6-a7be-6ffc5ca7a250))
    (instances
      (project "power_pcb"
        (path "/6c7a9a4c-8b33-4232-ae64-31a131fa04bd"
          (reference "PROG1") (unit 1)
        )
        (path "/6c7a9a4c-8b33-4232-ae64-31a131fa04bd/2faeaba3-adc6-4aa3-9b14-cc439410774f"
          (reference "PROG2") (unit 1)
        )
      )
      (project "ece445-pcb"
        (path "/a1dcf03e-1354-4f68-9535-41ec60b25918"
          (reference "PROG1") (unit 1)
        )
        (path "/a1dcf03e-1354-4f68-9535-41ec60b25918/235a24a3-219c-4c03-9ab4-2064abe9e3a8"
          (reference "PROG1") (unit 1)
        )
      )
    )
  )

  (symbol (lib_id "Battery Manager:BQ27210DRKR") (at 95.25 90.17 0) (unit 1)
    (in_bom yes) (on_board yes) (dnp no)
    (uuid 8da9ba71-4b08-4076-af92-e9e54ee1548e)
    (property "Reference" "U3" (at 123.19 80.01 0)
      (effects (font (size 1.524 1.524)))
    )
    (property "Value" "BQ27210DRKR" (at 123.19 82.55 0)
      (effects (font (size 1.524 1.524)))
    )
    (property "Footprint" "Battery:DRK10_2P05X2P65" (at 95.25 90.17 0)
      (effects (font (size 1.27 1.27) italic) hide)
    )
    (property "Datasheet" "BQ27210DRKR" (at 95.25 90.17 0)
      (effects (font (size 1.27 1.27) italic) hide)
    )
    (pin "1" (uuid 5526be7e-3a95-48fd-95be-a9e3b015b9ae))
    (pin "10" (uuid 630ce815-ad80-47a7-a7eb-9b80ee0d1c79))
    (pin "11" (uuid af326a3e-2b74-46c0-8d36-773aef4e875b))
    (pin "2" (uuid d549f631-4267-449c-a3dd-6cc25203602d))
    (pin "3" (uuid 7085901e-5618-4e1b-b8d8-ff2441b24cc9))
    (pin "4" (uuid 720e8b43-3cf4-4092-85e5-24dd0f1b0eab))
    (pin "5" (uuid faed0c6d-2b38-4401-abb0-7295be147f6c))
    (pin "6" (uuid fd51d0ac-8680-4479-bfa6-c285cc8bd696))
    (pin "7" (uuid 125b82ec-bcbb-431c-a636-54cd839453d0))
    (pin "8" (uuid 9f7284e9-e66e-494c-b575-b24d464c160f))
    (pin "9" (uuid a5a5c4d9-f655-4ce1-ae62-30c5c8f520d7))
    (instances
      (project "power_pcb"
        (path "/6c7a9a4c-8b33-4232-ae64-31a131fa04bd"
          (reference "U3") (unit 1)
        )
        (path "/6c7a9a4c-8b33-4232-ae64-31a131fa04bd/2faeaba3-adc6-4aa3-9b14-cc439410774f"
          (reference "U4") (unit 1)
        )
      )
      (project "ece445-pcb"
        (path "/a1dcf03e-1354-4f68-9535-41ec60b25918"
          (reference "U3") (unit 1)
        )
        (path "/a1dcf03e-1354-4f68-9535-41ec60b25918/235a24a3-219c-4c03-9ab4-2064abe9e3a8"
          (reference "U3") (unit 1)
        )
      )
    )
  )

  (symbol (lib_id "power:GND") (at 88.9 97.79 0) (unit 1)
    (in_bom yes) (on_board yes) (dnp no) (fields_autoplaced)
    (uuid 8db86899-e000-4ad6-8612-e41f04431d56)
    (property "Reference" "#PWR021" (at 88.9 104.14 0)
      (effects (font (size 1.27 1.27)) hide)
    )
    (property "Value" "GND" (at 88.9 102.87 0)
      (effects (font (size 1.27 1.27)))
    )
    (property "Footprint" "" (at 88.9 97.79 0)
      (effects (font (size 1.27 1.27)) hide)
    )
    (property "Datasheet" "" (at 88.9 97.79 0)
      (effects (font (size 1.27 1.27)) hide)
    )
    (pin "1" (uuid 4f672091-c0d9-4582-bc3b-f705c307bb86))
    (instances
      (project "power_pcb"
        (path "/6c7a9a4c-8b33-4232-ae64-31a131fa04bd/2faeaba3-adc6-4aa3-9b14-cc439410774f"
          (reference "#PWR021") (unit 1)
        )
      )
    )
  )

  (symbol (lib_id "Device:C_Polarized_Small_US") (at 176.53 100.33 0) (unit 1)
    (in_bom yes) (on_board yes) (dnp no) (fields_autoplaced)
    (uuid a3ee0fa6-f88c-427d-8814-a207d95eb01f)
    (property "Reference" "C8" (at 179.07 98.6282 0)
      (effects (font (size 1.27 1.27)) (justify left))
    )
    (property "Value" "0.1uF" (at 179.07 101.1682 0)
      (effects (font (size 1.27 1.27)) (justify left))
    )
    (property "Footprint" "Capacitor_SMD:C_0805_2012Metric_Pad1.18x1.45mm_HandSolder" (at 176.53 100.33 0)
      (effects (font (size 1.27 1.27)) hide)
    )
    (property "Datasheet" "~" (at 176.53 100.33 0)
      (effects (font (size 1.27 1.27)) hide)
    )
    (pin "1" (uuid e0353814-062a-4799-8ab0-64642b4123ee))
    (pin "2" (uuid 4006e434-b081-4b3b-b57e-6a99db46f94e))
    (instances
      (project "power_pcb"
        (path "/6c7a9a4c-8b33-4232-ae64-31a131fa04bd"
          (reference "C8") (unit 1)
        )
        (path "/6c7a9a4c-8b33-4232-ae64-31a131fa04bd/2faeaba3-adc6-4aa3-9b14-cc439410774f"
          (reference "C15") (unit 1)
        )
      )
      (project "ece445-pcb"
        (path "/a1dcf03e-1354-4f68-9535-41ec60b25918"
          (reference "C13") (unit 1)
        )
        (path "/a1dcf03e-1354-4f68-9535-41ec60b25918/235a24a3-219c-4c03-9ab4-2064abe9e3a8"
          (reference "C13") (unit 1)
        )
      )
    )
  )

  (symbol (lib_id "power:GND") (at 95.25 95.25 270) (unit 1)
    (in_bom yes) (on_board yes) (dnp no) (fields_autoplaced)
    (uuid aafe223f-55da-479f-bc9e-8932ac3e6f9f)
    (property "Reference" "#PWR013" (at 88.9 95.25 0)
      (effects (font (size 1.27 1.27)) hide)
    )
    (property "Value" "GND" (at 91.44 95.25 90)
      (effects (font (size 1.27 1.27)) (justify right))
    )
    (property "Footprint" "" (at 95.25 95.25 0)
      (effects (font (size 1.27 1.27)) hide)
    )
    (property "Datasheet" "" (at 95.25 95.25 0)
      (effects (font (size 1.27 1.27)) hide)
    )
    (pin "1" (uuid 5b22b85b-37a6-4540-9a82-09d09dd2d1c1))
    (instances
      (project "power_pcb"
        (path "/6c7a9a4c-8b33-4232-ae64-31a131fa04bd/2faeaba3-adc6-4aa3-9b14-cc439410774f"
          (reference "#PWR013") (unit 1)
        )
      )
    )
  )

  (symbol (lib_id "Connector_Generic:Conn_01x01") (at 157.48 95.25 0) (unit 1)
    (in_bom yes) (on_board yes) (dnp no)
    (uuid b9bb6d23-18eb-4051-815f-e11c86fd9dad)
    (property "Reference" "GPIO1" (at 160.02 95.25 0)
      (effects (font (size 1.27 1.27)) (justify left))
    )
    (property "Value" "Conn_01x01" (at 160.02 96.52 0)
      (effects (font (size 1.27 1.27)) (justify left))
    )
    (property "Footprint" "Connector_PinHeader_2.54mm:PinHeader_1x01_P2.54mm_Vertical" (at 157.48 95.25 0)
      (effects (font (size 1.27 1.27)) hide)
    )
    (property "Datasheet" "~" (at 157.48 95.25 0)
      (effects (font (size 1.27 1.27)) hide)
    )
    (pin "1" (uuid 2525882a-8bb1-47e6-b4fd-352b6779dc89))
    (instances
      (project "power_pcb"
        (path "/6c7a9a4c-8b33-4232-ae64-31a131fa04bd"
          (reference "GPIO1") (unit 1)
        )
        (path "/6c7a9a4c-8b33-4232-ae64-31a131fa04bd/2faeaba3-adc6-4aa3-9b14-cc439410774f"
          (reference "GPIO2") (unit 1)
        )
      )
      (project "ece445-pcb"
        (path "/a1dcf03e-1354-4f68-9535-41ec60b25918"
          (reference "GPIO1") (unit 1)
        )
        (path "/a1dcf03e-1354-4f68-9535-41ec60b25918/235a24a3-219c-4c03-9ab4-2064abe9e3a8"
          (reference "GPIO1") (unit 1)
        )
      )
    )
  )

  (symbol (lib_id "Device:R") (at 109.22 76.2 90) (unit 1)
    (in_bom yes) (on_board yes) (dnp no)
    (uuid bab00ab0-97f0-4c81-bf09-f7bcf1bda091)
    (property "Reference" "R1" (at 107.95 73.66 0)
      (effects (font (size 1.27 1.27)) (justify left))
    )
    (property "Value" "1k" (at 110.49 73.66 0)
      (effects (font (size 1.27 1.27)) (justify left))
    )
    (property "Footprint" "Resistor_SMD:R_0805_2012Metric_Pad1.20x1.40mm_HandSolder" (at 109.22 77.978 90)
      (effects (font (size 1.27 1.27)) hide)
    )
    (property "Datasheet" "~" (at 109.22 76.2 0)
      (effects (font (size 1.27 1.27)) hide)
    )
    (pin "1" (uuid da350045-647c-4644-ad2b-fe2519d205b2))
    (pin "2" (uuid 48e40a4b-86c6-49be-a461-3410c16d44e0))
    (instances
      (project "power_pcb"
        (path "/6c7a9a4c-8b33-4232-ae64-31a131fa04bd"
          (reference "R1") (unit 1)
        )
        (path "/6c7a9a4c-8b33-4232-ae64-31a131fa04bd/2faeaba3-adc6-4aa3-9b14-cc439410774f"
          (reference "R6") (unit 1)
        )
      )
      (project "ece445-pcb"
        (path "/a1dcf03e-1354-4f68-9535-41ec60b25918"
          (reference "R4") (unit 1)
        )
        (path "/a1dcf03e-1354-4f68-9535-41ec60b25918/235a24a3-219c-4c03-9ab4-2064abe9e3a8"
          (reference "R4") (unit 1)
        )
      )
    )
  )

  (symbol (lib_id "Connector_Generic:Conn_01x02") (at 96.52 105.41 0) (unit 1)
    (in_bom yes) (on_board yes) (dnp no) (fields_autoplaced)
    (uuid d2337f91-bc35-45f9-b9f9-233e121eab94)
    (property "Reference" "SCL/SDA1" (at 99.06 105.41 0)
      (effects (font (size 1.27 1.27)) (justify left))
    )
    (property "Value" "Conn_01x02" (at 99.06 107.95 0)
      (effects (font (size 1.27 1.27)) (justify left))
    )
    (property "Footprint" "Connector_Molex:Molex_KK-254_AE-6410-02A_1x02_P2.54mm_Vertical" (at 96.52 105.41 0)
      (effects (font (size 1.27 1.27)) hide)
    )
    (property "Datasheet" "~" (at 96.52 105.41 0)
      (effects (font (size 1.27 1.27)) hide)
    )
    (pin "1" (uuid 13cddb33-a4bf-4247-880e-1ae8a2f2e256))
    (pin "2" (uuid 7356dec3-eb67-499f-ab0f-f9ec1274000c))
    (instances
      (project "power_pcb"
        (path "/6c7a9a4c-8b33-4232-ae64-31a131fa04bd"
          (reference "SCL/SDA1") (unit 1)
        )
        (path "/6c7a9a4c-8b33-4232-ae64-31a131fa04bd/2faeaba3-adc6-4aa3-9b14-cc439410774f"
          (reference "SCL/SDA2") (unit 1)
        )
      )
      (project "ece445-pcb"
        (path "/a1dcf03e-1354-4f68-9535-41ec60b25918"
          (reference "SCL/SDA1") (unit 1)
        )
        (path "/a1dcf03e-1354-4f68-9535-41ec60b25918/235a24a3-219c-4c03-9ab4-2064abe9e3a8"
          (reference "SCL/SDA1") (unit 1)
        )
      )
    )
  )

  (symbol (lib_id "Device:C_Polarized_Small_US") (at 90.17 95.25 0) (unit 1)
    (in_bom yes) (on_board yes) (dnp no)
    (uuid d5247c74-2d82-41d5-9e7d-c0c55b44ce87)
    (property "Reference" "C6" (at 92.71 93.5482 0)
      (effects (font (size 1.27 1.27)) (justify left))
    )
    (property "Value" "0.1uF" (at 92.71 96.0882 0)
      (effects (font (size 1.27 1.27)) (justify left))
    )
    (property "Footprint" "Capacitor_SMD:C_0805_2012Metric_Pad1.18x1.45mm_HandSolder" (at 90.17 95.25 0)
      (effects (font (size 1.27 1.27)) hide)
    )
    (property "Datasheet" "~" (at 90.17 95.25 0)
      (effects (font (size 1.27 1.27)) hide)
    )
    (pin "1" (uuid 9b1d9d6c-d53f-499a-92a0-050b94f59bcb))
    (pin "2" (uuid 31ac9cec-da59-4661-9fe7-3e51b1d36bcd))
    (instances
      (project "power_pcb"
        (path "/6c7a9a4c-8b33-4232-ae64-31a131fa04bd"
          (reference "C6") (unit 1)
        )
        (path "/6c7a9a4c-8b33-4232-ae64-31a131fa04bd/2faeaba3-adc6-4aa3-9b14-cc439410774f"
          (reference "C11") (unit 1)
        )
      )
      (project "ece445-pcb"
        (path "/a1dcf03e-1354-4f68-9535-41ec60b25918"
          (reference "C7") (unit 1)
        )
        (path "/a1dcf03e-1354-4f68-9535-41ec60b25918/235a24a3-219c-4c03-9ab4-2064abe9e3a8"
          (reference "C7") (unit 1)
        )
      )
    )
  )

  (symbol (lib_id "power:GND") (at 151.13 116.84 0) (unit 1)
    (in_bom yes) (on_board yes) (dnp no) (fields_autoplaced)
    (uuid ec607ccf-022a-4643-8d00-340f768beb36)
    (property "Reference" "#PWR023" (at 151.13 123.19 0)
      (effects (font (size 1.27 1.27)) hide)
    )
    (property "Value" "GND" (at 151.13 121.92 0)
      (effects (font (size 1.27 1.27)))
    )
    (property "Footprint" "" (at 151.13 116.84 0)
      (effects (font (size 1.27 1.27)) hide)
    )
    (property "Datasheet" "" (at 151.13 116.84 0)
      (effects (font (size 1.27 1.27)) hide)
    )
    (pin "1" (uuid 0ff8caa0-9b04-44d4-81ff-30ac6be1efba))
    (instances
      (project "power_pcb"
        (path "/6c7a9a4c-8b33-4232-ae64-31a131fa04bd/2faeaba3-adc6-4aa3-9b14-cc439410774f"
          (reference "#PWR023") (unit 1)
        )
      )
    )
  )

  (symbol (lib_id "power:GND") (at 95.25 85.09 180) (unit 1)
    (in_bom yes) (on_board yes) (dnp no) (fields_autoplaced)
    (uuid ffeb72cb-3840-40f6-8f2d-4ff38ac1c3b6)
    (property "Reference" "#PWR024" (at 95.25 78.74 0)
      (effects (font (size 1.27 1.27)) hide)
    )
    (property "Value" "GND" (at 95.25 80.01 0)
      (effects (font (size 1.27 1.27)))
    )
    (property "Footprint" "" (at 95.25 85.09 0)
      (effects (font (size 1.27 1.27)) hide)
    )
    (property "Datasheet" "" (at 95.25 85.09 0)
      (effects (font (size 1.27 1.27)) hide)
    )
    (pin "1" (uuid 36f61166-9617-4b92-b161-24684327ae5c))
    (instances
      (project "power_pcb"
        (path "/6c7a9a4c-8b33-4232-ae64-31a131fa04bd/2faeaba3-adc6-4aa3-9b14-cc439410774f"
          (reference "#PWR024") (unit 1)
        )
      )
    )
  )
)
