PCBNEW-LibModule-V1  2023-10-31 05:46:39
# encoding utf-8
Units mm
$INDEX
CAPPM7343X310N
$EndINDEX
$MODULE CAPPM7343X310N
Po 0 0 0 15 654094bf 00000000 ~~
Li CAPPM7343X310N
Cd Case Code D
Kw Capacitor Polarised
Sc 0
At SMD
AR 
Op 0 0 0
T0 0 0 1.27 1.27 0 0.254 N V 21 N "C**"
T1 0 0 1.27 1.27 0 0.254 N I 21 N "CAPPM7343X310N"
DS -4.525 -2.55 4.525 -2.55 0.05 24
DS 4.525 -2.55 4.525 2.55 0.05 24
DS 4.525 2.55 -4.525 2.55 0.05 24
DS -4.525 2.55 -4.525 -2.55 0.05 24
DS -3.65 -2.15 3.65 -2.15 0.1 24
DS 3.65 -2.15 3.65 2.15 0.1 24
DS 3.65 2.15 -3.65 2.15 0.1 24
DS -3.65 2.15 -3.65 -2.15 0.1 24
DS -3.65 -0.975 -2.475 -2.15 0.1 24
DS 3.65 -2.15 -4.275 -2.15 0.2 21
DS -3.65 2.15 3.65 2.15 0.2 21
$PAD
Po -3.1 0
Sh "1" R 2.35 2.45 0 0 0
At SMD N 00888000
Ne 0 ""
$EndPAD
$PAD
Po 3.1 0
Sh "2" R 2.35 2.45 0 0 0
At SMD N 00888000
Ne 0 ""
$EndPAD
$EndMODULE CAPPM7343X310N
$EndLIBRARY
