(footprint "SOP8_ROM" (version 20211014) (generator pcbnew)
  (layer "F.Cu")
  (tags "BD6231F-E2 ")
  (attr smd)
  (fp_text reference "REF**" (at 0 0 unlocked) (layer F.SilkS)
    (effects (font (size 1 1) (thickness 0.15)))
  )
  (fp_text value SOP8_ROM (at 0 0 unlocked) (layer F.Fab)
    (effects (font (size 1 1) (thickness 0.15)))
  )
  (fp_text user "${REFERENCE}" (at 0 0 unlocked) (layer F.Fab)
    (effects (font (size 1 1) (thickness 0.15)))
  )
  (fp_text user "*" (at -3.2004 -3.5306) (layer F.SilkS)
    (effects (font (size 1 1) (thickness 0.15)))
  )
  (fp_text user "*" (at -1.8161 -2.4257) (layer F.Fab)
    (effects (font (size 1 1) (thickness 0.15)))
  )
  (fp_line (start -2.1971 -1.6891) (end -2.1971 -2.1209) (layer "F.Fab") (width 0.0254))
  (fp_line (start -2.1971 -2.1209) (end -3.0988 -2.1209) (layer "F.Fab") (width 0.0254))
  (fp_line (start -3.0988 -2.1209) (end -3.0988 -1.6891) (layer "F.Fab") (width 0.0254))
  (fp_line (start -3.0988 -1.6891) (end -2.1971 -1.6891) (layer "F.Fab") (width 0.0254))
  (fp_line (start -2.1971 -0.4191) (end -2.1971 -0.8509) (layer "F.Fab") (width 0.0254))
  (fp_line (start -2.1971 -0.8509) (end -3.0988 -0.8509) (layer "F.Fab") (width 0.0254))
  (fp_line (start -3.0988 -0.8509) (end -3.0988 -0.4191) (layer "F.Fab") (width 0.0254))
  (fp_line (start -3.0988 -0.4191) (end -2.1971 -0.4191) (layer "F.Fab") (width 0.0254))
  (fp_line (start -2.1971 0.8509) (end -2.1971 0.4191) (layer "F.Fab") (width 0.0254))
  (fp_line (start -2.1971 0.4191) (end -3.0988 0.4191) (layer "F.Fab") (width 0.0254))
  (fp_line (start -3.0988 0.4191) (end -3.0988 0.8509) (layer "F.Fab") (width 0.0254))
  (fp_line (start -3.0988 0.8509) (end -2.1971 0.8509) (layer "F.Fab") (width 0.0254))
  (fp_line (start -2.1971 2.1209) (end -2.1971 1.6891) (layer "F.Fab") (width 0.0254))
  (fp_line (start -2.1971 1.6891) (end -3.0988 1.6891) (layer "F.Fab") (width 0.0254))
  (fp_line (start -3.0988 1.6891) (end -3.0988 2.1209) (layer "F.Fab") (width 0.0254))
  (fp_line (start -3.0988 2.1209) (end -2.1971 2.1209) (layer "F.Fab") (width 0.0254))
  (fp_line (start 2.1971 1.6891) (end 2.1971 2.1209) (layer "F.Fab") (width 0.0254))
  (fp_line (start 2.1971 2.1209) (end 3.0988 2.1209) (layer "F.Fab") (width 0.0254))
  (fp_line (start 3.0988 2.1209) (end 3.0988 1.6891) (layer "F.Fab") (width 0.0254))
  (fp_line (start 3.0988 1.6891) (end 2.1971 1.6891) (layer "F.Fab") (width 0.0254))
  (fp_line (start 2.1971 0.4191) (end 2.1971 0.8509) (layer "F.Fab") (width 0.0254))
  (fp_line (start 2.1971 0.8509) (end 3.0988 0.8509) (layer "F.Fab") (width 0.0254))
  (fp_line (start 3.0988 0.8509) (end 3.0988 0.4191) (layer "F.Fab") (width 0.0254))
  (fp_line (start 3.0988 0.4191) (end 2.1971 0.4191) (layer "F.Fab") (width 0.0254))
  (fp_line (start 2.1971 -0.8509) (end 2.1971 -0.4191) (layer "F.Fab") (width 0.0254))
  (fp_line (start 2.1971 -0.4191) (end 3.0988 -0.4191) (layer "F.Fab") (width 0.0254))
  (fp_line (start 3.0988 -0.4191) (end 3.0988 -0.8509) (layer "F.Fab") (width 0.0254))
  (fp_line (start 3.0988 -0.8509) (end 2.1971 -0.8509) (layer "F.Fab") (width 0.0254))
  (fp_line (start 2.1971 -2.1209) (end 2.1971 -1.6891) (layer "F.Fab") (width 0.0254))
  (fp_line (start 2.1971 -1.6891) (end 3.0988 -1.6891) (layer "F.Fab") (width 0.0254))
  (fp_line (start 3.0988 -1.6891) (end 3.0988 -2.1209) (layer "F.Fab") (width 0.0254))
  (fp_line (start 3.0988 -2.1209) (end 2.1971 -2.1209) (layer "F.Fab") (width 0.0254))
  (fp_line (start -3.7084 2.4003) (end -3.7084 -2.4003) (layer "F.CrtYd") (width 0.1524))
  (fp_line (start -3.7084 -2.4003) (end -2.4511 -2.4003) (layer "F.CrtYd") (width 0.1524))
  (fp_line (start -2.4511 -2.4003) (end -2.4511 -2.7559) (layer "F.CrtYd") (width 0.1524))
  (fp_line (start -2.4511 -2.7559) (end 2.4511 -2.7559) (layer "F.CrtYd") (width 0.1524))
  (fp_line (start 2.4511 -2.7559) (end 2.4511 -2.4003) (layer "F.CrtYd") (width 0.1524))
  (fp_line (start 3.7084 -2.4003) (end 2.4511 -2.4003) (layer "F.CrtYd") (width 0.1524))
  (fp_line (start 3.7084 -2.4003) (end 3.7084 2.4003) (layer "F.CrtYd") (width 0.1524))
  (fp_line (start 3.7084 2.4003) (end 2.4511 2.4003) (layer "F.CrtYd") (width 0.1524))
  (fp_line (start 2.4511 2.4003) (end 2.4511 2.7559) (layer "F.CrtYd") (width 0.1524))
  (fp_line (start 2.4511 2.7559) (end -2.4511 2.7559) (layer "F.CrtYd") (width 0.1524))
  (fp_line (start -2.4511 2.7559) (end -2.4511 2.4003) (layer "F.CrtYd") (width 0.1524))
  (fp_line (start -3.7084 2.4003) (end -2.4511 2.4003) (layer "F.CrtYd") (width 0.1524))
  (fp_text user "*" (at -3.2004 -3.5306 unlocked) (layer "F.SilkS")
    (effects (font (size 1 1) (thickness 0.15)))
  )
  (fp_text user "*" (at -1.8161 -2.4257 unlocked) (layer "F.Fab")
    (effects (font (size 1 1) (thickness 0.15)))
  )
  (fp_line (start -2.3241 2.6289) (end 2.3241 2.6289) (layer "F.SilkS") (width 0.1524))
  (fp_line (start 2.3241 2.6289) (end 2.3241 2.458792) (layer "F.SilkS") (width 0.1524))
  (fp_line (start 2.3241 -2.6289) (end -2.3241 -2.6289) (layer "F.SilkS") (width 0.1524))
  (fp_line (start -2.3241 -2.6289) (end -2.3241 -2.458792) (layer "F.SilkS") (width 0.1524))
  (fp_line (start -2.1971 2.5019) (end 2.1971 2.5019) (layer "F.Fab") (width 0.0254))
  (fp_line (start 2.1971 2.5019) (end 2.1971 -2.5019) (layer "F.Fab") (width 0.0254))
  (fp_line (start 2.1971 -2.5019) (end -2.1971 -2.5019) (layer "F.Fab") (width 0.0254))
  (fp_line (start -2.1971 -2.5019) (end -2.1971 2.5019) (layer "F.Fab") (width 0.0254))
  (fp_arc (start 0.3048 -2.5019) (mid 0 -2.1971) (end -0.3048 -2.5019) (layer "F.Fab") (width 0.0254))
  (fp_line (start -2.3241 -1.351208) (end -2.3241 -1.188792) (layer "F.SilkS") (width 0.1524))
  (fp_line (start -2.3241 -0.081208) (end -2.3241 0.081208) (layer "F.SilkS") (width 0.1524))
  (fp_line (start -2.3241 1.188792) (end -2.3241 1.351208) (layer "F.SilkS") (width 0.1524))
  (fp_line (start -2.3241 2.458792) (end -2.3241 2.6289) (layer "F.SilkS") (width 0.1524))
  (fp_line (start 2.3241 1.351208) (end 2.3241 1.188792) (layer "F.SilkS") (width 0.1524))
  (fp_line (start 2.3241 0.081208) (end 2.3241 -0.081208) (layer "F.SilkS") (width 0.1524))
  (fp_line (start 2.3241 -1.188792) (end 2.3241 -1.351208) (layer "F.SilkS") (width 0.1524))
  (fp_line (start 2.3241 -2.458792) (end 2.3241 -2.6289) (layer "F.SilkS") (width 0.1524))
  (pad "1" smd rect (at -2.9464 -1.905) (size 1.016 0.4826) (layers "F.Cu" "F.Paste" "F.Mask"))
  (pad "2" smd rect (at -2.9464 -0.635) (size 1.016 0.4826) (layers "F.Cu" "F.Paste" "F.Mask"))
  (pad "3" smd rect (at -2.9464 0.635) (size 1.016 0.4826) (layers "F.Cu" "F.Paste" "F.Mask"))
  (pad "4" smd rect (at -2.9464 1.905) (size 1.016 0.4826) (layers "F.Cu" "F.Paste" "F.Mask"))
  (pad "5" smd rect (at 2.9464 1.905) (size 1.016 0.4826) (layers "F.Cu" "F.Paste" "F.Mask"))
  (pad "6" smd rect (at 2.9464 0.635) (size 1.016 0.4826) (layers "F.Cu" "F.Paste" "F.Mask"))
  (pad "7" smd rect (at 2.9464 -0.635) (size 1.016 0.4826) (layers "F.Cu" "F.Paste" "F.Mask"))
  (pad "8" smd rect (at 2.9464 -1.905) (size 1.016 0.4826) (layers "F.Cu" "F.Paste" "F.Mask"))
)
