PCBNEW-LibModule-V1  2023-10-31 20:04:05
# encoding utf-8
Units mm
$INDEX
ERA8KEB1004V
$EndINDEX
$MODULE ERA8KEB1004V
Po 0 0 0 15 65415db5 00000000 ~~
Li ERA8KEB1004V
Cd ERA8K/V
Kw Resistor
Sc 0
At SMD
AR 
Op 0 0 0
T0 0.000 -0 1.27 1.27 0 0.254 N V 21 N "R**"
T1 0.000 -0 1.27 1.27 0 0.254 N I 21 N "ERA8KEB1004V"
DS -1.6 -0.8 1.6 -0.8 0.1 24
DS 1.6 -0.8 1.6 0.8 0.1 24
DS 1.6 0.8 -1.6 0.8 0.1 24
DS -1.6 0.8 -1.6 -0.8 0.1 24
DS -3.35 -1.8 3.35 -1.8 0.1 24
DS 3.35 -1.8 3.35 1.8 0.1 24
DS 3.35 1.8 -3.35 1.8 0.1 24
DS -3.35 1.8 -3.35 -1.8 0.1 24
DS -2.8 -0.1 -2.8 -0.1 0.2 21
DS -2.8 0.1 -2.8 0.1 0.2 21
DS -0.9 0.8 0.9 0.8 0.2 21
DS -0.9 -0.8 0.9 -0.8 0.2 21
DA -2.8 -0 -2.800 -0.1 -1800 0.2 21
DA -2.8 -0 -2.800 0.1 -1800 0.2 21
$PAD
Po -1.725 -0
Sh "1" R 1.250 1.500 0 0 0
At SMD N 00888000
Ne 0 ""
$EndPAD
$PAD
Po 1.725 -0
Sh "2" R 1.250 1.500 0 0 0
At SMD N 00888000
Ne 0 ""
$EndPAD
$EndMODULE ERA8KEB1004V
$EndLIBRARY
